EESchema Schematic File Version 4
EELAYER 30 0
EELAYER END
$Descr A4 11693 8268
encoding utf-8
Sheet 1 4
Title ""
Date ""
Rev ""
Comp ""
Comment1 ""
Comment2 ""
Comment3 ""
Comment4 ""
$EndDescr
$Sheet
S 4950 3300 750  700 
U 5F47A7CE
F0 "Analog" 50
F1 "analog.sch" 50
F2 "EN_IN" I L 4950 3400 50 
F3 "PWR_SEL" I L 4950 3800 50 
F4 "PWM" O R 5700 3600 50 
F5 "~PWM" O R 5700 3700 50 
F6 "~RST" O R 5700 3900 50 
F7 "CLK" O R 5700 3400 50 
F8 "F_SEL" I L 4950 3900 50 
$EndSheet
$Comp
L power:VCC #PWR0106
U 1 1 5F7238E3
P 4200 2900
F 0 "#PWR0106" H 4200 2750 50  0001 C CNN
F 1 "VCC" H 4215 3073 50  0000 C CNN
F 2 "" H 4200 2900 50  0001 C CNN
F 3 "" H 4200 2900 50  0001 C CNN
	1    4200 2900
	1    0    0    -1  
$EndComp
$Comp
L power:VDC #PWR0108
U 1 1 5F723C3E
P 4000 2900
F 0 "#PWR0108" H 4000 2800 50  0001 C CNN
F 1 "VDC" H 4015 3073 50  0000 C CNN
F 2 "" H 4000 2900 50  0001 C CNN
F 3 "" H 4000 2900 50  0001 C CNN
	1    4000 2900
	1    0    0    -1  
$EndComp
Wire Wire Line
	6300 3600 5700 3600
Wire Wire Line
	3550 3200 3650 3200
Wire Wire Line
	4000 3100 4000 2900
Wire Wire Line
	3550 3300 4200 3300
Wire Wire Line
	4200 3300 4200 2900
$Comp
L Connector:Screw_Terminal_01x12 J?
U 1 1 5F83DF98
P 9250 3600
AR Path="/5F184EC4/5F83DF98" Ref="J?"  Part="1" 
AR Path="/5F83DF98" Ref="J2"  Part="1" 
F 0 "J2" H 9250 2900 50  0000 C CNN
F 1 "Conn_01x12_Male" H 9550 4200 50  0001 R CNN
F 2 "Connector_Phoenix_MC:PhoenixContact_MCV_1,5_12-GF-3.5_1x12_P3.50mm_Vertical_ThreadedFlange_MountHole" H 9250 3600 50  0001 C CNN
F 3 "~" H 9250 3600 50  0001 C CNN
	1    9250 3600
	1    0    0    1   
$EndComp
Wire Wire Line
	8300 3400 9050 3400
Wire Wire Line
	8300 3500 9050 3500
Wire Wire Line
	8500 3800 9050 3800
Wire Wire Line
	8600 3900 9050 3900
Wire Wire Line
	8700 4000 9050 4000
Wire Wire Line
	9050 3700 8300 3700
Wire Wire Line
	8300 3600 9050 3600
Wire Wire Line
	8300 3200 8500 3200
Wire Wire Line
	8500 3200 8500 3300
Wire Wire Line
	8500 3300 9050 3300
Wire Wire Line
	8300 3100 8600 3100
Wire Wire Line
	8600 3100 8600 3200
Wire Wire Line
	8600 3200 9050 3200
Wire Wire Line
	8300 3000 8700 3000
Wire Wire Line
	8700 3000 8700 3100
Wire Wire Line
	8700 3100 9050 3100
Wire Wire Line
	8300 2900 8800 2900
Wire Wire Line
	8800 2900 8800 3000
Wire Wire Line
	8800 3000 9050 3000
Wire Wire Line
	8300 3900 8500 3900
Wire Wire Line
	8500 3900 8500 3800
Wire Wire Line
	8300 4000 8600 4000
Wire Wire Line
	8600 4000 8600 3900
Wire Wire Line
	8300 4100 8700 4100
Wire Wire Line
	8700 4100 8700 4000
Wire Wire Line
	8300 4200 8800 4200
Wire Wire Line
	8800 4200 8800 4100
Wire Wire Line
	8800 4100 9050 4100
$Comp
L Mechanical:MountingHole H1
U 1 1 5F0509E4
P 7050 6350
F 0 "H1" H 7150 6396 50  0000 L CNN
F 1 "MountingHole" H 7150 6305 50  0000 L CNN
F 2 "MountingHole:MountingHole_3.2mm_M3_ISO7380" H 7050 6350 50  0001 C CNN
F 3 "~" H 7050 6350 50  0001 C CNN
	1    7050 6350
	1    0    0    -1  
$EndComp
$Comp
L Mechanical:MountingHole H2
U 1 1 5F05117D
P 7800 6350
F 0 "H2" H 7900 6396 50  0000 L CNN
F 1 "MountingHole" H 7900 6305 50  0000 L CNN
F 2 "MountingHole:MountingHole_3.2mm_M3_ISO7380" H 7800 6350 50  0001 C CNN
F 3 "~" H 7800 6350 50  0001 C CNN
	1    7800 6350
	1    0    0    -1  
$EndComp
$Comp
L Mechanical:MountingHole H3
U 1 1 5F051326
P 8550 6350
F 0 "H3" H 8650 6396 50  0000 L CNN
F 1 "MountingHole" H 8650 6305 50  0000 L CNN
F 2 "MountingHole:MountingHole_3.2mm_M3_ISO7380" H 8550 6350 50  0001 C CNN
F 3 "~" H 8550 6350 50  0001 C CNN
	1    8550 6350
	1    0    0    -1  
$EndComp
$Comp
L Mechanical:MountingHole H4
U 1 1 5F05142F
P 9300 6350
F 0 "H4" H 9400 6396 50  0000 L CNN
F 1 "MountingHole" H 9400 6305 50  0000 L CNN
F 2 "MountingHole:MountingHole_3.2mm_M3_ISO7380" H 9300 6350 50  0001 C CNN
F 3 "~" H 9300 6350 50  0001 C CNN
	1    9300 6350
	1    0    0    -1  
$EndComp
Wire Wire Line
	5700 3700 6300 3700
Wire Wire Line
	3650 3200 3650 4000
$Sheet
S 7500 2800 800  1500
U 61B81A35
F0 "Driver" 50
F1 "driver.sch" 50
F2 "W.HO" O R 8300 4200 50 
F3 "W.HS" O R 8300 4100 50 
F4 "W.LO" O R 8300 4000 50 
F5 "W.LS" O R 8300 3900 50 
F6 "V.HO" O R 8300 3700 50 
F7 "V.HS" O R 8300 3600 50 
F8 "V.LO" O R 8300 3500 50 
F9 "V.LS" O R 8300 3400 50 
F10 "U.HO" O R 8300 3200 50 
F11 "U.HS" O R 8300 3100 50 
F12 "U.LO" O R 8300 3000 50 
F13 "U.LS" O R 8300 2900 50 
F14 "U.IN" I L 7500 3000 50 
F15 "U.~SD" I L 7500 3100 50 
F16 "V.IN" I L 7500 3500 50 
F17 "V.~SD" I L 7500 3600 50 
F18 "W.IN" I L 7500 4000 50 
F19 "W.~SD" I L 7500 4100 50 
$EndSheet
Wire Wire Line
	7200 4100 7500 4100
Wire Wire Line
	7500 4000 7200 4000
Wire Wire Line
	7200 3600 7500 3600
Wire Wire Line
	7500 3500 7200 3500
Wire Wire Line
	7200 3100 7500 3100
Wire Wire Line
	7500 3000 7200 3000
Wire Wire Line
	5700 3900 6000 3900
Wire Wire Line
	5700 3400 6300 3400
$Comp
L Connector:Screw_Terminal_01x10 J1
U 1 1 5F817A26
P 3350 3500
F 0 "J1" H 3350 4000 50  0000 C CNN
F 1 "Conn_01x08_Male" H 3458 3890 50  0001 C CNN
F 2 "Connector_Phoenix_MC:PhoenixContact_MCV_1,5_10-GF-3.5_1x10_P3.50mm_Vertical_ThreadedFlange_MountHole" H 3350 3500 50  0001 C CNN
F 3 "~" H 3350 3500 50  0001 C CNN
	1    3350 3500
	-1   0    0    -1  
$EndComp
Wire Wire Line
	3550 4000 3650 4000
Connection ~ 3650 4000
Wire Wire Line
	3850 4200 4400 4200
Wire Wire Line
	6000 4200 6000 3900
Connection ~ 6000 3900
Wire Wire Line
	6000 3900 6300 3900
$Comp
L Device:R R?
U 1 1 622791DC
P 4550 4200
AR Path="/5F47A7CE/622791DC" Ref="R?"  Part="1" 
AR Path="/622791DC" Ref="R23"  Part="1" 
F 0 "R23" V 4343 4200 50  0000 C CNN
F 1 "1k" V 4434 4200 50  0000 C CNN
F 2 "Resistor_SMD:R_0805_2012Metric" V 4480 4200 50  0001 C CNN
F 3 "~" H 4550 4200 50  0001 C CNN
F 4 "C17513" H 4550 4200 50  0001 C CNN "LCSC"
	1    4550 4200
	0    1    1    0   
$EndComp
Wire Wire Line
	4700 4200 6000 4200
Wire Wire Line
	3650 4000 3650 4100
$Comp
L power:GND #PWR0107
U 1 1 5F723A55
P 3650 4100
F 0 "#PWR0107" H 3650 3850 50  0001 C CNN
F 1 "GND" H 3655 3927 50  0000 C CNN
F 2 "" H 3650 4100 50  0001 C CNN
F 3 "" H 3650 4100 50  0001 C CNN
	1    3650 4100
	1    0    0    -1  
$EndComp
Wire Wire Line
	3550 3100 4000 3100
$Comp
L power:PWR_FLAG #FLG0101
U 1 1 6229A04F
P 4250 4750
F 0 "#FLG0101" H 4250 4825 50  0001 C CNN
F 1 "PWR_FLAG" V 4250 4878 50  0000 L CNN
F 2 "" H 4250 4750 50  0001 C CNN
F 3 "~" H 4250 4750 50  0001 C CNN
	1    4250 4750
	0    1    1    0   
$EndComp
$Comp
L power:VDC #PWR0142
U 1 1 622A27F8
P 4150 4750
F 0 "#PWR0142" H 4150 4650 50  0001 C CNN
F 1 "VDC" V 4165 4877 50  0000 L CNN
F 2 "" H 4150 4750 50  0001 C CNN
F 3 "" H 4150 4750 50  0001 C CNN
	1    4150 4750
	0    -1   -1   0   
$EndComp
Wire Wire Line
	4250 4750 4150 4750
$Comp
L power:GND #PWR0143
U 1 1 622A4771
P 4150 4850
F 0 "#PWR0143" H 4150 4600 50  0001 C CNN
F 1 "GND" V 4155 4722 50  0000 R CNN
F 2 "" H 4150 4850 50  0001 C CNN
F 3 "" H 4150 4850 50  0001 C CNN
	1    4150 4850
	0    1    1    0   
$EndComp
$Comp
L power:PWR_FLAG #FLG0102
U 1 1 622A4C4E
P 4250 4850
F 0 "#FLG0102" H 4250 4925 50  0001 C CNN
F 1 "PWR_FLAG" V 4250 4978 50  0000 L CNN
F 2 "" H 4250 4850 50  0001 C CNN
F 3 "~" H 4250 4850 50  0001 C CNN
	1    4250 4850
	0    1    1    0   
$EndComp
Wire Wire Line
	4250 4850 4150 4850
Wire Wire Line
	3550 3400 4950 3400
Wire Wire Line
	4600 3700 3550 3700
Wire Wire Line
	3850 3500 3550 3500
Wire Wire Line
	3850 3500 3850 4200
Wire Wire Line
	3550 3900 4950 3900
Wire Wire Line
	3550 3600 4500 3600
Wire Wire Line
	4950 3800 3550 3800
$Sheet
S 6300 2800 900  1500
U 5F184EC4
F0 "Generator" 50
F1 "generator.sch" 50
F2 "PWM" I L 6300 3600 50 
F3 "DMOD" I L 6300 3100 50 
F4 "~PWM" I L 6300 3700 50 
F5 "PMOD" I L 6300 3000 50 
F6 "U.IN" O R 7200 3000 50 
F7 "U.~SD" O R 7200 3100 50 
F8 "V.IN" O R 7200 3500 50 
F9 "V.~SD" O R 7200 3600 50 
F10 "W.IN" O R 7200 4000 50 
F11 "W.~SD" O R 7200 4100 50 
F12 "~RST" I L 6300 3900 50 
F13 "CLK" I L 6300 3400 50 
$EndSheet
Wire Wire Line
	6300 3100 4600 3100
Wire Wire Line
	4600 3100 4600 3700
Wire Wire Line
	6300 3000 4500 3000
Wire Wire Line
	4500 3000 4500 3600
Text Label 3950 4200 0    50   ~ 0
EN_OUT
$EndSCHEMATC
