EESchema Schematic File Version 4
EELAYER 30 0
EELAYER END
$Descr A4 11693 8268
encoding utf-8
Sheet 2 4
Title ""
Date ""
Rev ""
Comp ""
Comment1 ""
Comment2 ""
Comment3 ""
Comment4 ""
$EndDescr
$Comp
L Amplifier_Operational:LM358 U10
U 3 1 5F47BACA
P 1450 3600
F 0 "U10" H 1408 3646 50  0000 L CNN
F 1 "MCP6002" H 1408 3555 50  0000 L CNN
F 2 "Package_SO:SOIC-8_3.9x4.9mm_P1.27mm" H 1450 3600 50  0001 C CNN
F 3 "http://www.ti.com/lit/ds/symlink/lm2904-n.pdf" H 1450 3600 50  0001 C CNN
F 4 "C7377" H 1450 3600 50  0001 C CNN "LCSC"
	3    1450 3600
	1    0    0    -1  
$EndComp
$Comp
L Timer:LMC555xM U11
U 1 1 5F483ECB
P 7250 2200
F 0 "U11" H 7350 2550 50  0000 C CNN
F 1 "LMC555xM" H 7500 1850 50  0000 C CNN
F 2 "Package_SO:SOIC-8_3.9x4.9mm_P1.27mm" H 8100 1800 50  0001 C CNN
F 3 "http://www.ti.com/lit/ds/symlink/lmc555.pdf" H 8100 1800 50  0001 C CNN
F 4 "C90760" H 7250 2200 50  0001 C CNN "LCSC"
	1    7250 2200
	1    0    0    -1  
$EndComp
$Comp
L power:GND #PWR0116
U 1 1 5F485F52
P 7250 2700
F 0 "#PWR0116" H 7250 2450 50  0001 C CNN
F 1 "GND" H 7255 2527 50  0000 C CNN
F 2 "" H 7250 2700 50  0001 C CNN
F 3 "" H 7250 2700 50  0001 C CNN
	1    7250 2700
	1    0    0    -1  
$EndComp
Wire Wire Line
	6550 2400 6750 2400
$Comp
L Device:R R7
U 1 1 5F488652
P 5300 1250
F 0 "R7" H 5370 1296 50  0000 L CNN
F 1 "30k" H 5370 1205 50  0000 L CNN
F 2 "Resistor_SMD:R_0805_2012Metric" V 5230 1250 50  0001 C CNN
F 3 "~" H 5300 1250 50  0001 C CNN
F 4 "C17621" H 5300 1250 50  0001 C CNN "LCSC"
	1    5300 1250
	1    0    0    -1  
$EndComp
$Comp
L Transistor_BJT:MMBT3906 Q1
U 1 1 5F488BAE
P 5200 1700
F 0 "Q1" H 5390 1654 50  0000 L CNN
F 1 "MMBT3906" H 5390 1745 50  0000 L CNN
F 2 "Package_TO_SOT_SMD:SOT-23" H 5400 1625 50  0001 L CIN
F 3 "https://www.fairchildsemi.com/datasheets/2N/2N3906.pdf" H 5200 1700 50  0001 L CNN
F 4 "C8326" H 5200 1700 50  0001 C CNN "LCSC"
	1    5200 1700
	1    0    0    1   
$EndComp
Wire Wire Line
	5300 1400 5300 1500
Wire Wire Line
	4700 1000 4700 900 
Wire Wire Line
	4700 900  5300 900 
Wire Wire Line
	5300 900  5300 1100
Wire Wire Line
	4700 1600 4700 1700
Wire Wire Line
	4700 1700 5000 1700
$Comp
L Device:R R6
U 1 1 5F48D384
P 4700 2150
F 0 "R6" H 4770 2196 50  0000 L CNN
F 1 "1k" H 4770 2105 50  0000 L CNN
F 2 "Resistor_SMD:R_0805_2012Metric" V 4630 2150 50  0001 C CNN
F 3 "~" H 4700 2150 50  0001 C CNN
F 4 "C17513" H 4700 2150 50  0001 C CNN "LCSC"
	1    4700 2150
	1    0    0    -1  
$EndComp
$Comp
L Device:C C16
U 1 1 5F490834
P 5300 2450
F 0 "C16" H 5415 2496 50  0000 L CNN
F 1 "470p" H 5415 2405 50  0000 L CNN
F 2 "Capacitor_SMD:C_0805_2012Metric" H 5338 2300 50  0001 C CNN
F 3 "~" H 5300 2450 50  0001 C CNN
F 4 "C28256" H 5300 2450 50  0001 C CNN "LCSC"
	1    5300 2450
	1    0    0    -1  
$EndComp
Wire Wire Line
	6750 2000 6450 2000
Wire Wire Line
	5300 2000 5300 1900
Wire Wire Line
	6450 2000 6450 2650
Wire Wire Line
	6450 2650 7850 2650
Wire Wire Line
	7850 2400 7750 2400
Connection ~ 6450 2000
Wire Wire Line
	6450 2000 5300 2000
Wire Wire Line
	7850 2200 7850 2400
Connection ~ 7850 2400
Wire Wire Line
	7850 2400 7850 2650
$Comp
L power:GND #PWR0117
U 1 1 5F49C1A2
P 5300 2700
F 0 "#PWR0117" H 5300 2450 50  0001 C CNN
F 1 "GND" H 5305 2527 50  0000 C CNN
F 2 "" H 5300 2700 50  0001 C CNN
F 3 "" H 5300 2700 50  0001 C CNN
	1    5300 2700
	1    0    0    -1  
$EndComp
Wire Wire Line
	5300 2700 5300 2600
Wire Wire Line
	5300 2300 5300 2000
Connection ~ 5300 2000
Wire Wire Line
	4700 2000 4700 1700
Connection ~ 4700 1700
$Comp
L power:GND #PWR0118
U 1 1 5F49D5DC
P 4700 2700
F 0 "#PWR0118" H 4700 2450 50  0001 C CNN
F 1 "GND" H 4705 2527 50  0000 C CNN
F 2 "" H 4700 2700 50  0001 C CNN
F 3 "" H 4700 2700 50  0001 C CNN
	1    4700 2700
	1    0    0    -1  
$EndComp
Wire Wire Line
	4700 2700 4700 2300
Wire Wire Line
	7250 2600 7250 2700
Wire Wire Line
	5300 800  5300 900 
Connection ~ 5300 900 
Wire Wire Line
	7850 2200 9800 2200
$Comp
L power:VCC #PWR0119
U 1 1 5F4B9715
P 5300 800
F 0 "#PWR0119" H 5300 650 50  0001 C CNN
F 1 "VCC" H 5315 973 50  0000 C CNN
F 2 "" H 5300 800 50  0001 C CNN
F 3 "" H 5300 800 50  0001 C CNN
	1    5300 800 
	1    0    0    -1  
$EndComp
$Comp
L power:VCC #PWR0120
U 1 1 5F4BA1B2
P 7250 1600
F 0 "#PWR0120" H 7250 1450 50  0001 C CNN
F 1 "VCC" H 7265 1773 50  0000 C CNN
F 2 "" H 7250 1600 50  0001 C CNN
F 3 "" H 7250 1600 50  0001 C CNN
	1    7250 1600
	1    0    0    -1  
$EndComp
$Comp
L power:GND #PWR0122
U 1 1 5F4CEE4A
P 1350 4100
F 0 "#PWR0122" H 1350 3850 50  0001 C CNN
F 1 "GND" H 1355 3927 50  0000 C CNN
F 2 "" H 1350 4100 50  0001 C CNN
F 3 "" H 1350 4100 50  0001 C CNN
	1    1350 4100
	1    0    0    -1  
$EndComp
Wire Wire Line
	10700 2100 10600 2100
$Comp
L Device:R R4
U 1 1 5F55D0BA
P 1250 6700
F 0 "R4" H 1320 6746 50  0000 L CNN
F 1 "1k" H 1320 6655 50  0000 L CNN
F 2 "Resistor_SMD:R_0805_2012Metric" V 1180 6700 50  0001 C CNN
F 3 "~" H 1250 6700 50  0001 C CNN
F 4 "C17513" H 1250 6700 50  0001 C CNN "LCSC"
	1    1250 6700
	1    0    0    -1  
$EndComp
$Comp
L power:GND #PWR0124
U 1 1 5F55E0AA
P 1250 6950
F 0 "#PWR0124" H 1250 6700 50  0001 C CNN
F 1 "GND" H 1255 6777 50  0000 C CNN
F 2 "" H 1250 6950 50  0001 C CNN
F 3 "" H 1250 6950 50  0001 C CNN
	1    1250 6950
	1    0    0    -1  
$EndComp
Wire Wire Line
	1250 6950 1250 6850
Wire Wire Line
	1250 6450 1250 6550
Text HLabel 1050 6450 0    50   Input ~ 0
EN_IN
Text HLabel 8050 900  0    50   Input ~ 0
PWR_SEL
Wire Wire Line
	9900 2000 9600 2000
$Comp
L Device:C C17
U 1 1 5F797718
P 9050 2450
F 0 "C17" H 9165 2496 50  0000 L CNN
F 1 "100n" H 9165 2405 50  0000 L CNN
F 2 "Capacitor_SMD:C_0805_2012Metric" H 9088 2300 50  0001 C CNN
F 3 "~" H 9050 2450 50  0001 C CNN
F 4 "C49678" H 9050 2450 50  0001 C CNN "LCSC"
	1    9050 2450
	1    0    0    -1  
$EndComp
$Comp
L power:GND #PWR0126
U 1 1 5F799473
P 9050 2700
F 0 "#PWR0126" H 9050 2450 50  0001 C CNN
F 1 "GND" H 9055 2527 50  0000 C CNN
F 2 "" H 9050 2700 50  0001 C CNN
F 3 "" H 9050 2700 50  0001 C CNN
	1    9050 2700
	1    0    0    -1  
$EndComp
Wire Wire Line
	9050 2700 9050 2600
$Comp
L Device:R R8
U 1 1 5F7ABF8A
P 8300 900
F 0 "R8" V 8093 900 50  0000 C CNN
F 1 "1k" V 8184 900 50  0000 C CNN
F 2 "Resistor_SMD:R_0805_2012Metric" V 8230 900 50  0001 C CNN
F 3 "~" H 8300 900 50  0001 C CNN
F 4 "C17513" H 8300 900 50  0001 C CNN "LCSC"
	1    8300 900 
	0    1    1    0   
$EndComp
Wire Wire Line
	8150 900  8050 900 
Wire Wire Line
	8450 900  8650 900 
Connection ~ 9600 2000
$Comp
L Regulator_Linear:L78L05_SOT89 U8
U 1 1 5F56ED59
P 2050 1750
F 0 "U8" H 2050 1992 50  0000 C CNN
F 1 "78L05" H 2050 1901 50  0000 C CNN
F 2 "Package_TO_SOT_SMD:SOT-89-3" H 2075 1600 50  0001 L CIN
F 3 "http://www.st.com/content/ccc/resource/technical/document/datasheet/41/4f/b3/b0/12/d4/47/88/CD00000444.pdf/files/CD00000444.pdf/jcr:content/translations/en.CD00000444.pdf" H 2050 1700 50  0001 C CNN
F 4 "C71136" H 2050 1750 50  0001 C CNN "LCSC"
	1    2050 1750
	1    0    0    -1  
$EndComp
$Comp
L Device:C C13
U 1 1 5F56F24D
P 1250 2000
F 0 "C13" H 1365 2046 50  0000 L CNN
F 1 "10u" H 1365 1955 50  0000 L CNN
F 2 "Capacitor_SMD:C_1206_3216Metric" H 1288 1850 50  0001 C CNN
F 3 "~" H 1250 2000 50  0001 C CNN
F 4 "C13585" H 1250 2000 50  0001 C CNN "LCSC"
	1    1250 2000
	1    0    0    -1  
$EndComp
$Comp
L Device:C C15
U 1 1 5F56FD64
P 2750 2000
F 0 "C15" H 2865 2046 50  0000 L CNN
F 1 "10u" H 2865 1955 50  0000 L CNN
F 2 "Capacitor_SMD:C_1206_3216Metric" H 2788 1850 50  0001 C CNN
F 3 "~" H 2750 2000 50  0001 C CNN
F 4 "C13585" H 2750 2000 50  0001 C CNN "LCSC"
	1    2750 2000
	1    0    0    -1  
$EndComp
$Comp
L power:GND #PWR0127
U 1 1 5F570182
P 1250 2250
F 0 "#PWR0127" H 1250 2000 50  0001 C CNN
F 1 "GND" H 1255 2077 50  0000 C CNN
F 2 "" H 1250 2250 50  0001 C CNN
F 3 "" H 1250 2250 50  0001 C CNN
	1    1250 2250
	1    0    0    -1  
$EndComp
$Comp
L power:GND #PWR0128
U 1 1 5F570377
P 2050 2250
F 0 "#PWR0128" H 2050 2000 50  0001 C CNN
F 1 "GND" H 2055 2077 50  0000 C CNN
F 2 "" H 2050 2250 50  0001 C CNN
F 3 "" H 2050 2250 50  0001 C CNN
	1    2050 2250
	1    0    0    -1  
$EndComp
$Comp
L power:GND #PWR0129
U 1 1 5F57047F
P 2750 2250
F 0 "#PWR0129" H 2750 2000 50  0001 C CNN
F 1 "GND" H 2755 2077 50  0000 C CNN
F 2 "" H 2750 2250 50  0001 C CNN
F 3 "" H 2750 2250 50  0001 C CNN
	1    2750 2250
	1    0    0    -1  
$EndComp
Wire Wire Line
	2750 2250 2750 2150
Wire Wire Line
	2050 2050 2050 2250
Wire Wire Line
	1250 2150 1250 2250
Wire Wire Line
	1750 1750 1650 1750
Wire Wire Line
	1250 1750 1250 1850
Wire Wire Line
	2350 1750 2450 1750
Wire Wire Line
	2750 1750 2750 1850
$Comp
L power:VCC #PWR0130
U 1 1 5F57CFD8
P 2750 1650
F 0 "#PWR0130" H 2750 1500 50  0001 C CNN
F 1 "VCC" H 2765 1823 50  0000 C CNN
F 2 "" H 2750 1650 50  0001 C CNN
F 3 "" H 2750 1650 50  0001 C CNN
	1    2750 1650
	1    0    0    -1  
$EndComp
Wire Wire Line
	2750 1650 2750 1750
Connection ~ 2750 1750
$Comp
L power:VDC #PWR0131
U 1 1 5F586E53
P 1250 1650
F 0 "#PWR0131" H 1250 1550 50  0001 C CNN
F 1 "VDC" H 1265 1823 50  0000 C CNN
F 2 "" H 1250 1650 50  0001 C CNN
F 3 "" H 1250 1650 50  0001 C CNN
	1    1250 1650
	1    0    0    -1  
$EndComp
Wire Wire Line
	1250 1650 1250 1750
Connection ~ 1250 1750
$Comp
L Device:R R5
U 1 1 5F588C43
P 3200 1750
F 0 "R5" V 2993 1750 50  0000 C CNN
F 1 "1k" V 3084 1750 50  0000 C CNN
F 2 "Resistor_SMD:R_0805_2012Metric" V 3130 1750 50  0001 C CNN
F 3 "~" H 3200 1750 50  0001 C CNN
F 4 "C17513" H 3200 1750 50  0001 C CNN "LCSC"
	1    3200 1750
	0    1    1    0   
$EndComp
$Comp
L Device:LED D5
U 1 1 5F5891BF
P 3450 2000
F 0 "D5" V 3489 1882 50  0000 R CNN
F 1 "green" V 3398 1882 50  0000 R CNN
F 2 "LED_SMD:LED_0805_2012Metric_Castellated" H 3450 2000 50  0001 C CNN
F 3 "~" H 3450 2000 50  0001 C CNN
F 4 "C2297" H 3450 2000 50  0001 C CNN "LCSC"
	1    3450 2000
	0    -1   -1   0   
$EndComp
$Comp
L power:GND #PWR0132
U 1 1 5F589902
P 3450 2250
F 0 "#PWR0132" H 3450 2000 50  0001 C CNN
F 1 "GND" H 3455 2077 50  0000 C CNN
F 2 "" H 3450 2250 50  0001 C CNN
F 3 "" H 3450 2250 50  0001 C CNN
	1    3450 2250
	1    0    0    -1  
$EndComp
Wire Wire Line
	3450 2250 3450 2150
Wire Wire Line
	3450 1850 3450 1750
Wire Wire Line
	3450 1750 3350 1750
Wire Wire Line
	3050 1750 2750 1750
Text HLabel 10700 2950 2    50   Output ~ 0
PWM
Connection ~ 10600 2100
Wire Wire Line
	10600 2100 10500 2100
$Comp
L Device:R R12
U 1 1 5F066829
P 8650 2450
F 0 "R12" H 8580 2404 50  0000 R CNN
F 1 "100k" H 8580 2495 50  0000 R CNN
F 2 "Resistor_SMD:R_0805_2012Metric" V 8580 2450 50  0001 C CNN
F 3 "~" H 8650 2450 50  0001 C CNN
F 4 "C17407" H 8650 2450 50  0001 C CNN "LCSC"
	1    8650 2450
	-1   0    0    1   
$EndComp
$Comp
L power:GND #PWR0135
U 1 1 5F074F03
P 8650 2700
F 0 "#PWR0135" H 8650 2450 50  0001 C CNN
F 1 "GND" H 8655 2527 50  0000 C CNN
F 2 "" H 8650 2700 50  0001 C CNN
F 3 "" H 8650 2700 50  0001 C CNN
	1    8650 2700
	1    0    0    -1  
$EndComp
Wire Wire Line
	8650 2700 8650 2600
Wire Wire Line
	8650 2300 8650 2000
Connection ~ 7850 2200
Wire Wire Line
	7750 2200 7850 2200
$Comp
L Device:D D?
U 1 1 61638998
P 2050 1350
AR Path="/5F184EC4/61638998" Ref="D?"  Part="1" 
AR Path="/5F47A7CE/61638998" Ref="D8"  Part="1" 
F 0 "D8" H 2050 1133 50  0000 C CNN
F 1 "US1M" H 2050 1224 50  0000 C CNN
F 2 "Diode_SMD:D_SMA" H 2050 1350 50  0001 C CNN
F 3 "~" H 2050 1350 50  0001 C CNN
F 4 "C412437" H 2050 1350 50  0001 C CNN "LCSC"
	1    2050 1350
	1    0    0    1   
$EndComp
Wire Wire Line
	1650 1750 1650 1350
Wire Wire Line
	1650 1350 1900 1350
Connection ~ 1650 1750
Wire Wire Line
	1650 1750 1250 1750
Wire Wire Line
	2200 1350 2450 1350
Wire Wire Line
	2450 1350 2450 1750
Connection ~ 2450 1750
Wire Wire Line
	2450 1750 2750 1750
$Comp
L Amplifier_Operational:LM358 U12
U 2 1 6165907E
P 8000 4600
F 0 "U12" H 8000 4233 50  0000 C CNN
F 1 "MCP6002" H 8000 4324 50  0000 C CNN
F 2 "Package_SO:SOIC-8_3.9x4.9mm_P1.27mm" H 8000 4600 50  0001 C CNN
F 3 "http://www.ti.com/lit/ds/symlink/lm2904-n.pdf" H 8000 4600 50  0001 C CNN
F 4 "C7377" H 8000 4600 50  0001 C CNN "LCSC"
	2    8000 4600
	1    0    0    1   
$EndComp
Wire Wire Line
	8650 2000 9050 2000
Wire Wire Line
	9050 2300 9050 2000
Connection ~ 9050 2000
Wire Wire Line
	9050 2000 9600 2000
Wire Wire Line
	9600 2000 9600 2400
Wire Wire Line
	9600 3050 9900 3050
Wire Wire Line
	9900 2850 9800 2850
Wire Wire Line
	9800 2850 9800 2200
Connection ~ 9800 2200
Wire Wire Line
	9800 2200 9900 2200
Text HLabel 10700 2100 2    50   Output ~ 0
~PWM
Wire Wire Line
	8650 2000 8650 900 
Connection ~ 8650 2000
$Comp
L Timer:LMC555xM U13
U 1 1 617230D4
P 9700 4650
F 0 "U13" H 9800 5000 50  0000 C CNN
F 1 "LMC555xM" H 9950 4300 50  0000 C CNN
F 2 "Package_SO:SOIC-8_3.9x4.9mm_P1.27mm" H 10550 4250 50  0001 C CNN
F 3 "http://www.ti.com/lit/ds/symlink/lmc555.pdf" H 10550 4250 50  0001 C CNN
F 4 "C90760" H 9700 4650 50  0001 C CNN "LCSC"
	1    9700 4650
	1    0    0    -1  
$EndComp
$Comp
L power:GND #PWR09
U 1 1 61723658
P 9700 6100
F 0 "#PWR09" H 9700 5850 50  0001 C CNN
F 1 "GND" H 9705 5927 50  0000 C CNN
F 2 "" H 9700 6100 50  0001 C CNN
F 3 "" H 9700 6100 50  0001 C CNN
	1    9700 6100
	1    0    0    -1  
$EndComp
Wire Wire Line
	8750 4850 9200 4850
Wire Wire Line
	9200 4450 9000 4450
$Comp
L power:GND #PWR07
U 1 1 617236BA
P 8400 6100
F 0 "#PWR07" H 8400 5850 50  0001 C CNN
F 1 "GND" H 8405 5927 50  0000 C CNN
F 2 "" H 8400 6100 50  0001 C CNN
F 3 "" H 8400 6100 50  0001 C CNN
	1    8400 6100
	1    0    0    -1  
$EndComp
Wire Wire Line
	8400 6100 8400 6000
Wire Wire Line
	9700 5050 9700 6100
$Comp
L power:VCC #PWR08
U 1 1 617236E2
P 9700 4050
F 0 "#PWR08" H 9700 3900 50  0001 C CNN
F 1 "VCC" H 9715 4223 50  0000 C CNN
F 2 "" H 9700 4050 50  0001 C CNN
F 3 "" H 9700 4050 50  0001 C CNN
	1    9700 4050
	1    0    0    -1  
$EndComp
$Comp
L Device:C C?
U 1 1 6173BDC1
P 7900 5850
AR Path="/5F184EC4/6173BDC1" Ref="C?"  Part="1" 
AR Path="/5F47A7CE/6173BDC1" Ref="C21"  Part="1" 
F 0 "C21" H 8015 5896 50  0000 L CNN
F 1 "100n" H 8015 5805 50  0000 L CNN
F 2 "Capacitor_SMD:C_1206_3216Metric" H 7938 5700 50  0001 C CNN
F 3 "~" H 7900 5850 50  0001 C CNN
F 4 "C97946" H 7900 5850 50  0001 C CNN "LCSC"
	1    7900 5850
	1    0    0    -1  
$EndComp
$Comp
L Amplifier_Operational:LM358 U12
U 1 1 61747711
P 6700 5100
F 0 "U12" H 6700 5467 50  0000 C CNN
F 1 "MCP6002" H 6700 5376 50  0000 C CNN
F 2 "Package_SO:SOIC-8_3.9x4.9mm_P1.27mm" H 6700 5100 50  0001 C CNN
F 3 "http://www.ti.com/lit/ds/symlink/lm2904-n.pdf" H 6700 5100 50  0001 C CNN
F 4 "C7377" H 6700 5100 50  0001 C CNN "LCSC"
	1    6700 5100
	1    0    0    -1  
$EndComp
$Comp
L Amplifier_Operational:LM358 U12
U 3 1 61749BD4
P 2100 3600
F 0 "U12" H 2050 3650 50  0000 L CNN
F 1 "MCP6002" H 2050 3550 50  0000 L CNN
F 2 "Package_SO:SOIC-8_3.9x4.9mm_P1.27mm" H 2100 3600 50  0001 C CNN
F 3 "http://www.ti.com/lit/ds/symlink/lm2904-n.pdf" H 2100 3600 50  0001 C CNN
F 4 "C7377" H 2100 3600 50  0001 C CNN "LCSC"
	3    2100 3600
	1    0    0    -1  
$EndComp
$Comp
L power:VCC #PWR0121
U 1 1 5F4CE33E
P 1350 3100
F 0 "#PWR0121" H 1350 2950 50  0001 C CNN
F 1 "VCC" H 1365 3273 50  0000 C CNN
F 2 "" H 1350 3100 50  0001 C CNN
F 3 "" H 1350 3100 50  0001 C CNN
	1    1350 3100
	1    0    0    -1  
$EndComp
$Comp
L Device:R R22
U 1 1 617ABAE3
P 8400 5350
F 0 "R22" H 8470 5396 50  0000 L CNN
F 1 "1k" H 8470 5305 50  0000 L CNN
F 2 "Resistor_SMD:R_0805_2012Metric" V 8330 5350 50  0001 C CNN
F 3 "~" H 8400 5350 50  0001 C CNN
F 4 "C17513" H 8400 5350 50  0001 C CNN "LCSC"
	1    8400 5350
	1    0    0    -1  
$EndComp
Wire Wire Line
	8400 5200 8400 5100
Wire Wire Line
	8400 5500 8400 5600
Wire Wire Line
	10200 4650 10400 4650
Wire Wire Line
	10400 4650 10400 5100
Wire Wire Line
	8400 5100 10400 5100
Connection ~ 8400 5100
Wire Wire Line
	8400 5100 8400 5000
Wire Wire Line
	9000 5600 9000 4450
Connection ~ 8400 5600
Wire Wire Line
	8400 5600 8400 5700
Wire Wire Line
	10200 4850 10300 4850
Wire Wire Line
	10300 4850 10300 5600
Wire Wire Line
	10300 5600 9000 5600
Connection ~ 9000 5600
Text HLabel 10700 4450 2    50   Output ~ 0
CLK
Wire Wire Line
	10700 4450 10400 4450
Text HLabel 5150 5000 0    50   Input ~ 0
F_SEL
$Comp
L Device:R R25
U 1 1 6183BC16
P 5450 5000
F 0 "R25" V 5243 5000 50  0000 C CNN
F 1 "1k" V 5334 5000 50  0000 C CNN
F 2 "Resistor_SMD:R_0805_2012Metric" V 5380 5000 50  0001 C CNN
F 3 "~" H 5450 5000 50  0001 C CNN
F 4 "C17513" H 5450 5000 50  0001 C CNN "LCSC"
	1    5450 5000
	0    1    1    0   
$EndComp
Wire Wire Line
	5300 5000 5150 5000
$Comp
L Device:R R26
U 1 1 6185D71A
P 5800 4750
F 0 "R26" H 5730 4704 50  0000 R CNN
F 1 "100k" H 5730 4795 50  0000 R CNN
F 2 "Resistor_SMD:R_0805_2012Metric" V 5730 4750 50  0001 C CNN
F 3 "~" H 5800 4750 50  0001 C CNN
F 4 "C17407" H 5800 4750 50  0001 C CNN "LCSC"
	1    5800 4750
	-1   0    0    1   
$EndComp
$Comp
L Device:C C20
U 1 1 6186693F
P 5800 5250
F 0 "C20" H 5915 5296 50  0000 L CNN
F 1 "100n" H 5915 5205 50  0000 L CNN
F 2 "Capacitor_SMD:C_0805_2012Metric" H 5838 5100 50  0001 C CNN
F 3 "~" H 5800 5250 50  0001 C CNN
F 4 "C49678" H 5800 5250 50  0001 C CNN "LCSC"
	1    5800 5250
	1    0    0    -1  
$EndComp
Wire Wire Line
	5600 5000 5800 5000
Wire Wire Line
	5800 5000 5800 4900
Wire Wire Line
	5800 5000 5800 5100
Connection ~ 5800 5000
$Comp
L power:VCC #PWR012
U 1 1 6187207F
P 5800 4500
F 0 "#PWR012" H 5800 4350 50  0001 C CNN
F 1 "VCC" H 5815 4673 50  0000 C CNN
F 2 "" H 5800 4500 50  0001 C CNN
F 3 "" H 5800 4500 50  0001 C CNN
	1    5800 4500
	1    0    0    -1  
$EndComp
Wire Wire Line
	5800 4500 5800 4600
$Comp
L power:GND #PWR013
U 1 1 6187BEE7
P 5800 5500
F 0 "#PWR013" H 5800 5250 50  0001 C CNN
F 1 "GND" H 5805 5327 50  0000 C CNN
F 2 "" H 5800 5500 50  0001 C CNN
F 3 "" H 5800 5500 50  0001 C CNN
	1    5800 5500
	1    0    0    -1  
$EndComp
Wire Wire Line
	5800 5500 5800 5400
Wire Wire Line
	6400 5200 6300 5200
Wire Wire Line
	6300 5200 6300 5400
Wire Wire Line
	6300 5400 7100 5400
Wire Wire Line
	7100 5400 7100 5100
Wire Wire Line
	7100 5100 7000 5100
Wire Wire Line
	6400 5000 6300 5000
Wire Wire Line
	7200 5100 7100 5100
Connection ~ 7100 5100
$Comp
L Device:R R29
U 1 1 61A62BB4
P 8400 4350
F 0 "R29" H 8330 4304 50  0000 R CNN
F 1 "1k" H 8330 4395 50  0000 R CNN
F 2 "Resistor_SMD:R_0805_2012Metric" V 8330 4350 50  0001 C CNN
F 3 "~" H 8400 4350 50  0001 C CNN
F 4 "C17513" H 8400 4350 50  0001 C CNN "LCSC"
	1    8400 4350
	-1   0    0    1   
$EndComp
Wire Wire Line
	7600 4100 7600 4500
Wire Wire Line
	7600 4500 7700 4500
$Comp
L Device:R R27
U 1 1 61A92D1B
P 7350 4100
F 0 "R27" V 7557 4100 50  0000 C CNN
F 1 "100k" V 7466 4100 50  0000 C CNN
F 2 "Resistor_SMD:R_0805_2012Metric" V 7280 4100 50  0001 C CNN
F 3 "~" H 7350 4100 50  0001 C CNN
F 4 "C17407" H 7350 4100 50  0001 C CNN "LCSC"
	1    7350 4100
	0    -1   -1   0   
$EndComp
Wire Wire Line
	7500 4100 7600 4100
Connection ~ 7600 4100
Wire Wire Line
	8300 4600 8400 4600
$Comp
L power:GND #PWR014
U 1 1 61ABDBAC
P 7100 4100
F 0 "#PWR014" H 7100 3850 50  0001 C CNN
F 1 "GND" V 7105 3972 50  0000 R CNN
F 2 "" H 7100 4100 50  0001 C CNN
F 3 "" H 7100 4100 50  0001 C CNN
	1    7100 4100
	0    1    1    0   
$EndComp
Wire Wire Line
	7100 4100 7200 4100
$Comp
L Device:R R28
U 1 1 61AC4D00
P 7350 5100
F 0 "R28" V 7557 5100 50  0000 C CNN
F 1 "100k" V 7466 5100 50  0000 C CNN
F 2 "Resistor_SMD:R_0805_2012Metric" V 7280 5100 50  0001 C CNN
F 3 "~" H 7350 5100 50  0001 C CNN
F 4 "C17407" H 7350 5100 50  0001 C CNN "LCSC"
	1    7350 5100
	0    -1   -1   0   
$EndComp
Wire Wire Line
	7600 4700 7700 4700
$Comp
L Device:R R30
U 1 1 61ACB6C4
P 8400 4850
F 0 "R30" H 8330 4804 50  0000 R CNN
F 1 "1k" H 8330 4895 50  0000 R CNN
F 2 "Resistor_SMD:R_0805_2012Metric" V 8330 4850 50  0001 C CNN
F 3 "~" H 8400 4850 50  0001 C CNN
F 4 "C17513" H 8400 4850 50  0001 C CNN "LCSC"
	1    8400 4850
	-1   0    0    1   
$EndComp
Wire Wire Line
	7500 5100 7600 5100
Wire Wire Line
	7600 5100 7600 4700
Connection ~ 7600 5100
Wire Wire Line
	8400 4700 8400 4600
Wire Wire Line
	8400 5100 7600 5100
Wire Wire Line
	8400 4500 8400 4600
Connection ~ 8400 4600
Wire Wire Line
	8400 4100 8400 4200
Wire Wire Line
	7600 4100 8400 4100
$Comp
L Device:C C?
U 1 1 61B39DF3
P 8400 5850
AR Path="/5F184EC4/61B39DF3" Ref="C?"  Part="1" 
AR Path="/5F47A7CE/61B39DF3" Ref="C22"  Part="1" 
F 0 "C22" H 8515 5896 50  0000 L CNN
F 1 "100n" H 8515 5805 50  0000 L CNN
F 2 "Capacitor_SMD:C_1206_3216Metric" H 8438 5700 50  0001 C CNN
F 3 "~" H 8400 5850 50  0001 C CNN
F 4 "C97946" H 8400 5850 50  0001 C CNN "LCSC"
	1    8400 5850
	1    0    0    -1  
$EndComp
$Comp
L power:GND #PWR015
U 1 1 61B4186D
P 7900 6100
F 0 "#PWR015" H 7900 5850 50  0001 C CNN
F 1 "GND" H 7905 5927 50  0000 C CNN
F 2 "" H 7900 6100 50  0001 C CNN
F 3 "" H 7900 6100 50  0001 C CNN
	1    7900 6100
	1    0    0    -1  
$EndComp
Wire Wire Line
	7900 6100 7900 6000
Wire Wire Line
	7900 5700 7900 5600
Wire Wire Line
	9700 4050 9700 4250
Wire Wire Line
	8400 5600 9000 5600
Wire Wire Line
	8400 5600 7900 5600
Text Label 8750 4850 0    50   ~ 0
~RST
Wire Wire Line
	1050 6450 1250 6450
$Comp
L Device:R R2
U 1 1 61CF762E
P 1500 6450
F 0 "R2" V 1707 6450 50  0000 C CNN
F 1 "30k" V 1616 6450 50  0000 C CNN
F 2 "Resistor_SMD:R_0805_2012Metric" V 1430 6450 50  0001 C CNN
F 3 "~" H 1500 6450 50  0001 C CNN
F 4 "C17621" H 1500 6450 50  0001 C CNN "LCSC"
	1    1500 6450
	0    -1   -1   0   
$EndComp
Connection ~ 1250 6450
Wire Wire Line
	1650 6450 1750 6450
Wire Wire Line
	2200 6450 2200 6750
Wire Wire Line
	2200 6750 2300 6750
Wire Wire Line
	3050 6250 3050 6550
Wire Wire Line
	3050 6250 3050 6150
Connection ~ 3050 6250
Wire Wire Line
	3050 6250 4050 6250
$Comp
L Device:C C14
U 1 1 61D9C26B
P 1750 6700
F 0 "C14" H 1865 6746 50  0000 L CNN
F 1 "10u" H 1865 6655 50  0000 L CNN
F 2 "Capacitor_SMD:C_1206_3216Metric" H 1788 6550 50  0001 C CNN
F 3 "~" H 1750 6700 50  0001 C CNN
F 4 "C13585" H 1750 6700 50  0001 C CNN "LCSC"
	1    1750 6700
	1    0    0    -1  
$EndComp
Wire Wire Line
	2400 6350 2400 6650
Wire Wire Line
	3050 6950 3050 6850
$Comp
L power:GND #PWR06
U 1 1 61D2FF2B
P 3050 6950
F 0 "#PWR06" H 3050 6700 50  0001 C CNN
F 1 "GND" H 3055 6777 50  0000 C CNN
F 2 "" H 3050 6950 50  0001 C CNN
F 3 "" H 3050 6950 50  0001 C CNN
	1    3050 6950
	1    0    0    -1  
$EndComp
$Comp
L Device:R R24
U 1 1 61D2FC1B
P 3050 6700
F 0 "R24" H 3120 6746 50  0000 L CNN
F 1 "100k" H 3120 6655 50  0000 L CNN
F 2 "Resistor_SMD:R_0805_2012Metric" V 2980 6700 50  0001 C CNN
F 3 "~" H 3050 6700 50  0001 C CNN
F 4 "C17407" H 3050 6700 50  0001 C CNN "LCSC"
	1    3050 6700
	1    0    0    -1  
$EndComp
Wire Wire Line
	3050 5450 3050 5750
$Comp
L power:VCC #PWR01
U 1 1 61D1D41B
P 3050 5450
F 0 "#PWR01" H 3050 5300 50  0001 C CNN
F 1 "VCC" H 3065 5623 50  0000 C CNN
F 2 "" H 3050 5450 50  0001 C CNN
F 3 "" H 3050 5450 50  0001 C CNN
	1    3050 5450
	1    0    0    -1  
$EndComp
Wire Wire Line
	2400 5950 2400 6050
Connection ~ 2400 5950
Wire Wire Line
	2750 5950 2400 5950
$Comp
L Transistor_BJT:MMBT3906 Q2
U 1 1 61D14807
P 2950 5950
F 0 "Q2" H 3140 5904 50  0000 L CNN
F 1 "MMBT3906" H 3140 5995 50  0000 L CNN
F 2 "Package_TO_SOT_SMD:SOT-23" H 3150 5875 50  0001 L CIN
F 3 "https://www.fairchildsemi.com/datasheets/2N/2N3906.pdf" H 2950 5950 50  0001 L CNN
F 4 "C8326" H 2950 5950 50  0001 C CNN "LCSC"
	1    2950 5950
	1    0    0    1   
$EndComp
Wire Wire Line
	2400 5850 2400 5950
$Comp
L Device:R R21
U 1 1 61D04BA4
P 2400 5700
F 0 "R21" H 2470 5746 50  0000 L CNN
F 1 "1k" H 2470 5655 50  0000 L CNN
F 2 "Resistor_SMD:R_0805_2012Metric" V 2330 5700 50  0001 C CNN
F 3 "~" H 2400 5700 50  0001 C CNN
F 4 "C17513" H 2400 5700 50  0001 C CNN "LCSC"
	1    2400 5700
	1    0    0    -1  
$EndComp
Text Label 4950 6350 2    50   ~ 0
~RST
Wire Wire Line
	5050 6350 4650 6350
Text HLabel 5050 6350 2    50   Output ~ 0
~RST
$Comp
L 74xx:74LS08 U?
U 3 1 616422FE
P 4350 6350
AR Path="/616422FE" Ref="U?"  Part="1" 
AR Path="/5F184EC4/616422FE" Ref="U?"  Part="3" 
AR Path="/5F47A7CE/616422FE" Ref="U3"  Part="3" 
F 0 "U3" H 4350 6675 50  0000 C CNN
F 1 "74HC08" H 4350 6584 50  0000 C CNN
F 2 "Package_SO:SOIC-14_3.9x8.7mm_P1.27mm" H 4350 6350 50  0001 C CNN
F 3 "http://www.ti.com/lit/gpn/sn74LS08" H 4350 6350 50  0001 C CNN
F 4 "C5593" H 4350 6350 50  0001 C CNN "LCSC"
	3    4350 6350
	1    0    0    -1  
$EndComp
$Comp
L Device:C C?
U 1 1 616422F7
P 3800 6700
AR Path="/5F184EC4/616422F7" Ref="C?"  Part="1" 
AR Path="/5F47A7CE/616422F7" Ref="C1"  Part="1" 
F 0 "C1" H 3915 6746 50  0000 L CNN
F 1 "100n" H 3915 6655 50  0000 L CNN
F 2 "Capacitor_SMD:C_0805_2012Metric" H 3838 6550 50  0001 C CNN
F 3 "~" H 3800 6700 50  0001 C CNN
F 4 "C49678" H 3800 6700 50  0001 C CNN "LCSC"
	1    3800 6700
	1    0    0    -1  
$EndComp
$Comp
L Device:R R?
U 1 1 616422F0
P 3800 5700
AR Path="/5F184EC4/616422F0" Ref="R?"  Part="1" 
AR Path="/5F47A7CE/616422F0" Ref="R1"  Part="1" 
F 0 "R1" H 3730 5654 50  0000 R CNN
F 1 "100k" H 3730 5745 50  0000 R CNN
F 2 "Resistor_SMD:R_0805_2012Metric" V 3730 5700 50  0001 C CNN
F 3 "~" H 3800 5700 50  0001 C CNN
F 4 "C17407" H 3800 5700 50  0001 C CNN "LCSC"
	1    3800 5700
	-1   0    0    1   
$EndComp
Wire Wire Line
	3800 5450 3800 5550
Wire Wire Line
	3800 6450 3800 6550
Connection ~ 3800 6450
Wire Wire Line
	4050 6450 3800 6450
Wire Wire Line
	3800 5850 3800 6450
Wire Wire Line
	3800 6850 3800 6950
$Comp
L power:GND #PWR?
U 1 1 616422E2
P 3800 6950
AR Path="/616422E2" Ref="#PWR?"  Part="1" 
AR Path="/5F184EC4/616422E2" Ref="#PWR?"  Part="1" 
AR Path="/5F47A7CE/616422E2" Ref="#PWR0110"  Part="1" 
F 0 "#PWR0110" H 3800 6700 50  0001 C CNN
F 1 "GND" H 3805 6777 50  0000 C CNN
F 2 "" H 3800 6950 50  0001 C CNN
F 3 "" H 3800 6950 50  0001 C CNN
	1    3800 6950
	1    0    0    -1  
$EndComp
$Comp
L power:VCC #PWR?
U 1 1 616422DC
P 3800 5450
AR Path="/616422DC" Ref="#PWR?"  Part="1" 
AR Path="/5F184EC4/616422DC" Ref="#PWR?"  Part="1" 
AR Path="/5F47A7CE/616422DC" Ref="#PWR0109"  Part="1" 
F 0 "#PWR0109" H 3800 5300 50  0001 C CNN
F 1 "VCC" H 3815 5623 50  0000 C CNN
F 2 "" H 3800 5450 50  0001 C CNN
F 3 "" H 3800 5450 50  0001 C CNN
	1    3800 5450
	1    0    0    -1  
$EndComp
Wire Wire Line
	2400 5450 2400 5550
$Comp
L power:VCC #PWR0134
U 1 1 5F21C638
P 2400 5450
F 0 "#PWR0134" H 2400 5300 50  0001 C CNN
F 1 "VCC" H 2415 5623 50  0000 C CNN
F 2 "" H 2400 5450 50  0001 C CNN
F 3 "" H 2400 5450 50  0001 C CNN
	1    2400 5450
	1    0    0    -1  
$EndComp
$Comp
L Device:R R11
U 1 1 5F21B5B6
P 2400 6200
F 0 "R11" H 2470 6246 50  0000 L CNN
F 1 "1k" H 2470 6155 50  0000 L CNN
F 2 "Resistor_SMD:R_0805_2012Metric" V 2330 6200 50  0001 C CNN
F 3 "~" H 2400 6200 50  0001 C CNN
F 4 "C17513" H 2400 6200 50  0001 C CNN "LCSC"
	1    2400 6200
	1    0    0    -1  
$EndComp
Wire Wire Line
	1750 6950 1750 6850
$Comp
L power:GND #PWR0125
U 1 1 5F576D44
P 1750 6950
F 0 "#PWR0125" H 1750 6700 50  0001 C CNN
F 1 "GND" H 1755 6777 50  0000 C CNN
F 2 "" H 1750 6950 50  0001 C CNN
F 3 "" H 1750 6950 50  0001 C CNN
	1    1750 6950
	1    0    0    -1  
$EndComp
Wire Wire Line
	2400 6850 2400 6950
$Comp
L power:GND #PWR0123
U 1 1 5F553570
P 2400 6950
F 0 "#PWR0123" H 2400 6700 50  0001 C CNN
F 1 "GND" H 2405 6777 50  0000 C CNN
F 2 "" H 2400 6950 50  0001 C CNN
F 3 "" H 2400 6950 50  0001 C CNN
	1    2400 6950
	1    0    0    -1  
$EndComp
$Comp
L Reference_Voltage:TL431DBZ U9
U 1 1 5F4E2F87
P 2400 6750
F 0 "U9" V 2446 6680 50  0000 R CNN
F 1 "TL431DBZ" V 2355 6680 50  0000 R CNN
F 2 "Package_TO_SOT_SMD:SOT-23" H 2400 6600 50  0001 C CIN
F 3 "http://www.ti.com/lit/ds/symlink/tl431.pdf" H 2400 6750 50  0001 C CIN
F 4 "C3113" H 2400 6750 50  0001 C CNN "LCSC"
	1    2400 6750
	0    -1   -1   0   
$EndComp
Wire Wire Line
	1250 6450 1350 6450
Wire Wire Line
	1750 6550 1750 6450
Connection ~ 1750 6450
Wire Wire Line
	1750 6450 2200 6450
$Comp
L Device:C C23
U 1 1 61ED9A6A
P 9100 5850
F 0 "C23" H 9215 5896 50  0000 L CNN
F 1 "100n" H 9215 5805 50  0000 L CNN
F 2 "Capacitor_SMD:C_0805_2012Metric" H 9138 5700 50  0001 C CNN
F 3 "~" H 9100 5850 50  0001 C CNN
F 4 "C49678" H 9100 5850 50  0001 C CNN "LCSC"
	1    9100 5850
	1    0    0    -1  
$EndComp
$Comp
L power:GND #PWR017
U 1 1 61ED9F17
P 9100 6100
F 0 "#PWR017" H 9100 5850 50  0001 C CNN
F 1 "GND" H 9105 5927 50  0000 C CNN
F 2 "" H 9100 6100 50  0001 C CNN
F 3 "" H 9100 6100 50  0001 C CNN
	1    9100 6100
	1    0    0    -1  
$EndComp
Wire Wire Line
	9100 6100 9100 6000
Wire Wire Line
	9200 4650 9100 4650
Wire Wire Line
	9100 4650 9100 5700
$Comp
L Device:C C12
U 1 1 61F0E0D9
P 6100 2450
F 0 "C12" H 6215 2496 50  0000 L CNN
F 1 "100n" H 6215 2405 50  0000 L CNN
F 2 "Capacitor_SMD:C_0805_2012Metric" H 6138 2300 50  0001 C CNN
F 3 "~" H 6100 2450 50  0001 C CNN
F 4 "C49678" H 6100 2450 50  0001 C CNN "LCSC"
	1    6100 2450
	1    0    0    -1  
$EndComp
$Comp
L power:GND #PWR016
U 1 1 61F0E77F
P 6100 2700
F 0 "#PWR016" H 6100 2450 50  0001 C CNN
F 1 "GND" H 6105 2527 50  0000 C CNN
F 2 "" H 6100 2700 50  0001 C CNN
F 3 "" H 6100 2700 50  0001 C CNN
	1    6100 2700
	1    0    0    -1  
$EndComp
Wire Wire Line
	6100 2700 6100 2600
Wire Wire Line
	6750 2200 6100 2200
Wire Wire Line
	6100 2200 6100 2300
Wire Wire Line
	7250 1600 7250 1800
Text Label 6550 2400 0    50   ~ 0
~RST
$Comp
L Jumper:SolderJumper_2_Open JP2
U 1 1 620D618A
P 8850 3700
F 0 "JP2" H 8850 3813 50  0000 C CNN
F 1 "SolderJumper_2_Open" H 8850 3814 50  0001 C CNN
F 2 "Jumper:SolderJumper-2_P1.3mm_Open_RoundedPad1.0x1.5mm" H 8850 3700 50  0001 C CNN
F 3 "~" H 8850 3700 50  0001 C CNN
	1    8850 3700
	1    0    0    -1  
$EndComp
Wire Wire Line
	9000 3700 10400 3700
Wire Wire Line
	10400 3700 10400 4450
Connection ~ 10400 4450
Wire Wire Line
	10400 4450 10200 4450
Wire Wire Line
	8700 3700 6300 3700
Wire Wire Line
	6300 3700 6300 5000
Connection ~ 6300 5000
Wire Wire Line
	6300 5000 5800 5000
Wire Wire Line
	10500 2950 10600 2950
Wire Wire Line
	10600 2200 10600 2100
Wire Wire Line
	10600 2600 10600 2950
Connection ~ 10600 2950
Wire Wire Line
	10600 2950 10700 2950
Wire Wire Line
	10450 2400 9600 2400
Connection ~ 9600 2400
Wire Wire Line
	9600 2400 9600 3050
$Comp
L Diode:BAV99 D6
U 1 1 621705D7
P 4700 1300
F 0 "D6" V 4654 1379 50  0000 L CNN
F 1 "BAV99" V 4745 1379 50  0000 L CNN
F 2 "Package_TO_SOT_SMD:SOT-23" H 4700 800 50  0001 C CNN
F 3 "https://assets.nexperia.com/documents/data-sheet/BAV99_SER.pdf" H 4700 1300 50  0001 C CNN
F 4 "C2500" H 4700 1300 50  0001 C CNN "LCSC"
	1    4700 1300
	0    1    1    0   
$EndComp
$Comp
L Diode:BAV99 D7
U 1 1 6218B13A
P 1750 5800
F 0 "D7" H 1750 6016 50  0000 C CNN
F 1 "BAV99" H 1750 5925 50  0000 C CNN
F 2 "Package_TO_SOT_SMD:SOT-23" H 1750 5300 50  0001 C CNN
F 3 "https://assets.nexperia.com/documents/data-sheet/BAV99_SER.pdf" H 1750 5800 50  0001 C CNN
F 4 "C2500" H 1750 5800 50  0001 C CNN "LCSC"
	1    1750 5800
	1    0    0    -1  
$EndComp
$Comp
L power:VCC #PWR019
U 1 1 6219F927
P 2150 5450
F 0 "#PWR019" H 2150 5300 50  0001 C CNN
F 1 "VCC" H 2165 5623 50  0000 C CNN
F 2 "" H 2150 5450 50  0001 C CNN
F 3 "" H 2150 5450 50  0001 C CNN
	1    2150 5450
	1    0    0    -1  
$EndComp
$Comp
L power:GND #PWR018
U 1 1 621B360F
P 1350 5900
F 0 "#PWR018" H 1350 5650 50  0001 C CNN
F 1 "GND" H 1355 5727 50  0000 C CNN
F 2 "" H 1350 5900 50  0001 C CNN
F 3 "" H 1350 5900 50  0001 C CNN
	1    1350 5900
	1    0    0    -1  
$EndComp
Wire Wire Line
	1750 6000 1750 6450
Wire Wire Line
	1450 5800 1350 5800
Wire Wire Line
	1350 5800 1350 5900
Wire Wire Line
	2050 5800 2150 5800
Wire Wire Line
	2150 5800 2150 5450
NoConn ~ 7750 2000
NoConn ~ 4500 1300
$Comp
L Device:C C24
U 1 1 616B4FCA
P 2600 3600
F 0 "C24" H 2715 3646 50  0000 L CNN
F 1 "100n" H 2715 3555 50  0000 L CNN
F 2 "Capacitor_SMD:C_0805_2012Metric" H 2638 3450 50  0001 C CNN
F 3 "~" H 2600 3600 50  0001 C CNN
F 4 "C49678" H 2600 3600 50  0001 C CNN "LCSC"
	1    2600 3600
	1    0    0    -1  
$EndComp
$Comp
L Device:C C25
U 1 1 616BCD9D
P 3050 3600
F 0 "C25" H 3165 3646 50  0000 L CNN
F 1 "100n" H 3165 3555 50  0000 L CNN
F 2 "Capacitor_SMD:C_0805_2012Metric" H 3088 3450 50  0001 C CNN
F 3 "~" H 3050 3600 50  0001 C CNN
F 4 "C49678" H 3050 3600 50  0001 C CNN "LCSC"
	1    3050 3600
	1    0    0    -1  
$EndComp
Wire Wire Line
	1350 3100 1350 3200
Wire Wire Line
	1350 3200 2000 3200
Wire Wire Line
	2000 3200 2000 3300
Connection ~ 1350 3200
Wire Wire Line
	1350 3200 1350 3300
Wire Wire Line
	1350 3900 1350 4000
Wire Wire Line
	1350 4000 2000 4000
Wire Wire Line
	2000 4000 2000 3900
Connection ~ 1350 4000
Wire Wire Line
	1350 4000 1350 4100
Wire Wire Line
	2000 3200 2600 3200
Wire Wire Line
	2600 3200 2600 3450
Connection ~ 2000 3200
Wire Wire Line
	2600 3200 3050 3200
Wire Wire Line
	3050 3200 3050 3450
Connection ~ 2600 3200
Wire Wire Line
	2000 4000 2600 4000
Wire Wire Line
	2600 4000 2600 3750
Connection ~ 2000 4000
Wire Wire Line
	2600 4000 3050 4000
Wire Wire Line
	3050 4000 3050 3750
Connection ~ 2600 4000
$Comp
L Amplifier_Operational:LM358 U10
U 2 1 5F47B409
P 10200 2950
F 0 "U10" H 10200 2583 50  0000 C CNN
F 1 "MCP6002" H 10200 2674 50  0000 C CNN
F 2 "Package_SO:SOIC-8_3.9x4.9mm_P1.27mm" H 10200 2950 50  0001 C CNN
F 3 "http://www.ti.com/lit/ds/symlink/lm2904-n.pdf" H 10200 2950 50  0001 C CNN
F 4 "C7377" H 10200 2950 50  0001 C CNN "LCSC"
	2    10200 2950
	1    0    0    1   
$EndComp
$Comp
L Amplifier_Operational:LM358 U10
U 1 1 5F47A8ED
P 10200 2100
F 0 "U10" H 10200 1733 50  0000 C CNN
F 1 "MCP6002" H 10200 1824 50  0000 C CNN
F 2 "Package_SO:SOIC-8_3.9x4.9mm_P1.27mm" H 10200 2100 50  0001 C CNN
F 3 "http://www.ti.com/lit/ds/symlink/lm2904-n.pdf" H 10200 2100 50  0001 C CNN
F 4 "C7377" H 10200 2100 50  0001 C CNN "LCSC"
	1    10200 2100
	1    0    0    1   
$EndComp
$Comp
L Jumper:SolderJumper_3_Open JP1
U 1 1 621117A1
P 10600 2400
F 0 "JP1" V 10600 2468 50  0000 L CNN
F 1 "SolderJumper_3_Open" V 10645 2468 50  0001 L CNN
F 2 "Jumper:SolderJumper-3_P1.3mm_Open_RoundedPad1.0x1.5mm" H 10600 2400 50  0001 C CNN
F 3 "~" H 10600 2400 50  0001 C CNN
	1    10600 2400
	0    1    1    0   
$EndComp
$EndSCHEMATC
