EESchema Schematic File Version 4
EELAYER 30 0
EELAYER END
$Descr A4 11693 8268
encoding utf-8
Sheet 4 4
Title ""
Date ""
Rev ""
Comp ""
Comment1 ""
Comment2 ""
Comment3 ""
Comment4 ""
$EndDescr
Wire Wire Line
	5500 900  8700 900 
Wire Wire Line
	8700 900  8700 1700
Wire Wire Line
	8800 1700 8700 1700
Connection ~ 8700 1700
Wire Wire Line
	8700 1700 8700 3500
Wire Wire Line
	8800 3500 8700 3500
Connection ~ 8700 3500
Wire Wire Line
	8550 1700 8550 2500
Wire Wire Line
	8800 2500 8550 2500
Connection ~ 8550 2500
Wire Wire Line
	8550 2500 8550 4300
Wire Wire Line
	8800 4300 8550 4300
Connection ~ 8550 4300
Wire Wire Line
	8200 2300 8800 2300
Wire Wire Line
	5500 3050 5600 3050
Wire Wire Line
	7600 2200 7500 2200
Wire Wire Line
	8200 4100 8800 4100
Wire Wire Line
	7600 4000 7500 4000
Connection ~ 7500 4000
Wire Wire Line
	8800 1900 8300 1900
Text Label 8300 1900 0    50   ~ 0
A
Wire Wire Line
	8800 3700 8300 3700
Text Label 8300 3700 0    50   ~ 0
~B
Wire Wire Line
	7600 2400 7250 2400
Text Label 7250 2400 0    50   ~ 0
C
Wire Wire Line
	7600 4200 7250 4200
Text Label 7250 4200 0    50   ~ 0
A
Wire Wire Line
	8800 5300 8700 5300
Wire Wire Line
	7600 6000 7500 6000
Wire Wire Line
	8800 5500 8300 5500
Text Label 8300 5500 0    50   ~ 0
C
Wire Wire Line
	7600 6200 7250 6200
Text Label 7250 6200 0    50   ~ 0
~B
Wire Wire Line
	8700 3500 8700 5300
Wire Wire Line
	8550 4300 8550 5900
Wire Wire Line
	7500 4000 7500 6000
Wire Wire Line
	3600 3900 3700 3900
Wire Wire Line
	3700 3900 3700 3400
Wire Wire Line
	3700 3400 2400 3400
Wire Wire Line
	2400 3400 2400 4000
Wire Wire Line
	2400 4000 2600 4000
Wire Wire Line
	3600 4100 3800 4100
Wire Wire Line
	3800 4100 3800 3300
Wire Wire Line
	3800 3300 2300 3300
Wire Wire Line
	2300 3300 2300 4200
Wire Wire Line
	2300 4200 2600 4200
Wire Wire Line
	2600 4400 2500 4400
Wire Wire Line
	3600 4200 3900 4200
Wire Wire Line
	3900 4200 3900 3200
Wire Wire Line
	3900 3200 2500 3200
Wire Wire Line
	2500 3200 2500 3800
Wire Wire Line
	2500 3800 2600 3800
$Comp
L power:GND #PWR?
U 1 1 5F1C455E
P 3100 5200
AR Path="/5F1C455E" Ref="#PWR?"  Part="1" 
AR Path="/5F184EC4/5F1C455E" Ref="#PWR03"  Part="1" 
F 0 "#PWR03" H 3100 4950 50  0001 C CNN
F 1 "GND" H 3105 5027 50  0000 C CNN
F 2 "" H 3100 5200 50  0001 C CNN
F 3 "" H 3100 5200 50  0001 C CNN
	1    3100 5200
	1    0    0    -1  
$EndComp
$Comp
L power:VCC #PWR?
U 1 1 5F1C4564
P 3100 3100
AR Path="/5F1C4564" Ref="#PWR?"  Part="1" 
AR Path="/5F184EC4/5F1C4564" Ref="#PWR02"  Part="1" 
F 0 "#PWR02" H 3100 2950 50  0001 C CNN
F 1 "VCC" H 3115 3273 50  0000 C CNN
F 2 "" H 3100 3100 50  0001 C CNN
F 3 "" H 3100 3100 50  0001 C CNN
	1    3100 3100
	1    0    0    -1  
$EndComp
Wire Wire Line
	3100 3100 3100 3500
Wire Wire Line
	3600 3800 4150 3800
Text Label 4150 3800 2    50   ~ 0
A
Wire Wire Line
	3800 4100 4150 4100
Connection ~ 3800 4100
Text Label 4150 4100 2    50   ~ 0
~B
Wire Wire Line
	3900 4200 4150 4200
Connection ~ 3900 4200
Text Label 4150 4200 2    50   ~ 0
C
Wire Wire Line
	3700 3900 4150 3900
Connection ~ 3700 3900
Wire Wire Line
	3600 4000 4150 4000
Wire Wire Line
	3600 4300 4150 4300
Text Label 4150 3900 2    50   ~ 0
~A
Text Label 4150 4000 2    50   ~ 0
B
Text Label 4150 4300 2    50   ~ 0
~C
$Comp
L power:VCC #PWR?
U 1 1 5F260571
P 1400 950
AR Path="/5F260571" Ref="#PWR?"  Part="1" 
AR Path="/5F184EC4/5F260571" Ref="#PWR0101"  Part="1" 
F 0 "#PWR0101" H 1400 800 50  0001 C CNN
F 1 "VCC" H 1415 1123 50  0000 C CNN
F 2 "" H 1400 950 50  0001 C CNN
F 3 "" H 1400 950 50  0001 C CNN
	1    1400 950 
	1    0    0    -1  
$EndComp
Wire Wire Line
	1400 950  1400 1050
Wire Wire Line
	1400 1050 1850 1050
Wire Wire Line
	1850 1050 1850 1500
Connection ~ 1400 1050
Wire Wire Line
	1400 1050 1400 1150
$Comp
L power:GND #PWR?
U 1 1 5F279253
P 1400 2350
AR Path="/5F279253" Ref="#PWR?"  Part="1" 
AR Path="/5F184EC4/5F279253" Ref="#PWR0102"  Part="1" 
F 0 "#PWR0102" H 1400 2100 50  0001 C CNN
F 1 "GND" H 1405 2177 50  0000 C CNN
F 2 "" H 1400 2350 50  0001 C CNN
F 3 "" H 1400 2350 50  0001 C CNN
	1    1400 2350
	1    0    0    -1  
$EndComp
Wire Wire Line
	1400 2150 1400 2250
Wire Wire Line
	1400 2250 1850 2250
Wire Wire Line
	1850 2250 1850 1800
Connection ~ 1400 2250
Wire Wire Line
	1400 2250 1400 2350
Wire Wire Line
	1850 1050 2400 1050
Wire Wire Line
	2400 1050 2400 1150
Connection ~ 1850 1050
Wire Wire Line
	2400 1050 2800 1050
Wire Wire Line
	2800 1050 2800 1500
Connection ~ 2400 1050
Wire Wire Line
	2800 1050 3350 1050
Wire Wire Line
	3350 1050 3350 1150
Connection ~ 2800 1050
Wire Wire Line
	3350 1050 3750 1050
Wire Wire Line
	3750 1050 3750 1500
Connection ~ 3350 1050
Wire Wire Line
	1850 2250 2400 2250
Wire Wire Line
	2400 2250 2400 2150
Connection ~ 1850 2250
Wire Wire Line
	3750 2250 3750 1800
Wire Wire Line
	2400 2250 2800 2250
Connection ~ 2400 2250
Wire Wire Line
	3350 2150 3350 2250
Connection ~ 3350 2250
Wire Wire Line
	3350 2250 3750 2250
Wire Wire Line
	2800 1800 2800 2250
Connection ~ 2800 2250
Wire Wire Line
	2800 2250 3350 2250
Wire Wire Line
	3750 1050 4150 1050
Wire Wire Line
	4150 1050 4150 1500
Connection ~ 3750 1050
Wire Wire Line
	3750 2250 4150 2250
Wire Wire Line
	4150 2250 4150 1800
Connection ~ 3750 2250
Wire Wire Line
	1700 4700 2600 4700
$Comp
L power:GND #PWR0111
U 1 1 5F59C7A8
P 1650 6950
F 0 "#PWR0111" H 1650 6700 50  0001 C CNN
F 1 "GND" H 1655 6777 50  0000 C CNN
F 2 "" H 1650 6950 50  0001 C CNN
F 3 "" H 1650 6950 50  0001 C CNN
	1    1650 6950
	1    0    0    -1  
$EndComp
Wire Wire Line
	1650 6950 1650 6850
Wire Wire Line
	1650 6550 1650 6450
Wire Wire Line
	1650 5900 1650 6150
Text HLabel 5500 900  0    50   Input ~ 0
PWM
Text HLabel 5500 3050 0    50   Input ~ 0
DMOD
Wire Wire Line
	5900 3050 6000 3050
$Comp
L power:GND #PWR?
U 1 1 5F1DF51E
P 6450 3600
AR Path="/5F1DF51E" Ref="#PWR?"  Part="1" 
AR Path="/5F184EC4/5F1DF51E" Ref="#PWR010"  Part="1" 
F 0 "#PWR010" H 6450 3350 50  0001 C CNN
F 1 "GND" H 6455 3427 50  0000 C CNN
F 2 "" H 6450 3600 50  0001 C CNN
F 3 "" H 6450 3600 50  0001 C CNN
	1    6450 3600
	1    0    0    -1  
$EndComp
Wire Wire Line
	6450 3600 6450 3500
Wire Wire Line
	6450 3200 6450 3050
$Comp
L power:GND #PWR?
U 1 1 5F87098D
P 6000 3600
AR Path="/5F87098D" Ref="#PWR?"  Part="1" 
AR Path="/5F184EC4/5F87098D" Ref="#PWR011"  Part="1" 
F 0 "#PWR011" H 6000 3350 50  0001 C CNN
F 1 "GND" H 6005 3427 50  0000 C CNN
F 2 "" H 6000 3600 50  0001 C CNN
F 3 "" H 6000 3600 50  0001 C CNN
	1    6000 3600
	1    0    0    -1  
$EndComp
Wire Wire Line
	6000 3600 6000 3500
Wire Wire Line
	6000 3200 6000 3050
Wire Wire Line
	6000 3050 6450 3050
Wire Wire Line
	8200 1700 8550 1700
Text HLabel 5500 1000 0    50   Input ~ 0
~PWM
Wire Wire Line
	5500 1000 6450 1000
Wire Wire Line
	6450 1000 6450 1300
Wire Wire Line
	6450 1300 6550 1300
Wire Wire Line
	6550 1500 6450 1500
Text HLabel 5500 1500 0    50   Input ~ 0
PMOD
Wire Wire Line
	5600 1500 5500 1500
Wire Wire Line
	7500 2200 7500 3050
Connection ~ 6000 3050
Connection ~ 6450 3050
Wire Wire Line
	6450 3050 7500 3050
Connection ~ 7500 3050
Wire Wire Line
	7500 3050 7500 4000
$Comp
L power:GND #PWR?
U 1 1 61860FCC
P 6450 2050
AR Path="/61860FCC" Ref="#PWR?"  Part="1" 
AR Path="/5F184EC4/61860FCC" Ref="#PWR0140"  Part="1" 
F 0 "#PWR0140" H 6450 1800 50  0001 C CNN
F 1 "GND" H 6455 1877 50  0000 C CNN
F 2 "" H 6450 2050 50  0001 C CNN
F 3 "" H 6450 2050 50  0001 C CNN
	1    6450 2050
	1    0    0    -1  
$EndComp
Wire Wire Line
	6450 2050 6450 1950
Wire Wire Line
	6450 1650 6450 1500
$Comp
L power:GND #PWR?
U 1 1 61860FD8
P 6000 2050
AR Path="/61860FD8" Ref="#PWR?"  Part="1" 
AR Path="/5F184EC4/61860FD8" Ref="#PWR0141"  Part="1" 
F 0 "#PWR0141" H 6000 1800 50  0001 C CNN
F 1 "GND" H 6005 1877 50  0000 C CNN
F 2 "" H 6000 2050 50  0001 C CNN
F 3 "" H 6000 2050 50  0001 C CNN
	1    6000 2050
	1    0    0    -1  
$EndComp
Wire Wire Line
	6000 2050 6000 1950
Wire Wire Line
	6000 1650 6000 1500
Wire Wire Line
	6000 1500 6450 1500
Connection ~ 6000 1500
Wire Wire Line
	6000 1500 5900 1500
Connection ~ 6450 1500
Wire Wire Line
	7600 1600 7500 1600
Wire Wire Line
	7500 1600 7500 1400
Wire Wire Line
	7500 1400 7150 1400
$Comp
L Device:R R20
U 1 1 61860FF1
P 6000 1800
F 0 "R20" H 5930 1754 50  0000 R CNN
F 1 "100k" H 5930 1845 50  0000 R CNN
F 2 "Resistor_SMD:R_0805_2012Metric" V 5930 1800 50  0001 C CNN
F 3 "~" H 6000 1800 50  0001 C CNN
F 4 "C17407" H 6000 1800 50  0001 C CNN "LCSC"
	1    6000 1800
	-1   0    0    1   
$EndComp
$Comp
L Device:C C18
U 1 1 61860FE6
P 6450 1800
F 0 "C18" H 6565 1846 50  0000 L CNN
F 1 "100n" H 6565 1755 50  0000 L CNN
F 2 "Capacitor_SMD:C_0805_2012Metric" H 6488 1650 50  0001 C CNN
F 3 "~" H 6450 1800 50  0001 C CNN
F 4 "C49678" H 6450 1800 50  0001 C CNN "LCSC"
	1    6450 1800
	1    0    0    -1  
$EndComp
$Comp
L Device:R R9
U 1 1 61801595
P 5750 1500
F 0 "R9" V 5543 1500 50  0000 C CNN
F 1 "1k" V 5634 1500 50  0000 C CNN
F 2 "Resistor_SMD:R_0805_2012Metric" V 5680 1500 50  0001 C CNN
F 3 "~" H 5750 1500 50  0001 C CNN
F 4 "C17513" H 5750 1500 50  0001 C CNN "LCSC"
	1    5750 1500
	0    1    1    0   
$EndComp
$Comp
L Device:R R19
U 1 1 5F86954B
P 6000 3350
F 0 "R19" H 5930 3304 50  0000 R CNN
F 1 "100k" H 5930 3395 50  0000 R CNN
F 2 "Resistor_SMD:R_0805_2012Metric" V 5930 3350 50  0001 C CNN
F 3 "~" H 6000 3350 50  0001 C CNN
F 4 "C17407" H 6000 3350 50  0001 C CNN "LCSC"
	1    6000 3350
	-1   0    0    1   
$EndComp
$Comp
L Device:R R10
U 1 1 5F194884
P 5750 3050
F 0 "R10" V 5543 3050 50  0000 C CNN
F 1 "1k" V 5634 3050 50  0000 C CNN
F 2 "Resistor_SMD:R_0805_2012Metric" V 5680 3050 50  0001 C CNN
F 3 "~" H 5750 3050 50  0001 C CNN
F 4 "C17513" H 5750 3050 50  0001 C CNN "LCSC"
	1    5750 3050
	0    1    1    0   
$EndComp
$Comp
L Device:C C19
U 1 1 5F18B244
P 6450 3350
F 0 "C19" H 6565 3396 50  0000 L CNN
F 1 "100n" H 6565 3305 50  0000 L CNN
F 2 "Capacitor_SMD:C_0805_2012Metric" H 6488 3200 50  0001 C CNN
F 3 "~" H 6450 3350 50  0001 C CNN
F 4 "C49678" H 6450 3350 50  0001 C CNN "LCSC"
	1    6450 3350
	1    0    0    -1  
$EndComp
$Comp
L 74xx:74LS08 U?
U 4 1 5F1DE78D
P 9100 5400
AR Path="/5F1DE78D" Ref="U?"  Part="1" 
AR Path="/5F184EC4/5F1DE78D" Ref="U3"  Part="4" 
F 0 "U3" H 9100 5725 50  0000 C CNN
F 1 "74HC08" H 9100 5634 50  0000 C CNN
F 2 "Package_SO:SOIC-14_3.9x8.7mm_P1.27mm" H 9100 5400 50  0001 C CNN
F 3 "http://www.ti.com/lit/gpn/sn74LS08" H 9100 5400 50  0001 C CNN
F 4 "C5593" H 9100 5400 50  0001 C CNN "LCSC"
	4    9100 5400
	1    0    0    -1  
$EndComp
$Comp
L Device:LED D4
U 1 1 5F594541
P 1650 6700
F 0 "D4" V 1689 6582 50  0000 R CNN
F 1 "green" V 1598 6582 50  0000 R CNN
F 2 "LED_SMD:LED_0805_2012Metric_Castellated" H 1650 6700 50  0001 C CNN
F 3 "~" H 1650 6700 50  0001 C CNN
F 4 "C2297" H 1650 6700 50  0001 C CNN "LCSC"
	1    1650 6700
	0    -1   -1   0   
$EndComp
$Comp
L Device:R R3
U 1 1 5F593F66
P 1650 6300
F 0 "R3" H 1720 6346 50  0000 L CNN
F 1 "1k" H 1720 6255 50  0000 L CNN
F 2 "Resistor_SMD:R_0805_2012Metric" V 1580 6300 50  0001 C CNN
F 3 "~" H 1650 6300 50  0001 C CNN
F 4 "C17513" H 1650 6300 50  0001 C CNN "LCSC"
	1    1650 6300
	1    0    0    -1  
$EndComp
$Comp
L Device:C C5
U 1 1 5F2B0D11
P 4150 1650
F 0 "C5" H 4265 1696 50  0000 L CNN
F 1 "100n" H 4265 1605 50  0000 L CNN
F 2 "Capacitor_SMD:C_0805_2012Metric" H 4188 1500 50  0001 C CNN
F 3 "~" H 4150 1650 50  0001 C CNN
F 4 "C49678" H 4150 1650 50  0001 C CNN "LCSC"
	1    4150 1650
	1    0    0    -1  
$EndComp
$Comp
L Device:C C4
U 1 1 5F28AA46
P 3750 1650
F 0 "C4" H 3865 1696 50  0000 L CNN
F 1 "100n" H 3865 1605 50  0000 L CNN
F 2 "Capacitor_SMD:C_0805_2012Metric" H 3788 1500 50  0001 C CNN
F 3 "~" H 3750 1650 50  0001 C CNN
F 4 "C49678" H 3750 1650 50  0001 C CNN "LCSC"
	1    3750 1650
	1    0    0    -1  
$EndComp
$Comp
L Device:C C3
U 1 1 5F289911
P 2800 1650
F 0 "C3" H 2915 1696 50  0000 L CNN
F 1 "100n" H 2915 1605 50  0000 L CNN
F 2 "Capacitor_SMD:C_0805_2012Metric" H 2838 1500 50  0001 C CNN
F 3 "~" H 2800 1650 50  0001 C CNN
F 4 "C49678" H 2800 1650 50  0001 C CNN "LCSC"
	1    2800 1650
	1    0    0    -1  
$EndComp
$Comp
L Device:C C2
U 1 1 5F269195
P 1850 1650
F 0 "C2" H 1965 1696 50  0000 L CNN
F 1 "100n" H 1965 1605 50  0000 L CNN
F 2 "Capacitor_SMD:C_0805_2012Metric" H 1888 1500 50  0001 C CNN
F 3 "~" H 1850 1650 50  0001 C CNN
F 4 "C49678" H 1850 1650 50  0001 C CNN "LCSC"
	1    1850 1650
	1    0    0    -1  
$EndComp
$Comp
L 74xx:74LS132 U?
U 4 1 5F1C9350
P 6850 1400
AR Path="/5F1C9350" Ref="U?"  Part="4" 
AR Path="/5F184EC4/5F1C9350" Ref="U1"  Part="4" 
F 0 "U1" H 6850 1725 50  0000 C CNN
F 1 "74HC132" H 6850 1634 50  0000 C CNN
F 2 "Package_SO:SOIC-14_3.9x8.7mm_P1.27mm" H 6850 1400 50  0001 C CNN
F 3 "http://www.ti.com/lit/gpn/sn74LS08" H 6850 1400 50  0001 C CNN
F 4 "C7332" H 6850 1400 50  0001 C CNN "LCSC"
	4    6850 1400
	1    0    0    -1  
$EndComp
$Comp
L 74xx:74LS175 U?
U 1 1 5F1C4546
P 3100 4200
AR Path="/5F1C4546" Ref="U?"  Part="1" 
AR Path="/5F184EC4/5F1C4546" Ref="U4"  Part="1" 
F 0 "U4" H 3250 4750 50  0000 C CNN
F 1 "74HC175" H 3350 3550 50  0000 C CNN
F 2 "Package_SO:SOIC-16_3.9x9.9mm_P1.27mm" H 3100 4200 50  0001 C CNN
F 3 "" H 3100 4200 50  0001 C CNN
F 4 "C6829" H 3100 4200 50  0001 C CNN "LCSC"
	1    3100 4200
	1    0    0    -1  
$EndComp
$Comp
L 74xx:74LS08 U?
U 5 1 5F1BF507
P 3350 1650
AR Path="/5F1BF507" Ref="U?"  Part="5" 
AR Path="/5F184EC4/5F1BF507" Ref="U3"  Part="5" 
F 0 "U3" H 3400 2000 50  0000 L CNN
F 1 "74HC08" H 3400 1300 50  0000 L CNN
F 2 "Package_SO:SOIC-14_3.9x8.7mm_P1.27mm" H 3350 1650 50  0001 C CNN
F 3 "http://www.ti.com/lit/gpn/sn74LS08" H 3350 1650 50  0001 C CNN
F 4 "C5593" H 3350 1650 50  0001 C CNN "LCSC"
	5    3350 1650
	1    0    0    -1  
$EndComp
$Comp
L 74xx:74LS08 U?
U 5 1 5F1BF501
P 2400 1650
AR Path="/5F1BF501" Ref="U?"  Part="5" 
AR Path="/5F184EC4/5F1BF501" Ref="U2"  Part="5" 
F 0 "U2" H 2450 2000 50  0000 L CNN
F 1 "74HC08" H 2450 1300 50  0000 L CNN
F 2 "Package_SO:SOIC-14_3.9x8.7mm_P1.27mm" H 2400 1650 50  0001 C CNN
F 3 "http://www.ti.com/lit/gpn/sn74LS08" H 2400 1650 50  0001 C CNN
F 4 "C5593" H 2400 1650 50  0001 C CNN "LCSC"
	5    2400 1650
	1    0    0    -1  
$EndComp
$Comp
L 74xx:74LS132 U?
U 5 1 5F1BF4FB
P 1400 1650
AR Path="/5F1BF4FB" Ref="U?"  Part="5" 
AR Path="/5F184EC4/5F1BF4FB" Ref="U1"  Part="5" 
F 0 "U1" H 1450 2000 50  0000 L CNN
F 1 "74HC132" H 1450 1300 50  0000 L CNN
F 2 "Package_SO:SOIC-14_3.9x8.7mm_P1.27mm" H 1400 1650 50  0001 C CNN
F 3 "http://www.ti.com/lit/gpn/sn74LS08" H 1400 1650 50  0001 C CNN
F 4 "C7332" H 1400 1650 50  0001 C CNN "LCSC"
	5    1400 1650
	1    0    0    -1  
$EndComp
$Comp
L 74xx:74LS08 U?
U 1 1 5F1B8A04
P 7900 1700
AR Path="/5F1B8A04" Ref="U?"  Part="1" 
AR Path="/5F184EC4/5F1B8A04" Ref="U3"  Part="1" 
F 0 "U3" H 7900 1383 50  0000 C CNN
F 1 "74HC08" H 7900 1474 50  0000 C CNN
F 2 "Package_SO:SOIC-14_3.9x8.7mm_P1.27mm" H 7900 1700 50  0001 C CNN
F 3 "http://www.ti.com/lit/gpn/sn74LS08" H 7900 1700 50  0001 C CNN
F 4 "C5593" H 7900 1700 50  0001 C CNN "LCSC"
	1    7900 1700
	1    0    0    1   
$EndComp
$Comp
L 74xx:74LS08 U?
U 1 1 5F1B89FE
P 9100 1800
AR Path="/5F1B89FE" Ref="U?"  Part="1" 
AR Path="/5F184EC4/5F1B89FE" Ref="U2"  Part="1" 
F 0 "U2" H 9100 2125 50  0000 C CNN
F 1 "74HC08" H 9100 2034 50  0000 C CNN
F 2 "Package_SO:SOIC-14_3.9x8.7mm_P1.27mm" H 9100 1800 50  0001 C CNN
F 3 "http://www.ti.com/lit/gpn/sn74LS08" H 9100 1800 50  0001 C CNN
F 4 "C5593" H 9100 1800 50  0001 C CNN "LCSC"
	1    9100 1800
	1    0    0    -1  
$EndComp
$Comp
L 74xx:74LS132 U?
U 1 1 5F1B89F8
P 7900 2300
AR Path="/5F1B89F8" Ref="U?"  Part="1" 
AR Path="/5F184EC4/5F1B89F8" Ref="U1"  Part="1" 
F 0 "U1" H 7900 2625 50  0000 C CNN
F 1 "74HC132" H 7900 2534 50  0000 C CNN
F 2 "Package_SO:SOIC-14_3.9x8.7mm_P1.27mm" H 7900 2300 50  0001 C CNN
F 3 "http://www.ti.com/lit/gpn/sn74LS08" H 7900 2300 50  0001 C CNN
F 4 "C7332" H 7900 2300 50  0001 C CNN "LCSC"
	1    7900 2300
	1    0    0    -1  
$EndComp
$Comp
L 74xx:74LS08 U?
U 2 1 5F1B89F2
P 9100 2400
AR Path="/5F1B89F2" Ref="U?"  Part="2" 
AR Path="/5F184EC4/5F1B89F2" Ref="U2"  Part="2" 
F 0 "U2" H 9100 2725 50  0000 C CNN
F 1 "74HC08" H 9100 2634 50  0000 C CNN
F 2 "Package_SO:SOIC-14_3.9x8.7mm_P1.27mm" H 9100 2400 50  0001 C CNN
F 3 "http://www.ti.com/lit/gpn/sn74LS08" H 9100 2400 50  0001 C CNN
F 4 "C5593" H 9100 2400 50  0001 C CNN "LCSC"
	2    9100 2400
	1    0    0    -1  
$EndComp
$Comp
L 74xx:74LS08 U?
U 3 1 5F1B89E6
P 9100 3600
AR Path="/5F1B89E6" Ref="U?"  Part="3" 
AR Path="/5F184EC4/5F1B89E6" Ref="U2"  Part="3" 
F 0 "U2" H 9100 3925 50  0000 C CNN
F 1 "74HC08" H 9100 3834 50  0000 C CNN
F 2 "Package_SO:SOIC-14_3.9x8.7mm_P1.27mm" H 9100 3600 50  0001 C CNN
F 3 "http://www.ti.com/lit/gpn/sn74LS08" H 9100 3600 50  0001 C CNN
F 4 "C5593" H 9100 3600 50  0001 C CNN "LCSC"
	3    9100 3600
	1    0    0    -1  
$EndComp
$Comp
L 74xx:74LS132 U?
U 2 1 5F1B89E0
P 7900 4100
AR Path="/5F1B89E0" Ref="U?"  Part="2" 
AR Path="/5F184EC4/5F1B89E0" Ref="U1"  Part="2" 
F 0 "U1" H 7900 4425 50  0000 C CNN
F 1 "74HC132" H 7900 4334 50  0000 C CNN
F 2 "Package_SO:SOIC-14_3.9x8.7mm_P1.27mm" H 7900 4100 50  0001 C CNN
F 3 "http://www.ti.com/lit/gpn/sn74LS08" H 7900 4100 50  0001 C CNN
F 4 "C7332" H 7900 4100 50  0001 C CNN "LCSC"
	2    7900 4100
	1    0    0    -1  
$EndComp
$Comp
L 74xx:74LS08 U?
U 4 1 5F1B89DA
P 9100 4200
AR Path="/5F1B89DA" Ref="U?"  Part="4" 
AR Path="/5F184EC4/5F1B89DA" Ref="U2"  Part="4" 
F 0 "U2" H 9100 4525 50  0000 C CNN
F 1 "74HC08" H 9100 4434 50  0000 C CNN
F 2 "Package_SO:SOIC-14_3.9x8.7mm_P1.27mm" H 9100 4200 50  0001 C CNN
F 3 "http://www.ti.com/lit/gpn/sn74LS08" H 9100 4200 50  0001 C CNN
F 4 "C5593" H 9100 4200 50  0001 C CNN "LCSC"
	4    9100 4200
	1    0    0    -1  
$EndComp
$Comp
L 74xx:74LS132 U?
U 3 1 5F1B89CE
P 7900 6100
AR Path="/5F1B89CE" Ref="U?"  Part="3" 
AR Path="/5F184EC4/5F1B89CE" Ref="U1"  Part="3" 
F 0 "U1" H 7900 6425 50  0000 C CNN
F 1 "74HC132" H 7900 6334 50  0000 C CNN
F 2 "Package_SO:SOIC-14_3.9x8.7mm_P1.27mm" H 7900 6100 50  0001 C CNN
F 3 "http://www.ti.com/lit/gpn/sn74LS08" H 7900 6100 50  0001 C CNN
F 4 "C7332" H 7900 6100 50  0001 C CNN "LCSC"
	3    7900 6100
	1    0    0    -1  
$EndComp
$Comp
L 74xx:74LS08 U?
U 2 1 5F1B89C8
P 9100 6000
AR Path="/5F1B89C8" Ref="U?"  Part="2" 
AR Path="/5F184EC4/5F1B89C8" Ref="U3"  Part="2" 
F 0 "U3" H 9100 6325 50  0000 C CNN
F 1 "74HC08" H 9100 6234 50  0000 C CNN
F 2 "Package_SO:SOIC-14_3.9x8.7mm_P1.27mm" H 9100 6000 50  0001 C CNN
F 3 "http://www.ti.com/lit/gpn/sn74LS08" H 9100 6000 50  0001 C CNN
F 4 "C5593" H 9100 6000 50  0001 C CNN "LCSC"
	2    9100 6000
	1    0    0    -1  
$EndComp
Wire Wire Line
	6950 1800 7600 1800
Wire Wire Line
	5500 2650 6950 2650
Wire Wire Line
	6950 2650 6950 1800
Wire Wire Line
	9400 5400 9900 5400
Wire Wire Line
	9400 6000 9900 6000
Wire Wire Line
	9400 4200 9900 4200
Wire Wire Line
	9400 3600 9900 3600
Wire Wire Line
	9400 2400 9900 2400
Wire Wire Line
	9400 1800 9900 1800
Text HLabel 9900 1800 2    50   Output ~ 0
U.IN
Text HLabel 9900 2400 2    50   Output ~ 0
U.~SD
Text HLabel 9900 3600 2    50   Output ~ 0
V.IN
Text HLabel 9900 4200 2    50   Output ~ 0
V.~SD
Text HLabel 9900 5400 2    50   Output ~ 0
W.IN
Text HLabel 9900 6000 2    50   Output ~ 0
W.~SD
Text HLabel 5500 2650 0    50   Input ~ 0
~RST
Text HLabel 1700 4700 0    50   Input ~ 0
~RST
Text HLabel 1450 5900 0    50   Input ~ 0
~RST
Wire Wire Line
	1450 5900 1650 5900
Text HLabel 1700 4600 0    50   Input ~ 0
CLK
Wire Wire Line
	1700 4600 1950 4600
NoConn ~ 3600 4400
NoConn ~ 3600 4000
NoConn ~ 3600 4300
Wire Wire Line
	8800 5900 8550 5900
Wire Wire Line
	8800 6100 8200 6100
Wire Wire Line
	3100 5000 3100 5200
Wire Wire Line
	2500 5100 2500 4400
Wire Wire Line
	3600 4500 3700 4500
Wire Wire Line
	3700 4500 3700 5100
Wire Wire Line
	2500 5100 3700 5100
$Comp
L Connector:TestPoint TP2
U 1 1 61C0B266
P 3950 4500
F 0 "TP2" V 3904 4688 50  0000 L CNN
F 1 "HalfClock" V 3995 4688 50  0000 L CNN
F 2 "TestPoint:TestPoint_Pad_D1.5mm" H 4150 4500 50  0001 C CNN
F 3 "~" H 4150 4500 50  0001 C CNN
	1    3950 4500
	0    1    1    0   
$EndComp
Wire Wire Line
	3950 4500 3700 4500
Connection ~ 3700 4500
$Comp
L Connector:TestPoint TP1
U 1 1 61C12588
P 1950 4500
F 0 "TP1" H 2008 4618 50  0000 L CNN
F 1 "Clock" H 2008 4527 50  0000 L CNN
F 2 "TestPoint:TestPoint_Pad_D1.5mm" H 2150 4500 50  0001 C CNN
F 3 "~" H 2150 4500 50  0001 C CNN
	1    1950 4500
	1    0    0    -1  
$EndComp
Wire Wire Line
	1950 4500 1950 4600
Connection ~ 1950 4600
Wire Wire Line
	1950 4600 2600 4600
$EndSCHEMATC
