Designator,Val,Package,Mid X,Mid Y,Rotation,Layer
"C1","100n","C_0805_2012Metric",169.418000,-102.235000,180.000000,top
"C2","100n","C_0805_2012Metric",175.514000,-86.057500,90.000000,top
"C3","100n","C_0805_2012Metric",175.514000,-75.867500,90.000000,top
"C4","100n","C_0805_2012Metric",175.514000,-98.757500,90.000000,top
"C5","100n","C_0805_2012Metric",175.514000,-111.457500,90.000000,top
"C6","10u","C_1206_3216Metric",180.086000,-75.692000,90.000000,top
"C7","10u","C_1206_3216Metric",180.086000,-89.024000,90.000000,top
"C8","10u","C_1206_3216Metric",180.086000,-102.232000,90.000000,top
"C9","10u","C_1206_3216Metric",190.754000,-78.864000,90.000000,top
"C10","10u","C_1206_3216Metric",190.754000,-92.075000,90.000000,top
"C11","10u","C_1206_3216Metric",190.754000,-105.410000,90.000000,top
"C12","100n","C_0805_2012Metric",145.034000,-95.758000,90.000000,top
"C13","10u","C_1206_3216Metric",142.494000,-75.568000,270.000000,top
"C14","10u","C_1206_3216Metric",149.606000,-84.455000,270.000000,top
"C15","10u","C_1206_3216Metric",158.623000,-70.739000,180.000000,top
"C16","470p","C_0805_2012Metric",152.654000,-91.821000,270.000000,top
"C17","100n","C_0805_2012Metric",141.986000,-95.758000,90.000000,top
"C18","100n","C_0805_2012Metric",142.748000,-85.598000,180.000000,top
"C19","100n","C_0805_2012Metric",142.748000,-89.789000,180.000000,top
"C20","100n","C_0805_2012Metric",141.986000,-106.299000,270.000000,top
"C21","100n","C_1206_3216Metric",152.781000,-114.808000,180.000000,top
"C22","100n","C_1206_3216Metric",158.750000,-114.808000,0.000000,top
"C23","100n","C_0805_2012Metric",152.019000,-112.522000,180.000000,top
"C24","100n","C_0805_2012Metric",160.401000,-109.855000,90.000000,top
"C25","100n","C_0805_2012Metric",152.654000,-95.377000,90.000000,top
"D1","US1M","D_SMA",183.896000,-80.010000,180.000000,top
"D2","US1M","D_SMA",183.896000,-93.218000,180.000000,top
"D3","US1M","D_SMA",183.642000,-107.188000,180.000000,top
"D4","green","LED_0805_2012Metric_Castellated",168.021000,-68.072000,0.000000,top
"D5","green","LED_0805_2012Metric_Castellated",156.009500,-68.072000,0.000000,top
"D6","BAV99","SOT-23",158.115000,-82.550000,0.000000,top
"D7","BAV99","SOT-23",146.431000,-81.788000,270.000000,top
"D8","US1M","D_SMA",146.939000,-74.930000,270.000000,top
"Q1","MMBT3906","SOT-23",156.210000,-86.106000,270.000000,top
"Q2","MMBT3906","SOT-23",157.353000,-89.662000,180.000000,top
"R1","100k","R_0805_2012Metric",172.974000,-102.235000,0.000000,top
"R2","30k","R_0805_2012Metric",142.748000,-83.312000,0.000000,top
"R3","1k","R_0805_2012Metric",172.133500,-68.072000,180.000000,top
"R4","1k","R_0805_2012Metric",142.748000,-81.153000,0.000000,top
"R5","1k","R_0805_2012Metric",160.274000,-68.072000,0.000000,top
"R6","1k","R_0805_2012Metric",159.004000,-86.106000,270.000000,top
"R7","30k","R_0805_2012Metric",155.321000,-82.550000,270.000000,top
"R8","1k","R_0805_2012Metric",141.986000,-99.187000,270.000000,top
"R9","1k","R_0805_2012Metric",142.748000,-87.630000,180.000000,top
"R10","1k","R_0805_2012Metric",142.748000,-91.821000,180.000000,top
"R11","1k","R_0805_2012Metric",152.654000,-89.027000,180.000000,top
"R12","100k","R_0805_2012Metric",145.034000,-99.314000,90.000000,top
"R13","4.7","R_0805_2012Metric",188.468000,-78.310500,270.000000,top
"R14","4.7","R_0805_2012Metric",189.865000,-71.755000,0.000000,top
"R15","4.7","R_0805_2012Metric",188.468000,-91.615500,270.000000,top
"R16","4.7","R_0805_2012Metric",189.865000,-85.090000,0.000000,top
"R17","4.7","R_0805_2012Metric",188.468000,-104.902000,270.000000,top
"R18","4.7","R_0805_2012Metric",189.865000,-98.552000,0.000000,top
"R19","100k","R_0805_2012Metric",167.132000,-90.805000,0.000000,top
"R20","100k","R_0805_2012Metric",172.085000,-90.805000,0.000000,top
"R21","1k","R_0805_2012Metric",160.147000,-89.662000,270.000000,top
"R22","1k","R_0805_2012Metric",157.861000,-105.029000,180.000000,top
"R23","1k","R_0805_2012Metric",148.971000,-89.027000,180.000000,top
"R24","100k","R_0805_2012Metric",165.862000,-102.235000,0.000000,top
"R25","1k","R_0805_2012Metric",141.986000,-102.743000,90.000000,top
"R26","100k","R_0805_2012Metric",149.987000,-102.743000,0.000000,top
"R27","100k","R_0805_2012Metric",152.019000,-110.363000,180.000000,top
"R28","100k","R_0805_2012Metric",157.861000,-101.727000,0.000000,top
"R29","1k","R_0805_2012Metric",152.781000,-106.426000,270.000000,top
"R30","1k","R_0805_2012Metric",154.305000,-101.727000,180.000000,top
"U1","74HC132","SOIC-14_3.9x8.7mm_P1.27mm",169.799000,-84.455000,270.000000,top
"U2","74HC08","SOIC-14_3.9x8.7mm_P1.27mm",169.799000,-74.295000,270.000000,top
"U3","74HC08","SOIC-14_3.9x8.7mm_P1.27mm",169.799000,-97.155000,270.000000,top
"U4","74HC175","SOIC-16_3.9x9.9mm_P1.27mm",169.164000,-109.855000,270.000000,top
"U5","IR2184","SOIC-8_3.9x4.9mm_P1.27mm",184.150000,-74.295000,270.000000,top
"U6","IR2184","SOIC-8_3.9x4.9mm_P1.27mm",184.150000,-87.630000,270.000000,top
"U7","IR2184","SOIC-8_3.9x4.9mm_P1.27mm",184.150000,-100.965000,270.000000,top
"U8","78L05","SOT-89-3",157.226000,-74.714500,270.000000,top
"U9","TL431DBZ","SOT-23",152.654000,-85.090000,180.000000,top
"U10","MCP6002","SOIC-8_3.9x4.9mm_P1.27mm",156.464000,-95.250000,270.000000,top
"U11","LMC555xM","SOIC-8_3.9x4.9mm_P1.27mm",148.844000,-95.250000,270.000000,top
"U12","MCP6002","SOIC-8_3.9x4.9mm_P1.27mm",147.955000,-106.553000,0.000000,top
"U13","LMC555xM","SOIC-8_3.9x4.9mm_P1.27mm",156.591000,-109.855000,270.000000,top
