M48
; DRILL file {KiCad 5.99.0+really5.1.10+dfsg1-1+b1} date Wed Nov  3 21:46:03 2021
; FORMAT={-:-/ absolute / inch / decimal}
; #@! TF.CreationDate,2021-11-03T21:46:03+01:00
; #@! TF.GenerationSoftware,Kicad,Pcbnew,5.99.0+really5.1.10+dfsg1-1+b1
FMAT,2
INCH
T1C0.0157
T2C0.0472
T3C0.0945
T4C0.1260
%
G90
G05
T1
X5.535Y-3.37
X5.535Y-3.535
X5.59Y-3.68
X5.59Y-4.27
X5.655Y-3.135
X5.66Y-4.27
X5.71Y-3.68
X5.71Y-3.995
X5.8024Y-3.135
X5.825Y-3.3831
X5.885Y-4.43
X5.905Y-2.93
X5.905Y-3.035
X5.905Y-3.15
X5.905Y-4.515
X5.94Y-3.555
X5.95Y-3.305
X5.985Y-2.98
X5.985Y-3.095
X6.045Y-2.68
X6.055Y-4.3
X6.07Y-2.96
X6.07Y-3.0
X6.07Y-3.555
X6.07Y-3.7176
X6.12Y-2.94
X6.12Y-2.98
X6.12Y-3.02
X6.19Y-3.095
X6.2Y-3.44
X6.26Y-2.94
X6.26Y-2.98
X6.26Y-3.02
X6.27Y-4.075
X6.285Y-3.615
X6.31Y-2.96
X6.31Y-3.0
X6.315Y-3.31
X6.315Y-3.44
X6.32Y-3.85
X6.335Y-3.635
X6.34Y-4.23
X6.345Y-2.93
X6.345Y-3.15
X6.345Y-3.89
X6.36Y-4.52
X6.385Y-3.43
X6.43Y-2.93
X6.445Y-3.605
X6.465Y-3.31
X6.465Y-3.88
X6.47Y-3.42
X6.47Y-3.46
X6.475Y-4.09
X6.485Y-3.95
X6.485Y-4.16
X6.49Y-3.785
X6.5Y-3.725
X6.51Y-2.93
X6.52Y-2.68
X6.525Y-3.82
X6.525Y-3.635
X6.535Y-2.76
X6.535Y-3.16
X6.545Y-3.52
X6.585Y-2.76
X6.5863Y-3.3625
X6.6Y-4.08
X6.6569Y-3.1629
X6.66Y-3.8652
X6.68Y-3.12
X6.685Y-2.89
X6.685Y-3.2843
X6.71Y-3.8652
X6.73Y-3.63
X6.7304Y-2.9001
X6.735Y-2.76
X6.785Y-3.165
X6.79Y-3.8209
X6.81Y-3.785
X6.835Y-3.3132
X6.8389Y-3.495
X6.8735Y-3.4754
X6.8997Y-3.133
X6.9Y-3.185
X6.91Y-3.305
X6.91Y-3.805
X7.09Y-2.87
X7.09Y-3.4
X7.09Y-3.92
X7.2Y-2.89
X7.2Y-3.415
X7.2Y-3.945
X7.37Y-2.8
X7.37Y-2.85
X7.37Y-3.375
X7.375Y-3.855
X7.375Y-3.9
X7.3775Y-3.33
T2
X5.3568Y-2.9049
X5.3568Y-3.0427
X5.3568Y-3.1805
X5.3568Y-3.3183
X5.3568Y-3.4561
X5.3568Y-3.5939
X5.3568Y-3.7317
X5.3568Y-3.8695
X5.3568Y-4.0073
X5.3568Y-4.1451
X7.75Y-2.7732
X7.75Y-2.911
X7.75Y-3.0488
X7.75Y-3.1866
X7.75Y-3.3244
X7.75Y-3.4622
X7.75Y-3.6
X7.75Y-3.7378
X7.75Y-3.8756
X7.75Y-4.0134
X7.75Y-4.1512
X7.75Y-4.289
T3
X5.3568Y-2.7356
X5.3568Y-4.3144
X7.75Y-2.6039
X7.75Y-4.4583
T4
X5.745Y-2.6
X5.745Y-4.45
X7.35Y-2.6
X7.35Y-4.45
T0
M30
