%TF.GenerationSoftware,KiCad,Pcbnew,5.99.0+really5.1.10+dfsg1-1+b1*%
%TF.CreationDate,2021-11-03T21:46:04+01:00*%
%TF.ProjectId,74phase,37347068-6173-4652-9e6b-696361645f70,rev?*%
%TF.SameCoordinates,Original*%
%TF.FileFunction,Soldermask,Bot*%
%TF.FilePolarity,Negative*%
%FSLAX46Y46*%
G04 Gerber Fmt 4.6, Leading zero omitted, Abs format (unit mm)*
G04 Created by KiCad (PCBNEW 5.99.0+really5.1.10+dfsg1-1+b1) date 2021-11-03 21:46:04*
%MOMM*%
%LPD*%
G01*
G04 APERTURE LIST*
%ADD10C,2.400000*%
%ADD11O,3.600000X1.800000*%
%ADD12C,3.200000*%
G04 APERTURE END LIST*
D10*
%TO.C,J1*%
X136063000Y-109585000D03*
X136063000Y-69485000D03*
D11*
X136063000Y-105285000D03*
X136063000Y-101785000D03*
X136063000Y-98285000D03*
X136063000Y-94785000D03*
X136063000Y-91285000D03*
X136063000Y-87785000D03*
X136063000Y-84285000D03*
X136063000Y-80785000D03*
X136063000Y-77285000D03*
G36*
G01*
X134513000Y-72885000D02*
X137613000Y-72885000D01*
G75*
G02*
X137863000Y-73135000I0J-250000D01*
G01*
X137863000Y-74435000D01*
G75*
G02*
X137613000Y-74685000I-250000J0D01*
G01*
X134513000Y-74685000D01*
G75*
G02*
X134263000Y-74435000I0J250000D01*
G01*
X134263000Y-73135000D01*
G75*
G02*
X134513000Y-72885000I250000J0D01*
G01*
G37*
%TD*%
D12*
%TO.C,H4*%
X186690000Y-113030000D03*
%TD*%
%TO.C,H3*%
X186690000Y-66040000D03*
%TD*%
%TO.C,H2*%
X145923000Y-113030000D03*
%TD*%
%TO.C,H1*%
X145923000Y-66040000D03*
%TD*%
%TO.C,J2*%
G36*
G01*
X198400000Y-109840000D02*
X195300000Y-109840000D01*
G75*
G02*
X195050000Y-109590000I0J250000D01*
G01*
X195050000Y-108290000D01*
G75*
G02*
X195300000Y-108040000I250000J0D01*
G01*
X198400000Y-108040000D01*
G75*
G02*
X198650000Y-108290000I0J-250000D01*
G01*
X198650000Y-109590000D01*
G75*
G02*
X198400000Y-109840000I-250000J0D01*
G01*
G37*
D11*
X196850000Y-105440000D03*
X196850000Y-101940000D03*
X196850000Y-98440000D03*
X196850000Y-94940000D03*
X196850000Y-91440000D03*
X196850000Y-87940000D03*
X196850000Y-84440000D03*
X196850000Y-80940000D03*
X196850000Y-77440000D03*
X196850000Y-73940000D03*
X196850000Y-70440000D03*
D10*
X196850000Y-113240000D03*
X196850000Y-66140000D03*
%TD*%
M02*
