%TF.GenerationSoftware,KiCad,Pcbnew,5.99.0+really5.1.10+dfsg1-1+b1*%
%TF.CreationDate,2021-11-03T21:46:04+01:00*%
%TF.ProjectId,74phase,37347068-6173-4652-9e6b-696361645f70,rev?*%
%TF.SameCoordinates,Original*%
%TF.FileFunction,Soldermask,Top*%
%TF.FilePolarity,Negative*%
%FSLAX46Y46*%
G04 Gerber Fmt 4.6, Leading zero omitted, Abs format (unit mm)*
G04 Created by KiCad (PCBNEW 5.99.0+really5.1.10+dfsg1-1+b1) date 2021-11-03 21:46:04*
%MOMM*%
%LPD*%
G01*
G04 APERTURE LIST*
%ADD10C,1.500000*%
%ADD11C,2.400000*%
%ADD12O,3.600000X1.800000*%
%ADD13R,1.500000X1.000000*%
%ADD14C,0.100000*%
%ADD15R,0.800000X0.900000*%
%ADD16R,0.900000X0.800000*%
%ADD17R,1.800000X2.500000*%
%ADD18R,2.500000X1.800000*%
%ADD19C,3.200000*%
%ADD20R,0.900000X1.300000*%
G04 APERTURE END LIST*
D10*
%TO.C,TP1*%
X163957000Y-114935000D03*
%TD*%
%TO.C,TP2*%
X169799000Y-114935000D03*
%TD*%
%TO.C,U10*%
G36*
G01*
X158219000Y-96750000D02*
X158519000Y-96750000D01*
G75*
G02*
X158669000Y-96900000I0J-150000D01*
G01*
X158669000Y-98550000D01*
G75*
G02*
X158519000Y-98700000I-150000J0D01*
G01*
X158219000Y-98700000D01*
G75*
G02*
X158069000Y-98550000I0J150000D01*
G01*
X158069000Y-96900000D01*
G75*
G02*
X158219000Y-96750000I150000J0D01*
G01*
G37*
G36*
G01*
X156949000Y-96750000D02*
X157249000Y-96750000D01*
G75*
G02*
X157399000Y-96900000I0J-150000D01*
G01*
X157399000Y-98550000D01*
G75*
G02*
X157249000Y-98700000I-150000J0D01*
G01*
X156949000Y-98700000D01*
G75*
G02*
X156799000Y-98550000I0J150000D01*
G01*
X156799000Y-96900000D01*
G75*
G02*
X156949000Y-96750000I150000J0D01*
G01*
G37*
G36*
G01*
X155679000Y-96750000D02*
X155979000Y-96750000D01*
G75*
G02*
X156129000Y-96900000I0J-150000D01*
G01*
X156129000Y-98550000D01*
G75*
G02*
X155979000Y-98700000I-150000J0D01*
G01*
X155679000Y-98700000D01*
G75*
G02*
X155529000Y-98550000I0J150000D01*
G01*
X155529000Y-96900000D01*
G75*
G02*
X155679000Y-96750000I150000J0D01*
G01*
G37*
G36*
G01*
X154409000Y-96750000D02*
X154709000Y-96750000D01*
G75*
G02*
X154859000Y-96900000I0J-150000D01*
G01*
X154859000Y-98550000D01*
G75*
G02*
X154709000Y-98700000I-150000J0D01*
G01*
X154409000Y-98700000D01*
G75*
G02*
X154259000Y-98550000I0J150000D01*
G01*
X154259000Y-96900000D01*
G75*
G02*
X154409000Y-96750000I150000J0D01*
G01*
G37*
G36*
G01*
X154409000Y-91800000D02*
X154709000Y-91800000D01*
G75*
G02*
X154859000Y-91950000I0J-150000D01*
G01*
X154859000Y-93600000D01*
G75*
G02*
X154709000Y-93750000I-150000J0D01*
G01*
X154409000Y-93750000D01*
G75*
G02*
X154259000Y-93600000I0J150000D01*
G01*
X154259000Y-91950000D01*
G75*
G02*
X154409000Y-91800000I150000J0D01*
G01*
G37*
G36*
G01*
X155679000Y-91800000D02*
X155979000Y-91800000D01*
G75*
G02*
X156129000Y-91950000I0J-150000D01*
G01*
X156129000Y-93600000D01*
G75*
G02*
X155979000Y-93750000I-150000J0D01*
G01*
X155679000Y-93750000D01*
G75*
G02*
X155529000Y-93600000I0J150000D01*
G01*
X155529000Y-91950000D01*
G75*
G02*
X155679000Y-91800000I150000J0D01*
G01*
G37*
G36*
G01*
X156949000Y-91800000D02*
X157249000Y-91800000D01*
G75*
G02*
X157399000Y-91950000I0J-150000D01*
G01*
X157399000Y-93600000D01*
G75*
G02*
X157249000Y-93750000I-150000J0D01*
G01*
X156949000Y-93750000D01*
G75*
G02*
X156799000Y-93600000I0J150000D01*
G01*
X156799000Y-91950000D01*
G75*
G02*
X156949000Y-91800000I150000J0D01*
G01*
G37*
G36*
G01*
X158219000Y-91800000D02*
X158519000Y-91800000D01*
G75*
G02*
X158669000Y-91950000I0J-150000D01*
G01*
X158669000Y-93600000D01*
G75*
G02*
X158519000Y-93750000I-150000J0D01*
G01*
X158219000Y-93750000D01*
G75*
G02*
X158069000Y-93600000I0J150000D01*
G01*
X158069000Y-91950000D01*
G75*
G02*
X158219000Y-91800000I150000J0D01*
G01*
G37*
%TD*%
%TO.C,C25*%
G36*
G01*
X153129000Y-94927000D02*
X152179000Y-94927000D01*
G75*
G02*
X151929000Y-94677000I0J250000D01*
G01*
X151929000Y-94177000D01*
G75*
G02*
X152179000Y-93927000I250000J0D01*
G01*
X153129000Y-93927000D01*
G75*
G02*
X153379000Y-94177000I0J-250000D01*
G01*
X153379000Y-94677000D01*
G75*
G02*
X153129000Y-94927000I-250000J0D01*
G01*
G37*
G36*
G01*
X153129000Y-96827000D02*
X152179000Y-96827000D01*
G75*
G02*
X151929000Y-96577000I0J250000D01*
G01*
X151929000Y-96077000D01*
G75*
G02*
X152179000Y-95827000I250000J0D01*
G01*
X153129000Y-95827000D01*
G75*
G02*
X153379000Y-96077000I0J-250000D01*
G01*
X153379000Y-96577000D01*
G75*
G02*
X153129000Y-96827000I-250000J0D01*
G01*
G37*
%TD*%
%TO.C,C24*%
G36*
G01*
X160876000Y-109405000D02*
X159926000Y-109405000D01*
G75*
G02*
X159676000Y-109155000I0J250000D01*
G01*
X159676000Y-108655000D01*
G75*
G02*
X159926000Y-108405000I250000J0D01*
G01*
X160876000Y-108405000D01*
G75*
G02*
X161126000Y-108655000I0J-250000D01*
G01*
X161126000Y-109155000D01*
G75*
G02*
X160876000Y-109405000I-250000J0D01*
G01*
G37*
G36*
G01*
X160876000Y-111305000D02*
X159926000Y-111305000D01*
G75*
G02*
X159676000Y-111055000I0J250000D01*
G01*
X159676000Y-110555000D01*
G75*
G02*
X159926000Y-110305000I250000J0D01*
G01*
X160876000Y-110305000D01*
G75*
G02*
X161126000Y-110555000I0J-250000D01*
G01*
X161126000Y-111055000D01*
G75*
G02*
X160876000Y-111305000I-250000J0D01*
G01*
G37*
%TD*%
%TO.C,R23*%
G36*
G01*
X148571000Y-88576999D02*
X148571000Y-89477001D01*
G75*
G02*
X148321001Y-89727000I-249999J0D01*
G01*
X147795999Y-89727000D01*
G75*
G02*
X147546000Y-89477001I0J249999D01*
G01*
X147546000Y-88576999D01*
G75*
G02*
X147795999Y-88327000I249999J0D01*
G01*
X148321001Y-88327000D01*
G75*
G02*
X148571000Y-88576999I0J-249999D01*
G01*
G37*
G36*
G01*
X150396000Y-88576999D02*
X150396000Y-89477001D01*
G75*
G02*
X150146001Y-89727000I-249999J0D01*
G01*
X149620999Y-89727000D01*
G75*
G02*
X149371000Y-89477001I0J249999D01*
G01*
X149371000Y-88576999D01*
G75*
G02*
X149620999Y-88327000I249999J0D01*
G01*
X150146001Y-88327000D01*
G75*
G02*
X150396000Y-88576999I0J-249999D01*
G01*
G37*
%TD*%
D11*
%TO.C,J1*%
X136063000Y-109585000D03*
X136063000Y-69485000D03*
D12*
X136063000Y-105285000D03*
X136063000Y-101785000D03*
X136063000Y-98285000D03*
X136063000Y-94785000D03*
X136063000Y-91285000D03*
X136063000Y-87785000D03*
X136063000Y-84285000D03*
X136063000Y-80785000D03*
X136063000Y-77285000D03*
G36*
G01*
X134513000Y-72885000D02*
X137613000Y-72885000D01*
G75*
G02*
X137863000Y-73135000I0J-250000D01*
G01*
X137863000Y-74435000D01*
G75*
G02*
X137613000Y-74685000I-250000J0D01*
G01*
X134513000Y-74685000D01*
G75*
G02*
X134263000Y-74435000I0J250000D01*
G01*
X134263000Y-73135000D01*
G75*
G02*
X134513000Y-72885000I250000J0D01*
G01*
G37*
%TD*%
D13*
%TO.C,JP1*%
X160528000Y-95377000D03*
D14*
G36*
X161277398Y-96677000D02*
G01*
X161277398Y-96701534D01*
X161272588Y-96750365D01*
X161263016Y-96798490D01*
X161248772Y-96845445D01*
X161229995Y-96890778D01*
X161206864Y-96934051D01*
X161179604Y-96974850D01*
X161148476Y-97012779D01*
X161113779Y-97047476D01*
X161075850Y-97078604D01*
X161035051Y-97105864D01*
X160991778Y-97128995D01*
X160946445Y-97147772D01*
X160899490Y-97162016D01*
X160851365Y-97171588D01*
X160802534Y-97176398D01*
X160778000Y-97176398D01*
X160778000Y-97177000D01*
X160278000Y-97177000D01*
X160278000Y-97176398D01*
X160253466Y-97176398D01*
X160204635Y-97171588D01*
X160156510Y-97162016D01*
X160109555Y-97147772D01*
X160064222Y-97128995D01*
X160020949Y-97105864D01*
X159980150Y-97078604D01*
X159942221Y-97047476D01*
X159907524Y-97012779D01*
X159876396Y-96974850D01*
X159849136Y-96934051D01*
X159826005Y-96890778D01*
X159807228Y-96845445D01*
X159792984Y-96798490D01*
X159783412Y-96750365D01*
X159778602Y-96701534D01*
X159778602Y-96677000D01*
X159778000Y-96677000D01*
X159778000Y-96127000D01*
X161278000Y-96127000D01*
X161278000Y-96677000D01*
X161277398Y-96677000D01*
G37*
G36*
X159778000Y-94627000D02*
G01*
X159778000Y-94077000D01*
X159778602Y-94077000D01*
X159778602Y-94052466D01*
X159783412Y-94003635D01*
X159792984Y-93955510D01*
X159807228Y-93908555D01*
X159826005Y-93863222D01*
X159849136Y-93819949D01*
X159876396Y-93779150D01*
X159907524Y-93741221D01*
X159942221Y-93706524D01*
X159980150Y-93675396D01*
X160020949Y-93648136D01*
X160064222Y-93625005D01*
X160109555Y-93606228D01*
X160156510Y-93591984D01*
X160204635Y-93582412D01*
X160253466Y-93577602D01*
X160278000Y-93577602D01*
X160278000Y-93577000D01*
X160778000Y-93577000D01*
X160778000Y-93577602D01*
X160802534Y-93577602D01*
X160851365Y-93582412D01*
X160899490Y-93591984D01*
X160946445Y-93606228D01*
X160991778Y-93625005D01*
X161035051Y-93648136D01*
X161075850Y-93675396D01*
X161113779Y-93706524D01*
X161148476Y-93741221D01*
X161179604Y-93779150D01*
X161206864Y-93819949D01*
X161229995Y-93863222D01*
X161248772Y-93908555D01*
X161263016Y-93955510D01*
X161272588Y-94003635D01*
X161277398Y-94052466D01*
X161277398Y-94077000D01*
X161278000Y-94077000D01*
X161278000Y-94627000D01*
X159778000Y-94627000D01*
G37*
%TD*%
D15*
%TO.C,D7*%
X146431000Y-82788000D03*
X145481000Y-80788000D03*
X147381000Y-80788000D03*
%TD*%
D16*
%TO.C,D6*%
X159115000Y-82550000D03*
X157115000Y-83500000D03*
X157115000Y-81600000D03*
%TD*%
%TO.C,U13*%
G36*
G01*
X158346000Y-111355000D02*
X158646000Y-111355000D01*
G75*
G02*
X158796000Y-111505000I0J-150000D01*
G01*
X158796000Y-113155000D01*
G75*
G02*
X158646000Y-113305000I-150000J0D01*
G01*
X158346000Y-113305000D01*
G75*
G02*
X158196000Y-113155000I0J150000D01*
G01*
X158196000Y-111505000D01*
G75*
G02*
X158346000Y-111355000I150000J0D01*
G01*
G37*
G36*
G01*
X157076000Y-111355000D02*
X157376000Y-111355000D01*
G75*
G02*
X157526000Y-111505000I0J-150000D01*
G01*
X157526000Y-113155000D01*
G75*
G02*
X157376000Y-113305000I-150000J0D01*
G01*
X157076000Y-113305000D01*
G75*
G02*
X156926000Y-113155000I0J150000D01*
G01*
X156926000Y-111505000D01*
G75*
G02*
X157076000Y-111355000I150000J0D01*
G01*
G37*
G36*
G01*
X155806000Y-111355000D02*
X156106000Y-111355000D01*
G75*
G02*
X156256000Y-111505000I0J-150000D01*
G01*
X156256000Y-113155000D01*
G75*
G02*
X156106000Y-113305000I-150000J0D01*
G01*
X155806000Y-113305000D01*
G75*
G02*
X155656000Y-113155000I0J150000D01*
G01*
X155656000Y-111505000D01*
G75*
G02*
X155806000Y-111355000I150000J0D01*
G01*
G37*
G36*
G01*
X154536000Y-111355000D02*
X154836000Y-111355000D01*
G75*
G02*
X154986000Y-111505000I0J-150000D01*
G01*
X154986000Y-113155000D01*
G75*
G02*
X154836000Y-113305000I-150000J0D01*
G01*
X154536000Y-113305000D01*
G75*
G02*
X154386000Y-113155000I0J150000D01*
G01*
X154386000Y-111505000D01*
G75*
G02*
X154536000Y-111355000I150000J0D01*
G01*
G37*
G36*
G01*
X154536000Y-106405000D02*
X154836000Y-106405000D01*
G75*
G02*
X154986000Y-106555000I0J-150000D01*
G01*
X154986000Y-108205000D01*
G75*
G02*
X154836000Y-108355000I-150000J0D01*
G01*
X154536000Y-108355000D01*
G75*
G02*
X154386000Y-108205000I0J150000D01*
G01*
X154386000Y-106555000D01*
G75*
G02*
X154536000Y-106405000I150000J0D01*
G01*
G37*
G36*
G01*
X155806000Y-106405000D02*
X156106000Y-106405000D01*
G75*
G02*
X156256000Y-106555000I0J-150000D01*
G01*
X156256000Y-108205000D01*
G75*
G02*
X156106000Y-108355000I-150000J0D01*
G01*
X155806000Y-108355000D01*
G75*
G02*
X155656000Y-108205000I0J150000D01*
G01*
X155656000Y-106555000D01*
G75*
G02*
X155806000Y-106405000I150000J0D01*
G01*
G37*
G36*
G01*
X157076000Y-106405000D02*
X157376000Y-106405000D01*
G75*
G02*
X157526000Y-106555000I0J-150000D01*
G01*
X157526000Y-108205000D01*
G75*
G02*
X157376000Y-108355000I-150000J0D01*
G01*
X157076000Y-108355000D01*
G75*
G02*
X156926000Y-108205000I0J150000D01*
G01*
X156926000Y-106555000D01*
G75*
G02*
X157076000Y-106405000I150000J0D01*
G01*
G37*
G36*
G01*
X158346000Y-106405000D02*
X158646000Y-106405000D01*
G75*
G02*
X158796000Y-106555000I0J-150000D01*
G01*
X158796000Y-108205000D01*
G75*
G02*
X158646000Y-108355000I-150000J0D01*
G01*
X158346000Y-108355000D01*
G75*
G02*
X158196000Y-108205000I0J150000D01*
G01*
X158196000Y-106555000D01*
G75*
G02*
X158346000Y-106405000I150000J0D01*
G01*
G37*
%TD*%
%TO.C,R30*%
G36*
G01*
X153905000Y-101276999D02*
X153905000Y-102177001D01*
G75*
G02*
X153655001Y-102427000I-249999J0D01*
G01*
X153129999Y-102427000D01*
G75*
G02*
X152880000Y-102177001I0J249999D01*
G01*
X152880000Y-101276999D01*
G75*
G02*
X153129999Y-101027000I249999J0D01*
G01*
X153655001Y-101027000D01*
G75*
G02*
X153905000Y-101276999I0J-249999D01*
G01*
G37*
G36*
G01*
X155730000Y-101276999D02*
X155730000Y-102177001D01*
G75*
G02*
X155480001Y-102427000I-249999J0D01*
G01*
X154954999Y-102427000D01*
G75*
G02*
X154705000Y-102177001I0J249999D01*
G01*
X154705000Y-101276999D01*
G75*
G02*
X154954999Y-101027000I249999J0D01*
G01*
X155480001Y-101027000D01*
G75*
G02*
X155730000Y-101276999I0J-249999D01*
G01*
G37*
%TD*%
%TO.C,R29*%
G36*
G01*
X152330999Y-106826000D02*
X153231001Y-106826000D01*
G75*
G02*
X153481000Y-107075999I0J-249999D01*
G01*
X153481000Y-107601001D01*
G75*
G02*
X153231001Y-107851000I-249999J0D01*
G01*
X152330999Y-107851000D01*
G75*
G02*
X152081000Y-107601001I0J249999D01*
G01*
X152081000Y-107075999D01*
G75*
G02*
X152330999Y-106826000I249999J0D01*
G01*
G37*
G36*
G01*
X152330999Y-105001000D02*
X153231001Y-105001000D01*
G75*
G02*
X153481000Y-105250999I0J-249999D01*
G01*
X153481000Y-105776001D01*
G75*
G02*
X153231001Y-106026000I-249999J0D01*
G01*
X152330999Y-106026000D01*
G75*
G02*
X152081000Y-105776001I0J249999D01*
G01*
X152081000Y-105250999D01*
G75*
G02*
X152330999Y-105001000I249999J0D01*
G01*
G37*
%TD*%
%TO.C,R28*%
G36*
G01*
X158261000Y-102177001D02*
X158261000Y-101276999D01*
G75*
G02*
X158510999Y-101027000I249999J0D01*
G01*
X159036001Y-101027000D01*
G75*
G02*
X159286000Y-101276999I0J-249999D01*
G01*
X159286000Y-102177001D01*
G75*
G02*
X159036001Y-102427000I-249999J0D01*
G01*
X158510999Y-102427000D01*
G75*
G02*
X158261000Y-102177001I0J249999D01*
G01*
G37*
G36*
G01*
X156436000Y-102177001D02*
X156436000Y-101276999D01*
G75*
G02*
X156685999Y-101027000I249999J0D01*
G01*
X157211001Y-101027000D01*
G75*
G02*
X157461000Y-101276999I0J-249999D01*
G01*
X157461000Y-102177001D01*
G75*
G02*
X157211001Y-102427000I-249999J0D01*
G01*
X156685999Y-102427000D01*
G75*
G02*
X156436000Y-102177001I0J249999D01*
G01*
G37*
%TD*%
%TO.C,R27*%
G36*
G01*
X151619000Y-109912999D02*
X151619000Y-110813001D01*
G75*
G02*
X151369001Y-111063000I-249999J0D01*
G01*
X150843999Y-111063000D01*
G75*
G02*
X150594000Y-110813001I0J249999D01*
G01*
X150594000Y-109912999D01*
G75*
G02*
X150843999Y-109663000I249999J0D01*
G01*
X151369001Y-109663000D01*
G75*
G02*
X151619000Y-109912999I0J-249999D01*
G01*
G37*
G36*
G01*
X153444000Y-109912999D02*
X153444000Y-110813001D01*
G75*
G02*
X153194001Y-111063000I-249999J0D01*
G01*
X152668999Y-111063000D01*
G75*
G02*
X152419000Y-110813001I0J249999D01*
G01*
X152419000Y-109912999D01*
G75*
G02*
X152668999Y-109663000I249999J0D01*
G01*
X153194001Y-109663000D01*
G75*
G02*
X153444000Y-109912999I0J-249999D01*
G01*
G37*
%TD*%
%TO.C,R26*%
G36*
G01*
X150387000Y-103193001D02*
X150387000Y-102292999D01*
G75*
G02*
X150636999Y-102043000I249999J0D01*
G01*
X151162001Y-102043000D01*
G75*
G02*
X151412000Y-102292999I0J-249999D01*
G01*
X151412000Y-103193001D01*
G75*
G02*
X151162001Y-103443000I-249999J0D01*
G01*
X150636999Y-103443000D01*
G75*
G02*
X150387000Y-103193001I0J249999D01*
G01*
G37*
G36*
G01*
X148562000Y-103193001D02*
X148562000Y-102292999D01*
G75*
G02*
X148811999Y-102043000I249999J0D01*
G01*
X149337001Y-102043000D01*
G75*
G02*
X149587000Y-102292999I0J-249999D01*
G01*
X149587000Y-103193001D01*
G75*
G02*
X149337001Y-103443000I-249999J0D01*
G01*
X148811999Y-103443000D01*
G75*
G02*
X148562000Y-103193001I0J249999D01*
G01*
G37*
%TD*%
%TO.C,R25*%
G36*
G01*
X142436001Y-102343000D02*
X141535999Y-102343000D01*
G75*
G02*
X141286000Y-102093001I0J249999D01*
G01*
X141286000Y-101567999D01*
G75*
G02*
X141535999Y-101318000I249999J0D01*
G01*
X142436001Y-101318000D01*
G75*
G02*
X142686000Y-101567999I0J-249999D01*
G01*
X142686000Y-102093001D01*
G75*
G02*
X142436001Y-102343000I-249999J0D01*
G01*
G37*
G36*
G01*
X142436001Y-104168000D02*
X141535999Y-104168000D01*
G75*
G02*
X141286000Y-103918001I0J249999D01*
G01*
X141286000Y-103392999D01*
G75*
G02*
X141535999Y-103143000I249999J0D01*
G01*
X142436001Y-103143000D01*
G75*
G02*
X142686000Y-103392999I0J-249999D01*
G01*
X142686000Y-103918001D01*
G75*
G02*
X142436001Y-104168000I-249999J0D01*
G01*
G37*
%TD*%
%TO.C,R24*%
G36*
G01*
X166262000Y-102685001D02*
X166262000Y-101784999D01*
G75*
G02*
X166511999Y-101535000I249999J0D01*
G01*
X167037001Y-101535000D01*
G75*
G02*
X167287000Y-101784999I0J-249999D01*
G01*
X167287000Y-102685001D01*
G75*
G02*
X167037001Y-102935000I-249999J0D01*
G01*
X166511999Y-102935000D01*
G75*
G02*
X166262000Y-102685001I0J249999D01*
G01*
G37*
G36*
G01*
X164437000Y-102685001D02*
X164437000Y-101784999D01*
G75*
G02*
X164686999Y-101535000I249999J0D01*
G01*
X165212001Y-101535000D01*
G75*
G02*
X165462000Y-101784999I0J-249999D01*
G01*
X165462000Y-102685001D01*
G75*
G02*
X165212001Y-102935000I-249999J0D01*
G01*
X164686999Y-102935000D01*
G75*
G02*
X164437000Y-102685001I0J249999D01*
G01*
G37*
%TD*%
%TO.C,R22*%
G36*
G01*
X157461000Y-104578999D02*
X157461000Y-105479001D01*
G75*
G02*
X157211001Y-105729000I-249999J0D01*
G01*
X156685999Y-105729000D01*
G75*
G02*
X156436000Y-105479001I0J249999D01*
G01*
X156436000Y-104578999D01*
G75*
G02*
X156685999Y-104329000I249999J0D01*
G01*
X157211001Y-104329000D01*
G75*
G02*
X157461000Y-104578999I0J-249999D01*
G01*
G37*
G36*
G01*
X159286000Y-104578999D02*
X159286000Y-105479001D01*
G75*
G02*
X159036001Y-105729000I-249999J0D01*
G01*
X158510999Y-105729000D01*
G75*
G02*
X158261000Y-105479001I0J249999D01*
G01*
X158261000Y-104578999D01*
G75*
G02*
X158510999Y-104329000I249999J0D01*
G01*
X159036001Y-104329000D01*
G75*
G02*
X159286000Y-104578999I0J-249999D01*
G01*
G37*
%TD*%
%TO.C,R21*%
G36*
G01*
X159696999Y-90062000D02*
X160597001Y-90062000D01*
G75*
G02*
X160847000Y-90311999I0J-249999D01*
G01*
X160847000Y-90837001D01*
G75*
G02*
X160597001Y-91087000I-249999J0D01*
G01*
X159696999Y-91087000D01*
G75*
G02*
X159447000Y-90837001I0J249999D01*
G01*
X159447000Y-90311999D01*
G75*
G02*
X159696999Y-90062000I249999J0D01*
G01*
G37*
G36*
G01*
X159696999Y-88237000D02*
X160597001Y-88237000D01*
G75*
G02*
X160847000Y-88486999I0J-249999D01*
G01*
X160847000Y-89012001D01*
G75*
G02*
X160597001Y-89262000I-249999J0D01*
G01*
X159696999Y-89262000D01*
G75*
G02*
X159447000Y-89012001I0J249999D01*
G01*
X159447000Y-88486999D01*
G75*
G02*
X159696999Y-88237000I249999J0D01*
G01*
G37*
%TD*%
%TO.C,R2*%
G36*
G01*
X143148000Y-83762001D02*
X143148000Y-82861999D01*
G75*
G02*
X143397999Y-82612000I249999J0D01*
G01*
X143923001Y-82612000D01*
G75*
G02*
X144173000Y-82861999I0J-249999D01*
G01*
X144173000Y-83762001D01*
G75*
G02*
X143923001Y-84012000I-249999J0D01*
G01*
X143397999Y-84012000D01*
G75*
G02*
X143148000Y-83762001I0J249999D01*
G01*
G37*
G36*
G01*
X141323000Y-83762001D02*
X141323000Y-82861999D01*
G75*
G02*
X141572999Y-82612000I249999J0D01*
G01*
X142098001Y-82612000D01*
G75*
G02*
X142348000Y-82861999I0J-249999D01*
G01*
X142348000Y-83762001D01*
G75*
G02*
X142098001Y-84012000I-249999J0D01*
G01*
X141572999Y-84012000D01*
G75*
G02*
X141323000Y-83762001I0J249999D01*
G01*
G37*
%TD*%
%TO.C,Q2*%
X156353000Y-89662000D03*
X158353000Y-88712000D03*
X158353000Y-90612000D03*
%TD*%
D14*
%TO.C,JP2*%
G36*
X148704398Y-108331000D02*
G01*
X148704398Y-108355534D01*
X148699588Y-108404365D01*
X148690016Y-108452490D01*
X148675772Y-108499445D01*
X148656995Y-108544778D01*
X148633864Y-108588051D01*
X148606604Y-108628850D01*
X148575476Y-108666779D01*
X148540779Y-108701476D01*
X148502850Y-108732604D01*
X148462051Y-108759864D01*
X148418778Y-108782995D01*
X148373445Y-108801772D01*
X148326490Y-108816016D01*
X148278365Y-108825588D01*
X148229534Y-108830398D01*
X148205000Y-108830398D01*
X148205000Y-108831000D01*
X147705000Y-108831000D01*
X147705000Y-108830398D01*
X147680466Y-108830398D01*
X147631635Y-108825588D01*
X147583510Y-108816016D01*
X147536555Y-108801772D01*
X147491222Y-108782995D01*
X147447949Y-108759864D01*
X147407150Y-108732604D01*
X147369221Y-108701476D01*
X147334524Y-108666779D01*
X147303396Y-108628850D01*
X147276136Y-108588051D01*
X147253005Y-108544778D01*
X147234228Y-108499445D01*
X147219984Y-108452490D01*
X147210412Y-108404365D01*
X147205602Y-108355534D01*
X147205602Y-108331000D01*
X147205000Y-108331000D01*
X147205000Y-107831000D01*
X148705000Y-107831000D01*
X148705000Y-108331000D01*
X148704398Y-108331000D01*
G37*
G36*
X147205000Y-107531000D02*
G01*
X147205000Y-107031000D01*
X147205602Y-107031000D01*
X147205602Y-107006466D01*
X147210412Y-106957635D01*
X147219984Y-106909510D01*
X147234228Y-106862555D01*
X147253005Y-106817222D01*
X147276136Y-106773949D01*
X147303396Y-106733150D01*
X147334524Y-106695221D01*
X147369221Y-106660524D01*
X147407150Y-106629396D01*
X147447949Y-106602136D01*
X147491222Y-106579005D01*
X147536555Y-106560228D01*
X147583510Y-106545984D01*
X147631635Y-106536412D01*
X147680466Y-106531602D01*
X147705000Y-106531602D01*
X147705000Y-106531000D01*
X148205000Y-106531000D01*
X148205000Y-106531602D01*
X148229534Y-106531602D01*
X148278365Y-106536412D01*
X148326490Y-106545984D01*
X148373445Y-106560228D01*
X148418778Y-106579005D01*
X148462051Y-106602136D01*
X148502850Y-106629396D01*
X148540779Y-106660524D01*
X148575476Y-106695221D01*
X148606604Y-106733150D01*
X148633864Y-106773949D01*
X148656995Y-106817222D01*
X148675772Y-106862555D01*
X148690016Y-106909510D01*
X148699588Y-106957635D01*
X148704398Y-107006466D01*
X148704398Y-107031000D01*
X148705000Y-107031000D01*
X148705000Y-107531000D01*
X147205000Y-107531000D01*
G37*
%TD*%
%TO.C,C23*%
G36*
G01*
X151569000Y-112047000D02*
X151569000Y-112997000D01*
G75*
G02*
X151319000Y-113247000I-250000J0D01*
G01*
X150819000Y-113247000D01*
G75*
G02*
X150569000Y-112997000I0J250000D01*
G01*
X150569000Y-112047000D01*
G75*
G02*
X150819000Y-111797000I250000J0D01*
G01*
X151319000Y-111797000D01*
G75*
G02*
X151569000Y-112047000I0J-250000D01*
G01*
G37*
G36*
G01*
X153469000Y-112047000D02*
X153469000Y-112997000D01*
G75*
G02*
X153219000Y-113247000I-250000J0D01*
G01*
X152719000Y-113247000D01*
G75*
G02*
X152469000Y-112997000I0J250000D01*
G01*
X152469000Y-112047000D01*
G75*
G02*
X152719000Y-111797000I250000J0D01*
G01*
X153219000Y-111797000D01*
G75*
G02*
X153469000Y-112047000I0J-250000D01*
G01*
G37*
%TD*%
%TO.C,C22*%
G36*
G01*
X159650000Y-115458001D02*
X159650000Y-114157999D01*
G75*
G02*
X159899999Y-113908000I249999J0D01*
G01*
X160550001Y-113908000D01*
G75*
G02*
X160800000Y-114157999I0J-249999D01*
G01*
X160800000Y-115458001D01*
G75*
G02*
X160550001Y-115708000I-249999J0D01*
G01*
X159899999Y-115708000D01*
G75*
G02*
X159650000Y-115458001I0J249999D01*
G01*
G37*
G36*
G01*
X156700000Y-115458001D02*
X156700000Y-114157999D01*
G75*
G02*
X156949999Y-113908000I249999J0D01*
G01*
X157600001Y-113908000D01*
G75*
G02*
X157850000Y-114157999I0J-249999D01*
G01*
X157850000Y-115458001D01*
G75*
G02*
X157600001Y-115708000I-249999J0D01*
G01*
X156949999Y-115708000D01*
G75*
G02*
X156700000Y-115458001I0J249999D01*
G01*
G37*
%TD*%
%TO.C,C21*%
G36*
G01*
X151881000Y-114157999D02*
X151881000Y-115458001D01*
G75*
G02*
X151631001Y-115708000I-249999J0D01*
G01*
X150980999Y-115708000D01*
G75*
G02*
X150731000Y-115458001I0J249999D01*
G01*
X150731000Y-114157999D01*
G75*
G02*
X150980999Y-113908000I249999J0D01*
G01*
X151631001Y-113908000D01*
G75*
G02*
X151881000Y-114157999I0J-249999D01*
G01*
G37*
G36*
G01*
X154831000Y-114157999D02*
X154831000Y-115458001D01*
G75*
G02*
X154581001Y-115708000I-249999J0D01*
G01*
X153930999Y-115708000D01*
G75*
G02*
X153681000Y-115458001I0J249999D01*
G01*
X153681000Y-114157999D01*
G75*
G02*
X153930999Y-113908000I249999J0D01*
G01*
X154581001Y-113908000D01*
G75*
G02*
X154831000Y-114157999I0J-249999D01*
G01*
G37*
%TD*%
%TO.C,C20*%
G36*
G01*
X141511000Y-106749000D02*
X142461000Y-106749000D01*
G75*
G02*
X142711000Y-106999000I0J-250000D01*
G01*
X142711000Y-107499000D01*
G75*
G02*
X142461000Y-107749000I-250000J0D01*
G01*
X141511000Y-107749000D01*
G75*
G02*
X141261000Y-107499000I0J250000D01*
G01*
X141261000Y-106999000D01*
G75*
G02*
X141511000Y-106749000I250000J0D01*
G01*
G37*
G36*
G01*
X141511000Y-104849000D02*
X142461000Y-104849000D01*
G75*
G02*
X142711000Y-105099000I0J-250000D01*
G01*
X142711000Y-105599000D01*
G75*
G02*
X142461000Y-105849000I-250000J0D01*
G01*
X141511000Y-105849000D01*
G75*
G02*
X141261000Y-105599000I0J250000D01*
G01*
X141261000Y-105099000D01*
G75*
G02*
X141511000Y-104849000I250000J0D01*
G01*
G37*
%TD*%
%TO.C,C14*%
G36*
G01*
X148955999Y-85355000D02*
X150256001Y-85355000D01*
G75*
G02*
X150506000Y-85604999I0J-249999D01*
G01*
X150506000Y-86255001D01*
G75*
G02*
X150256001Y-86505000I-249999J0D01*
G01*
X148955999Y-86505000D01*
G75*
G02*
X148706000Y-86255001I0J249999D01*
G01*
X148706000Y-85604999D01*
G75*
G02*
X148955999Y-85355000I249999J0D01*
G01*
G37*
G36*
G01*
X148955999Y-82405000D02*
X150256001Y-82405000D01*
G75*
G02*
X150506000Y-82654999I0J-249999D01*
G01*
X150506000Y-83305001D01*
G75*
G02*
X150256001Y-83555000I-249999J0D01*
G01*
X148955999Y-83555000D01*
G75*
G02*
X148706000Y-83305001I0J249999D01*
G01*
X148706000Y-82654999D01*
G75*
G02*
X148955999Y-82405000I249999J0D01*
G01*
G37*
%TD*%
%TO.C,C12*%
G36*
G01*
X145509000Y-95308000D02*
X144559000Y-95308000D01*
G75*
G02*
X144309000Y-95058000I0J250000D01*
G01*
X144309000Y-94558000D01*
G75*
G02*
X144559000Y-94308000I250000J0D01*
G01*
X145509000Y-94308000D01*
G75*
G02*
X145759000Y-94558000I0J-250000D01*
G01*
X145759000Y-95058000D01*
G75*
G02*
X145509000Y-95308000I-250000J0D01*
G01*
G37*
G36*
G01*
X145509000Y-97208000D02*
X144559000Y-97208000D01*
G75*
G02*
X144309000Y-96958000I0J250000D01*
G01*
X144309000Y-96458000D01*
G75*
G02*
X144559000Y-96208000I250000J0D01*
G01*
X145509000Y-96208000D01*
G75*
G02*
X145759000Y-96458000I0J-250000D01*
G01*
X145759000Y-96958000D01*
G75*
G02*
X145509000Y-97208000I-250000J0D01*
G01*
G37*
%TD*%
%TO.C,U12*%
G36*
G01*
X149455000Y-104798000D02*
X149455000Y-104498000D01*
G75*
G02*
X149605000Y-104348000I150000J0D01*
G01*
X151255000Y-104348000D01*
G75*
G02*
X151405000Y-104498000I0J-150000D01*
G01*
X151405000Y-104798000D01*
G75*
G02*
X151255000Y-104948000I-150000J0D01*
G01*
X149605000Y-104948000D01*
G75*
G02*
X149455000Y-104798000I0J150000D01*
G01*
G37*
G36*
G01*
X149455000Y-106068000D02*
X149455000Y-105768000D01*
G75*
G02*
X149605000Y-105618000I150000J0D01*
G01*
X151255000Y-105618000D01*
G75*
G02*
X151405000Y-105768000I0J-150000D01*
G01*
X151405000Y-106068000D01*
G75*
G02*
X151255000Y-106218000I-150000J0D01*
G01*
X149605000Y-106218000D01*
G75*
G02*
X149455000Y-106068000I0J150000D01*
G01*
G37*
G36*
G01*
X149455000Y-107338000D02*
X149455000Y-107038000D01*
G75*
G02*
X149605000Y-106888000I150000J0D01*
G01*
X151255000Y-106888000D01*
G75*
G02*
X151405000Y-107038000I0J-150000D01*
G01*
X151405000Y-107338000D01*
G75*
G02*
X151255000Y-107488000I-150000J0D01*
G01*
X149605000Y-107488000D01*
G75*
G02*
X149455000Y-107338000I0J150000D01*
G01*
G37*
G36*
G01*
X149455000Y-108608000D02*
X149455000Y-108308000D01*
G75*
G02*
X149605000Y-108158000I150000J0D01*
G01*
X151255000Y-108158000D01*
G75*
G02*
X151405000Y-108308000I0J-150000D01*
G01*
X151405000Y-108608000D01*
G75*
G02*
X151255000Y-108758000I-150000J0D01*
G01*
X149605000Y-108758000D01*
G75*
G02*
X149455000Y-108608000I0J150000D01*
G01*
G37*
G36*
G01*
X144505000Y-108608000D02*
X144505000Y-108308000D01*
G75*
G02*
X144655000Y-108158000I150000J0D01*
G01*
X146305000Y-108158000D01*
G75*
G02*
X146455000Y-108308000I0J-150000D01*
G01*
X146455000Y-108608000D01*
G75*
G02*
X146305000Y-108758000I-150000J0D01*
G01*
X144655000Y-108758000D01*
G75*
G02*
X144505000Y-108608000I0J150000D01*
G01*
G37*
G36*
G01*
X144505000Y-107338000D02*
X144505000Y-107038000D01*
G75*
G02*
X144655000Y-106888000I150000J0D01*
G01*
X146305000Y-106888000D01*
G75*
G02*
X146455000Y-107038000I0J-150000D01*
G01*
X146455000Y-107338000D01*
G75*
G02*
X146305000Y-107488000I-150000J0D01*
G01*
X144655000Y-107488000D01*
G75*
G02*
X144505000Y-107338000I0J150000D01*
G01*
G37*
G36*
G01*
X144505000Y-106068000D02*
X144505000Y-105768000D01*
G75*
G02*
X144655000Y-105618000I150000J0D01*
G01*
X146305000Y-105618000D01*
G75*
G02*
X146455000Y-105768000I0J-150000D01*
G01*
X146455000Y-106068000D01*
G75*
G02*
X146305000Y-106218000I-150000J0D01*
G01*
X144655000Y-106218000D01*
G75*
G02*
X144505000Y-106068000I0J150000D01*
G01*
G37*
G36*
G01*
X144505000Y-104798000D02*
X144505000Y-104498000D01*
G75*
G02*
X144655000Y-104348000I150000J0D01*
G01*
X146305000Y-104348000D01*
G75*
G02*
X146455000Y-104498000I0J-150000D01*
G01*
X146455000Y-104798000D01*
G75*
G02*
X146305000Y-104948000I-150000J0D01*
G01*
X144655000Y-104948000D01*
G75*
G02*
X144505000Y-104798000I0J150000D01*
G01*
G37*
%TD*%
%TO.C,R20*%
G36*
G01*
X172485000Y-91255001D02*
X172485000Y-90354999D01*
G75*
G02*
X172734999Y-90105000I249999J0D01*
G01*
X173260001Y-90105000D01*
G75*
G02*
X173510000Y-90354999I0J-249999D01*
G01*
X173510000Y-91255001D01*
G75*
G02*
X173260001Y-91505000I-249999J0D01*
G01*
X172734999Y-91505000D01*
G75*
G02*
X172485000Y-91255001I0J249999D01*
G01*
G37*
G36*
G01*
X170660000Y-91255001D02*
X170660000Y-90354999D01*
G75*
G02*
X170909999Y-90105000I249999J0D01*
G01*
X171435001Y-90105000D01*
G75*
G02*
X171685000Y-90354999I0J-249999D01*
G01*
X171685000Y-91255001D01*
G75*
G02*
X171435001Y-91505000I-249999J0D01*
G01*
X170909999Y-91505000D01*
G75*
G02*
X170660000Y-91255001I0J249999D01*
G01*
G37*
%TD*%
%TO.C,R9*%
G36*
G01*
X142348000Y-87179999D02*
X142348000Y-88080001D01*
G75*
G02*
X142098001Y-88330000I-249999J0D01*
G01*
X141572999Y-88330000D01*
G75*
G02*
X141323000Y-88080001I0J249999D01*
G01*
X141323000Y-87179999D01*
G75*
G02*
X141572999Y-86930000I249999J0D01*
G01*
X142098001Y-86930000D01*
G75*
G02*
X142348000Y-87179999I0J-249999D01*
G01*
G37*
G36*
G01*
X144173000Y-87179999D02*
X144173000Y-88080001D01*
G75*
G02*
X143923001Y-88330000I-249999J0D01*
G01*
X143397999Y-88330000D01*
G75*
G02*
X143148000Y-88080001I0J249999D01*
G01*
X143148000Y-87179999D01*
G75*
G02*
X143397999Y-86930000I249999J0D01*
G01*
X143923001Y-86930000D01*
G75*
G02*
X144173000Y-87179999I0J-249999D01*
G01*
G37*
%TD*%
D17*
%TO.C,D8*%
X146939000Y-76930000D03*
X146939000Y-72930000D03*
%TD*%
%TO.C,C18*%
G36*
G01*
X142298000Y-85123000D02*
X142298000Y-86073000D01*
G75*
G02*
X142048000Y-86323000I-250000J0D01*
G01*
X141548000Y-86323000D01*
G75*
G02*
X141298000Y-86073000I0J250000D01*
G01*
X141298000Y-85123000D01*
G75*
G02*
X141548000Y-84873000I250000J0D01*
G01*
X142048000Y-84873000D01*
G75*
G02*
X142298000Y-85123000I0J-250000D01*
G01*
G37*
G36*
G01*
X144198000Y-85123000D02*
X144198000Y-86073000D01*
G75*
G02*
X143948000Y-86323000I-250000J0D01*
G01*
X143448000Y-86323000D01*
G75*
G02*
X143198000Y-86073000I0J250000D01*
G01*
X143198000Y-85123000D01*
G75*
G02*
X143448000Y-84873000I250000J0D01*
G01*
X143948000Y-84873000D01*
G75*
G02*
X144198000Y-85123000I0J-250000D01*
G01*
G37*
%TD*%
%TO.C,U1*%
G36*
G01*
X173459000Y-81005000D02*
X173759000Y-81005000D01*
G75*
G02*
X173909000Y-81155000I0J-150000D01*
G01*
X173909000Y-82805000D01*
G75*
G02*
X173759000Y-82955000I-150000J0D01*
G01*
X173459000Y-82955000D01*
G75*
G02*
X173309000Y-82805000I0J150000D01*
G01*
X173309000Y-81155000D01*
G75*
G02*
X173459000Y-81005000I150000J0D01*
G01*
G37*
G36*
G01*
X172189000Y-81005000D02*
X172489000Y-81005000D01*
G75*
G02*
X172639000Y-81155000I0J-150000D01*
G01*
X172639000Y-82805000D01*
G75*
G02*
X172489000Y-82955000I-150000J0D01*
G01*
X172189000Y-82955000D01*
G75*
G02*
X172039000Y-82805000I0J150000D01*
G01*
X172039000Y-81155000D01*
G75*
G02*
X172189000Y-81005000I150000J0D01*
G01*
G37*
G36*
G01*
X170919000Y-81005000D02*
X171219000Y-81005000D01*
G75*
G02*
X171369000Y-81155000I0J-150000D01*
G01*
X171369000Y-82805000D01*
G75*
G02*
X171219000Y-82955000I-150000J0D01*
G01*
X170919000Y-82955000D01*
G75*
G02*
X170769000Y-82805000I0J150000D01*
G01*
X170769000Y-81155000D01*
G75*
G02*
X170919000Y-81005000I150000J0D01*
G01*
G37*
G36*
G01*
X169649000Y-81005000D02*
X169949000Y-81005000D01*
G75*
G02*
X170099000Y-81155000I0J-150000D01*
G01*
X170099000Y-82805000D01*
G75*
G02*
X169949000Y-82955000I-150000J0D01*
G01*
X169649000Y-82955000D01*
G75*
G02*
X169499000Y-82805000I0J150000D01*
G01*
X169499000Y-81155000D01*
G75*
G02*
X169649000Y-81005000I150000J0D01*
G01*
G37*
G36*
G01*
X168379000Y-81005000D02*
X168679000Y-81005000D01*
G75*
G02*
X168829000Y-81155000I0J-150000D01*
G01*
X168829000Y-82805000D01*
G75*
G02*
X168679000Y-82955000I-150000J0D01*
G01*
X168379000Y-82955000D01*
G75*
G02*
X168229000Y-82805000I0J150000D01*
G01*
X168229000Y-81155000D01*
G75*
G02*
X168379000Y-81005000I150000J0D01*
G01*
G37*
G36*
G01*
X167109000Y-81005000D02*
X167409000Y-81005000D01*
G75*
G02*
X167559000Y-81155000I0J-150000D01*
G01*
X167559000Y-82805000D01*
G75*
G02*
X167409000Y-82955000I-150000J0D01*
G01*
X167109000Y-82955000D01*
G75*
G02*
X166959000Y-82805000I0J150000D01*
G01*
X166959000Y-81155000D01*
G75*
G02*
X167109000Y-81005000I150000J0D01*
G01*
G37*
G36*
G01*
X165839000Y-81005000D02*
X166139000Y-81005000D01*
G75*
G02*
X166289000Y-81155000I0J-150000D01*
G01*
X166289000Y-82805000D01*
G75*
G02*
X166139000Y-82955000I-150000J0D01*
G01*
X165839000Y-82955000D01*
G75*
G02*
X165689000Y-82805000I0J150000D01*
G01*
X165689000Y-81155000D01*
G75*
G02*
X165839000Y-81005000I150000J0D01*
G01*
G37*
G36*
G01*
X165839000Y-85955000D02*
X166139000Y-85955000D01*
G75*
G02*
X166289000Y-86105000I0J-150000D01*
G01*
X166289000Y-87755000D01*
G75*
G02*
X166139000Y-87905000I-150000J0D01*
G01*
X165839000Y-87905000D01*
G75*
G02*
X165689000Y-87755000I0J150000D01*
G01*
X165689000Y-86105000D01*
G75*
G02*
X165839000Y-85955000I150000J0D01*
G01*
G37*
G36*
G01*
X167109000Y-85955000D02*
X167409000Y-85955000D01*
G75*
G02*
X167559000Y-86105000I0J-150000D01*
G01*
X167559000Y-87755000D01*
G75*
G02*
X167409000Y-87905000I-150000J0D01*
G01*
X167109000Y-87905000D01*
G75*
G02*
X166959000Y-87755000I0J150000D01*
G01*
X166959000Y-86105000D01*
G75*
G02*
X167109000Y-85955000I150000J0D01*
G01*
G37*
G36*
G01*
X168379000Y-85955000D02*
X168679000Y-85955000D01*
G75*
G02*
X168829000Y-86105000I0J-150000D01*
G01*
X168829000Y-87755000D01*
G75*
G02*
X168679000Y-87905000I-150000J0D01*
G01*
X168379000Y-87905000D01*
G75*
G02*
X168229000Y-87755000I0J150000D01*
G01*
X168229000Y-86105000D01*
G75*
G02*
X168379000Y-85955000I150000J0D01*
G01*
G37*
G36*
G01*
X169649000Y-85955000D02*
X169949000Y-85955000D01*
G75*
G02*
X170099000Y-86105000I0J-150000D01*
G01*
X170099000Y-87755000D01*
G75*
G02*
X169949000Y-87905000I-150000J0D01*
G01*
X169649000Y-87905000D01*
G75*
G02*
X169499000Y-87755000I0J150000D01*
G01*
X169499000Y-86105000D01*
G75*
G02*
X169649000Y-85955000I150000J0D01*
G01*
G37*
G36*
G01*
X170919000Y-85955000D02*
X171219000Y-85955000D01*
G75*
G02*
X171369000Y-86105000I0J-150000D01*
G01*
X171369000Y-87755000D01*
G75*
G02*
X171219000Y-87905000I-150000J0D01*
G01*
X170919000Y-87905000D01*
G75*
G02*
X170769000Y-87755000I0J150000D01*
G01*
X170769000Y-86105000D01*
G75*
G02*
X170919000Y-85955000I150000J0D01*
G01*
G37*
G36*
G01*
X172189000Y-85955000D02*
X172489000Y-85955000D01*
G75*
G02*
X172639000Y-86105000I0J-150000D01*
G01*
X172639000Y-87755000D01*
G75*
G02*
X172489000Y-87905000I-150000J0D01*
G01*
X172189000Y-87905000D01*
G75*
G02*
X172039000Y-87755000I0J150000D01*
G01*
X172039000Y-86105000D01*
G75*
G02*
X172189000Y-85955000I150000J0D01*
G01*
G37*
G36*
G01*
X173459000Y-85955000D02*
X173759000Y-85955000D01*
G75*
G02*
X173909000Y-86105000I0J-150000D01*
G01*
X173909000Y-87755000D01*
G75*
G02*
X173759000Y-87905000I-150000J0D01*
G01*
X173459000Y-87905000D01*
G75*
G02*
X173309000Y-87755000I0J150000D01*
G01*
X173309000Y-86105000D01*
G75*
G02*
X173459000Y-85955000I150000J0D01*
G01*
G37*
%TD*%
%TO.C,U2*%
G36*
G01*
X173459000Y-75795000D02*
X173759000Y-75795000D01*
G75*
G02*
X173909000Y-75945000I0J-150000D01*
G01*
X173909000Y-77595000D01*
G75*
G02*
X173759000Y-77745000I-150000J0D01*
G01*
X173459000Y-77745000D01*
G75*
G02*
X173309000Y-77595000I0J150000D01*
G01*
X173309000Y-75945000D01*
G75*
G02*
X173459000Y-75795000I150000J0D01*
G01*
G37*
G36*
G01*
X172189000Y-75795000D02*
X172489000Y-75795000D01*
G75*
G02*
X172639000Y-75945000I0J-150000D01*
G01*
X172639000Y-77595000D01*
G75*
G02*
X172489000Y-77745000I-150000J0D01*
G01*
X172189000Y-77745000D01*
G75*
G02*
X172039000Y-77595000I0J150000D01*
G01*
X172039000Y-75945000D01*
G75*
G02*
X172189000Y-75795000I150000J0D01*
G01*
G37*
G36*
G01*
X170919000Y-75795000D02*
X171219000Y-75795000D01*
G75*
G02*
X171369000Y-75945000I0J-150000D01*
G01*
X171369000Y-77595000D01*
G75*
G02*
X171219000Y-77745000I-150000J0D01*
G01*
X170919000Y-77745000D01*
G75*
G02*
X170769000Y-77595000I0J150000D01*
G01*
X170769000Y-75945000D01*
G75*
G02*
X170919000Y-75795000I150000J0D01*
G01*
G37*
G36*
G01*
X169649000Y-75795000D02*
X169949000Y-75795000D01*
G75*
G02*
X170099000Y-75945000I0J-150000D01*
G01*
X170099000Y-77595000D01*
G75*
G02*
X169949000Y-77745000I-150000J0D01*
G01*
X169649000Y-77745000D01*
G75*
G02*
X169499000Y-77595000I0J150000D01*
G01*
X169499000Y-75945000D01*
G75*
G02*
X169649000Y-75795000I150000J0D01*
G01*
G37*
G36*
G01*
X168379000Y-75795000D02*
X168679000Y-75795000D01*
G75*
G02*
X168829000Y-75945000I0J-150000D01*
G01*
X168829000Y-77595000D01*
G75*
G02*
X168679000Y-77745000I-150000J0D01*
G01*
X168379000Y-77745000D01*
G75*
G02*
X168229000Y-77595000I0J150000D01*
G01*
X168229000Y-75945000D01*
G75*
G02*
X168379000Y-75795000I150000J0D01*
G01*
G37*
G36*
G01*
X167109000Y-75795000D02*
X167409000Y-75795000D01*
G75*
G02*
X167559000Y-75945000I0J-150000D01*
G01*
X167559000Y-77595000D01*
G75*
G02*
X167409000Y-77745000I-150000J0D01*
G01*
X167109000Y-77745000D01*
G75*
G02*
X166959000Y-77595000I0J150000D01*
G01*
X166959000Y-75945000D01*
G75*
G02*
X167109000Y-75795000I150000J0D01*
G01*
G37*
G36*
G01*
X165839000Y-75795000D02*
X166139000Y-75795000D01*
G75*
G02*
X166289000Y-75945000I0J-150000D01*
G01*
X166289000Y-77595000D01*
G75*
G02*
X166139000Y-77745000I-150000J0D01*
G01*
X165839000Y-77745000D01*
G75*
G02*
X165689000Y-77595000I0J150000D01*
G01*
X165689000Y-75945000D01*
G75*
G02*
X165839000Y-75795000I150000J0D01*
G01*
G37*
G36*
G01*
X165839000Y-70845000D02*
X166139000Y-70845000D01*
G75*
G02*
X166289000Y-70995000I0J-150000D01*
G01*
X166289000Y-72645000D01*
G75*
G02*
X166139000Y-72795000I-150000J0D01*
G01*
X165839000Y-72795000D01*
G75*
G02*
X165689000Y-72645000I0J150000D01*
G01*
X165689000Y-70995000D01*
G75*
G02*
X165839000Y-70845000I150000J0D01*
G01*
G37*
G36*
G01*
X167109000Y-70845000D02*
X167409000Y-70845000D01*
G75*
G02*
X167559000Y-70995000I0J-150000D01*
G01*
X167559000Y-72645000D01*
G75*
G02*
X167409000Y-72795000I-150000J0D01*
G01*
X167109000Y-72795000D01*
G75*
G02*
X166959000Y-72645000I0J150000D01*
G01*
X166959000Y-70995000D01*
G75*
G02*
X167109000Y-70845000I150000J0D01*
G01*
G37*
G36*
G01*
X168379000Y-70845000D02*
X168679000Y-70845000D01*
G75*
G02*
X168829000Y-70995000I0J-150000D01*
G01*
X168829000Y-72645000D01*
G75*
G02*
X168679000Y-72795000I-150000J0D01*
G01*
X168379000Y-72795000D01*
G75*
G02*
X168229000Y-72645000I0J150000D01*
G01*
X168229000Y-70995000D01*
G75*
G02*
X168379000Y-70845000I150000J0D01*
G01*
G37*
G36*
G01*
X169649000Y-70845000D02*
X169949000Y-70845000D01*
G75*
G02*
X170099000Y-70995000I0J-150000D01*
G01*
X170099000Y-72645000D01*
G75*
G02*
X169949000Y-72795000I-150000J0D01*
G01*
X169649000Y-72795000D01*
G75*
G02*
X169499000Y-72645000I0J150000D01*
G01*
X169499000Y-70995000D01*
G75*
G02*
X169649000Y-70845000I150000J0D01*
G01*
G37*
G36*
G01*
X170919000Y-70845000D02*
X171219000Y-70845000D01*
G75*
G02*
X171369000Y-70995000I0J-150000D01*
G01*
X171369000Y-72645000D01*
G75*
G02*
X171219000Y-72795000I-150000J0D01*
G01*
X170919000Y-72795000D01*
G75*
G02*
X170769000Y-72645000I0J150000D01*
G01*
X170769000Y-70995000D01*
G75*
G02*
X170919000Y-70845000I150000J0D01*
G01*
G37*
G36*
G01*
X172189000Y-70845000D02*
X172489000Y-70845000D01*
G75*
G02*
X172639000Y-70995000I0J-150000D01*
G01*
X172639000Y-72645000D01*
G75*
G02*
X172489000Y-72795000I-150000J0D01*
G01*
X172189000Y-72795000D01*
G75*
G02*
X172039000Y-72645000I0J150000D01*
G01*
X172039000Y-70995000D01*
G75*
G02*
X172189000Y-70845000I150000J0D01*
G01*
G37*
G36*
G01*
X173459000Y-70845000D02*
X173759000Y-70845000D01*
G75*
G02*
X173909000Y-70995000I0J-150000D01*
G01*
X173909000Y-72645000D01*
G75*
G02*
X173759000Y-72795000I-150000J0D01*
G01*
X173459000Y-72795000D01*
G75*
G02*
X173309000Y-72645000I0J150000D01*
G01*
X173309000Y-70995000D01*
G75*
G02*
X173459000Y-70845000I150000J0D01*
G01*
G37*
%TD*%
%TO.C,U3*%
G36*
G01*
X173459000Y-93705000D02*
X173759000Y-93705000D01*
G75*
G02*
X173909000Y-93855000I0J-150000D01*
G01*
X173909000Y-95505000D01*
G75*
G02*
X173759000Y-95655000I-150000J0D01*
G01*
X173459000Y-95655000D01*
G75*
G02*
X173309000Y-95505000I0J150000D01*
G01*
X173309000Y-93855000D01*
G75*
G02*
X173459000Y-93705000I150000J0D01*
G01*
G37*
G36*
G01*
X172189000Y-93705000D02*
X172489000Y-93705000D01*
G75*
G02*
X172639000Y-93855000I0J-150000D01*
G01*
X172639000Y-95505000D01*
G75*
G02*
X172489000Y-95655000I-150000J0D01*
G01*
X172189000Y-95655000D01*
G75*
G02*
X172039000Y-95505000I0J150000D01*
G01*
X172039000Y-93855000D01*
G75*
G02*
X172189000Y-93705000I150000J0D01*
G01*
G37*
G36*
G01*
X170919000Y-93705000D02*
X171219000Y-93705000D01*
G75*
G02*
X171369000Y-93855000I0J-150000D01*
G01*
X171369000Y-95505000D01*
G75*
G02*
X171219000Y-95655000I-150000J0D01*
G01*
X170919000Y-95655000D01*
G75*
G02*
X170769000Y-95505000I0J150000D01*
G01*
X170769000Y-93855000D01*
G75*
G02*
X170919000Y-93705000I150000J0D01*
G01*
G37*
G36*
G01*
X169649000Y-93705000D02*
X169949000Y-93705000D01*
G75*
G02*
X170099000Y-93855000I0J-150000D01*
G01*
X170099000Y-95505000D01*
G75*
G02*
X169949000Y-95655000I-150000J0D01*
G01*
X169649000Y-95655000D01*
G75*
G02*
X169499000Y-95505000I0J150000D01*
G01*
X169499000Y-93855000D01*
G75*
G02*
X169649000Y-93705000I150000J0D01*
G01*
G37*
G36*
G01*
X168379000Y-93705000D02*
X168679000Y-93705000D01*
G75*
G02*
X168829000Y-93855000I0J-150000D01*
G01*
X168829000Y-95505000D01*
G75*
G02*
X168679000Y-95655000I-150000J0D01*
G01*
X168379000Y-95655000D01*
G75*
G02*
X168229000Y-95505000I0J150000D01*
G01*
X168229000Y-93855000D01*
G75*
G02*
X168379000Y-93705000I150000J0D01*
G01*
G37*
G36*
G01*
X167109000Y-93705000D02*
X167409000Y-93705000D01*
G75*
G02*
X167559000Y-93855000I0J-150000D01*
G01*
X167559000Y-95505000D01*
G75*
G02*
X167409000Y-95655000I-150000J0D01*
G01*
X167109000Y-95655000D01*
G75*
G02*
X166959000Y-95505000I0J150000D01*
G01*
X166959000Y-93855000D01*
G75*
G02*
X167109000Y-93705000I150000J0D01*
G01*
G37*
G36*
G01*
X165839000Y-93705000D02*
X166139000Y-93705000D01*
G75*
G02*
X166289000Y-93855000I0J-150000D01*
G01*
X166289000Y-95505000D01*
G75*
G02*
X166139000Y-95655000I-150000J0D01*
G01*
X165839000Y-95655000D01*
G75*
G02*
X165689000Y-95505000I0J150000D01*
G01*
X165689000Y-93855000D01*
G75*
G02*
X165839000Y-93705000I150000J0D01*
G01*
G37*
G36*
G01*
X165839000Y-98655000D02*
X166139000Y-98655000D01*
G75*
G02*
X166289000Y-98805000I0J-150000D01*
G01*
X166289000Y-100455000D01*
G75*
G02*
X166139000Y-100605000I-150000J0D01*
G01*
X165839000Y-100605000D01*
G75*
G02*
X165689000Y-100455000I0J150000D01*
G01*
X165689000Y-98805000D01*
G75*
G02*
X165839000Y-98655000I150000J0D01*
G01*
G37*
G36*
G01*
X167109000Y-98655000D02*
X167409000Y-98655000D01*
G75*
G02*
X167559000Y-98805000I0J-150000D01*
G01*
X167559000Y-100455000D01*
G75*
G02*
X167409000Y-100605000I-150000J0D01*
G01*
X167109000Y-100605000D01*
G75*
G02*
X166959000Y-100455000I0J150000D01*
G01*
X166959000Y-98805000D01*
G75*
G02*
X167109000Y-98655000I150000J0D01*
G01*
G37*
G36*
G01*
X168379000Y-98655000D02*
X168679000Y-98655000D01*
G75*
G02*
X168829000Y-98805000I0J-150000D01*
G01*
X168829000Y-100455000D01*
G75*
G02*
X168679000Y-100605000I-150000J0D01*
G01*
X168379000Y-100605000D01*
G75*
G02*
X168229000Y-100455000I0J150000D01*
G01*
X168229000Y-98805000D01*
G75*
G02*
X168379000Y-98655000I150000J0D01*
G01*
G37*
G36*
G01*
X169649000Y-98655000D02*
X169949000Y-98655000D01*
G75*
G02*
X170099000Y-98805000I0J-150000D01*
G01*
X170099000Y-100455000D01*
G75*
G02*
X169949000Y-100605000I-150000J0D01*
G01*
X169649000Y-100605000D01*
G75*
G02*
X169499000Y-100455000I0J150000D01*
G01*
X169499000Y-98805000D01*
G75*
G02*
X169649000Y-98655000I150000J0D01*
G01*
G37*
G36*
G01*
X170919000Y-98655000D02*
X171219000Y-98655000D01*
G75*
G02*
X171369000Y-98805000I0J-150000D01*
G01*
X171369000Y-100455000D01*
G75*
G02*
X171219000Y-100605000I-150000J0D01*
G01*
X170919000Y-100605000D01*
G75*
G02*
X170769000Y-100455000I0J150000D01*
G01*
X170769000Y-98805000D01*
G75*
G02*
X170919000Y-98655000I150000J0D01*
G01*
G37*
G36*
G01*
X172189000Y-98655000D02*
X172489000Y-98655000D01*
G75*
G02*
X172639000Y-98805000I0J-150000D01*
G01*
X172639000Y-100455000D01*
G75*
G02*
X172489000Y-100605000I-150000J0D01*
G01*
X172189000Y-100605000D01*
G75*
G02*
X172039000Y-100455000I0J150000D01*
G01*
X172039000Y-98805000D01*
G75*
G02*
X172189000Y-98655000I150000J0D01*
G01*
G37*
G36*
G01*
X173459000Y-98655000D02*
X173759000Y-98655000D01*
G75*
G02*
X173909000Y-98805000I0J-150000D01*
G01*
X173909000Y-100455000D01*
G75*
G02*
X173759000Y-100605000I-150000J0D01*
G01*
X173459000Y-100605000D01*
G75*
G02*
X173309000Y-100455000I0J150000D01*
G01*
X173309000Y-98805000D01*
G75*
G02*
X173459000Y-98655000I150000J0D01*
G01*
G37*
%TD*%
%TO.C,R19*%
G36*
G01*
X167532000Y-91255002D02*
X167532000Y-90354998D01*
G75*
G02*
X167781998Y-90105000I249998J0D01*
G01*
X168307002Y-90105000D01*
G75*
G02*
X168557000Y-90354998I0J-249998D01*
G01*
X168557000Y-91255002D01*
G75*
G02*
X168307002Y-91505000I-249998J0D01*
G01*
X167781998Y-91505000D01*
G75*
G02*
X167532000Y-91255002I0J249998D01*
G01*
G37*
G36*
G01*
X165707000Y-91255002D02*
X165707000Y-90354998D01*
G75*
G02*
X165956998Y-90105000I249998J0D01*
G01*
X166482002Y-90105000D01*
G75*
G02*
X166732000Y-90354998I0J-249998D01*
G01*
X166732000Y-91255002D01*
G75*
G02*
X166482002Y-91505000I-249998J0D01*
G01*
X165956998Y-91505000D01*
G75*
G02*
X165707000Y-91255002I0J249998D01*
G01*
G37*
%TD*%
%TO.C,U7*%
G36*
G01*
X185905000Y-97515000D02*
X186205000Y-97515000D01*
G75*
G02*
X186355000Y-97665000I0J-150000D01*
G01*
X186355000Y-99315000D01*
G75*
G02*
X186205000Y-99465000I-150000J0D01*
G01*
X185905000Y-99465000D01*
G75*
G02*
X185755000Y-99315000I0J150000D01*
G01*
X185755000Y-97665000D01*
G75*
G02*
X185905000Y-97515000I150000J0D01*
G01*
G37*
G36*
G01*
X184635000Y-97515000D02*
X184935000Y-97515000D01*
G75*
G02*
X185085000Y-97665000I0J-150000D01*
G01*
X185085000Y-99315000D01*
G75*
G02*
X184935000Y-99465000I-150000J0D01*
G01*
X184635000Y-99465000D01*
G75*
G02*
X184485000Y-99315000I0J150000D01*
G01*
X184485000Y-97665000D01*
G75*
G02*
X184635000Y-97515000I150000J0D01*
G01*
G37*
G36*
G01*
X183365000Y-97515000D02*
X183665000Y-97515000D01*
G75*
G02*
X183815000Y-97665000I0J-150000D01*
G01*
X183815000Y-99315000D01*
G75*
G02*
X183665000Y-99465000I-150000J0D01*
G01*
X183365000Y-99465000D01*
G75*
G02*
X183215000Y-99315000I0J150000D01*
G01*
X183215000Y-97665000D01*
G75*
G02*
X183365000Y-97515000I150000J0D01*
G01*
G37*
G36*
G01*
X182095000Y-97515000D02*
X182395000Y-97515000D01*
G75*
G02*
X182545000Y-97665000I0J-150000D01*
G01*
X182545000Y-99315000D01*
G75*
G02*
X182395000Y-99465000I-150000J0D01*
G01*
X182095000Y-99465000D01*
G75*
G02*
X181945000Y-99315000I0J150000D01*
G01*
X181945000Y-97665000D01*
G75*
G02*
X182095000Y-97515000I150000J0D01*
G01*
G37*
G36*
G01*
X182095000Y-102465000D02*
X182395000Y-102465000D01*
G75*
G02*
X182545000Y-102615000I0J-150000D01*
G01*
X182545000Y-104265000D01*
G75*
G02*
X182395000Y-104415000I-150000J0D01*
G01*
X182095000Y-104415000D01*
G75*
G02*
X181945000Y-104265000I0J150000D01*
G01*
X181945000Y-102615000D01*
G75*
G02*
X182095000Y-102465000I150000J0D01*
G01*
G37*
G36*
G01*
X183365000Y-102465000D02*
X183665000Y-102465000D01*
G75*
G02*
X183815000Y-102615000I0J-150000D01*
G01*
X183815000Y-104265000D01*
G75*
G02*
X183665000Y-104415000I-150000J0D01*
G01*
X183365000Y-104415000D01*
G75*
G02*
X183215000Y-104265000I0J150000D01*
G01*
X183215000Y-102615000D01*
G75*
G02*
X183365000Y-102465000I150000J0D01*
G01*
G37*
G36*
G01*
X184635000Y-102465000D02*
X184935000Y-102465000D01*
G75*
G02*
X185085000Y-102615000I0J-150000D01*
G01*
X185085000Y-104265000D01*
G75*
G02*
X184935000Y-104415000I-150000J0D01*
G01*
X184635000Y-104415000D01*
G75*
G02*
X184485000Y-104265000I0J150000D01*
G01*
X184485000Y-102615000D01*
G75*
G02*
X184635000Y-102465000I150000J0D01*
G01*
G37*
G36*
G01*
X185905000Y-102465000D02*
X186205000Y-102465000D01*
G75*
G02*
X186355000Y-102615000I0J-150000D01*
G01*
X186355000Y-104265000D01*
G75*
G02*
X186205000Y-104415000I-150000J0D01*
G01*
X185905000Y-104415000D01*
G75*
G02*
X185755000Y-104265000I0J150000D01*
G01*
X185755000Y-102615000D01*
G75*
G02*
X185905000Y-102465000I150000J0D01*
G01*
G37*
%TD*%
D18*
%TO.C,D2*%
X185896000Y-93218000D03*
X181896000Y-93218000D03*
%TD*%
%TO.C,R18*%
G36*
G01*
X190315000Y-99008250D02*
X190315000Y-98095750D01*
G75*
G02*
X190558750Y-97852000I243750J0D01*
G01*
X191046250Y-97852000D01*
G75*
G02*
X191290000Y-98095750I0J-243750D01*
G01*
X191290000Y-99008250D01*
G75*
G02*
X191046250Y-99252000I-243750J0D01*
G01*
X190558750Y-99252000D01*
G75*
G02*
X190315000Y-99008250I0J243750D01*
G01*
G37*
G36*
G01*
X188440000Y-99008250D02*
X188440000Y-98095750D01*
G75*
G02*
X188683750Y-97852000I243750J0D01*
G01*
X189171250Y-97852000D01*
G75*
G02*
X189415000Y-98095750I0J-243750D01*
G01*
X189415000Y-99008250D01*
G75*
G02*
X189171250Y-99252000I-243750J0D01*
G01*
X188683750Y-99252000D01*
G75*
G02*
X188440000Y-99008250I0J243750D01*
G01*
G37*
%TD*%
%TO.C,R17*%
G36*
G01*
X188011750Y-105352000D02*
X188924250Y-105352000D01*
G75*
G02*
X189168000Y-105595750I0J-243750D01*
G01*
X189168000Y-106083250D01*
G75*
G02*
X188924250Y-106327000I-243750J0D01*
G01*
X188011750Y-106327000D01*
G75*
G02*
X187768000Y-106083250I0J243750D01*
G01*
X187768000Y-105595750D01*
G75*
G02*
X188011750Y-105352000I243750J0D01*
G01*
G37*
G36*
G01*
X188011750Y-103477000D02*
X188924250Y-103477000D01*
G75*
G02*
X189168000Y-103720750I0J-243750D01*
G01*
X189168000Y-104208250D01*
G75*
G02*
X188924250Y-104452000I-243750J0D01*
G01*
X188011750Y-104452000D01*
G75*
G02*
X187768000Y-104208250I0J243750D01*
G01*
X187768000Y-103720750D01*
G75*
G02*
X188011750Y-103477000I243750J0D01*
G01*
G37*
%TD*%
%TO.C,R16*%
G36*
G01*
X190315000Y-85546250D02*
X190315000Y-84633750D01*
G75*
G02*
X190558750Y-84390000I243750J0D01*
G01*
X191046250Y-84390000D01*
G75*
G02*
X191290000Y-84633750I0J-243750D01*
G01*
X191290000Y-85546250D01*
G75*
G02*
X191046250Y-85790000I-243750J0D01*
G01*
X190558750Y-85790000D01*
G75*
G02*
X190315000Y-85546250I0J243750D01*
G01*
G37*
G36*
G01*
X188440000Y-85546250D02*
X188440000Y-84633750D01*
G75*
G02*
X188683750Y-84390000I243750J0D01*
G01*
X189171250Y-84390000D01*
G75*
G02*
X189415000Y-84633750I0J-243750D01*
G01*
X189415000Y-85546250D01*
G75*
G02*
X189171250Y-85790000I-243750J0D01*
G01*
X188683750Y-85790000D01*
G75*
G02*
X188440000Y-85546250I0J243750D01*
G01*
G37*
%TD*%
%TO.C,R15*%
G36*
G01*
X188011750Y-92065500D02*
X188924250Y-92065500D01*
G75*
G02*
X189168000Y-92309250I0J-243750D01*
G01*
X189168000Y-92796750D01*
G75*
G02*
X188924250Y-93040500I-243750J0D01*
G01*
X188011750Y-93040500D01*
G75*
G02*
X187768000Y-92796750I0J243750D01*
G01*
X187768000Y-92309250D01*
G75*
G02*
X188011750Y-92065500I243750J0D01*
G01*
G37*
G36*
G01*
X188011750Y-90190500D02*
X188924250Y-90190500D01*
G75*
G02*
X189168000Y-90434250I0J-243750D01*
G01*
X189168000Y-90921750D01*
G75*
G02*
X188924250Y-91165500I-243750J0D01*
G01*
X188011750Y-91165500D01*
G75*
G02*
X187768000Y-90921750I0J243750D01*
G01*
X187768000Y-90434250D01*
G75*
G02*
X188011750Y-90190500I243750J0D01*
G01*
G37*
%TD*%
%TO.C,R14*%
G36*
G01*
X190315000Y-72211250D02*
X190315000Y-71298750D01*
G75*
G02*
X190558750Y-71055000I243750J0D01*
G01*
X191046250Y-71055000D01*
G75*
G02*
X191290000Y-71298750I0J-243750D01*
G01*
X191290000Y-72211250D01*
G75*
G02*
X191046250Y-72455000I-243750J0D01*
G01*
X190558750Y-72455000D01*
G75*
G02*
X190315000Y-72211250I0J243750D01*
G01*
G37*
G36*
G01*
X188440000Y-72211250D02*
X188440000Y-71298750D01*
G75*
G02*
X188683750Y-71055000I243750J0D01*
G01*
X189171250Y-71055000D01*
G75*
G02*
X189415000Y-71298750I0J-243750D01*
G01*
X189415000Y-72211250D01*
G75*
G02*
X189171250Y-72455000I-243750J0D01*
G01*
X188683750Y-72455000D01*
G75*
G02*
X188440000Y-72211250I0J243750D01*
G01*
G37*
%TD*%
%TO.C,R13*%
G36*
G01*
X188011750Y-78760500D02*
X188924250Y-78760500D01*
G75*
G02*
X189168000Y-79004250I0J-243750D01*
G01*
X189168000Y-79491750D01*
G75*
G02*
X188924250Y-79735500I-243750J0D01*
G01*
X188011750Y-79735500D01*
G75*
G02*
X187768000Y-79491750I0J243750D01*
G01*
X187768000Y-79004250D01*
G75*
G02*
X188011750Y-78760500I243750J0D01*
G01*
G37*
G36*
G01*
X188011750Y-76885500D02*
X188924250Y-76885500D01*
G75*
G02*
X189168000Y-77129250I0J-243750D01*
G01*
X189168000Y-77616750D01*
G75*
G02*
X188924250Y-77860500I-243750J0D01*
G01*
X188011750Y-77860500D01*
G75*
G02*
X187768000Y-77616750I0J243750D01*
G01*
X187768000Y-77129250D01*
G75*
G02*
X188011750Y-76885500I243750J0D01*
G01*
G37*
%TD*%
%TO.C,R12*%
G36*
G01*
X145490250Y-98864000D02*
X144577750Y-98864000D01*
G75*
G02*
X144334000Y-98620250I0J243750D01*
G01*
X144334000Y-98132750D01*
G75*
G02*
X144577750Y-97889000I243750J0D01*
G01*
X145490250Y-97889000D01*
G75*
G02*
X145734000Y-98132750I0J-243750D01*
G01*
X145734000Y-98620250D01*
G75*
G02*
X145490250Y-98864000I-243750J0D01*
G01*
G37*
G36*
G01*
X145490250Y-100739000D02*
X144577750Y-100739000D01*
G75*
G02*
X144334000Y-100495250I0J243750D01*
G01*
X144334000Y-100007750D01*
G75*
G02*
X144577750Y-99764000I243750J0D01*
G01*
X145490250Y-99764000D01*
G75*
G02*
X145734000Y-100007750I0J-243750D01*
G01*
X145734000Y-100495250D01*
G75*
G02*
X145490250Y-100739000I-243750J0D01*
G01*
G37*
%TD*%
%TO.C,R11*%
G36*
G01*
X152204000Y-88570750D02*
X152204000Y-89483250D01*
G75*
G02*
X151960250Y-89727000I-243750J0D01*
G01*
X151472750Y-89727000D01*
G75*
G02*
X151229000Y-89483250I0J243750D01*
G01*
X151229000Y-88570750D01*
G75*
G02*
X151472750Y-88327000I243750J0D01*
G01*
X151960250Y-88327000D01*
G75*
G02*
X152204000Y-88570750I0J-243750D01*
G01*
G37*
G36*
G01*
X154079000Y-88570750D02*
X154079000Y-89483250D01*
G75*
G02*
X153835250Y-89727000I-243750J0D01*
G01*
X153347750Y-89727000D01*
G75*
G02*
X153104000Y-89483250I0J243750D01*
G01*
X153104000Y-88570750D01*
G75*
G02*
X153347750Y-88327000I243750J0D01*
G01*
X153835250Y-88327000D01*
G75*
G02*
X154079000Y-88570750I0J-243750D01*
G01*
G37*
%TD*%
%TO.C,R10*%
G36*
G01*
X142298000Y-91364750D02*
X142298000Y-92277250D01*
G75*
G02*
X142054250Y-92521000I-243750J0D01*
G01*
X141566750Y-92521000D01*
G75*
G02*
X141323000Y-92277250I0J243750D01*
G01*
X141323000Y-91364750D01*
G75*
G02*
X141566750Y-91121000I243750J0D01*
G01*
X142054250Y-91121000D01*
G75*
G02*
X142298000Y-91364750I0J-243750D01*
G01*
G37*
G36*
G01*
X144173000Y-91364750D02*
X144173000Y-92277250D01*
G75*
G02*
X143929250Y-92521000I-243750J0D01*
G01*
X143441750Y-92521000D01*
G75*
G02*
X143198000Y-92277250I0J243750D01*
G01*
X143198000Y-91364750D01*
G75*
G02*
X143441750Y-91121000I243750J0D01*
G01*
X143929250Y-91121000D01*
G75*
G02*
X144173000Y-91364750I0J-243750D01*
G01*
G37*
%TD*%
%TO.C,C19*%
G36*
G01*
X144173000Y-89332750D02*
X144173000Y-90245250D01*
G75*
G02*
X143929250Y-90489000I-243750J0D01*
G01*
X143441750Y-90489000D01*
G75*
G02*
X143198000Y-90245250I0J243750D01*
G01*
X143198000Y-89332750D01*
G75*
G02*
X143441750Y-89089000I243750J0D01*
G01*
X143929250Y-89089000D01*
G75*
G02*
X144173000Y-89332750I0J-243750D01*
G01*
G37*
G36*
G01*
X142298000Y-89332750D02*
X142298000Y-90245250D01*
G75*
G02*
X142054250Y-90489000I-243750J0D01*
G01*
X141566750Y-90489000D01*
G75*
G02*
X141323000Y-90245250I0J243750D01*
G01*
X141323000Y-89332750D01*
G75*
G02*
X141566750Y-89089000I243750J0D01*
G01*
X142054250Y-89089000D01*
G75*
G02*
X142298000Y-89332750I0J-243750D01*
G01*
G37*
%TD*%
%TO.C,C3*%
G36*
G01*
X175970250Y-75417500D02*
X175057750Y-75417500D01*
G75*
G02*
X174814000Y-75173750I0J243750D01*
G01*
X174814000Y-74686250D01*
G75*
G02*
X175057750Y-74442500I243750J0D01*
G01*
X175970250Y-74442500D01*
G75*
G02*
X176214000Y-74686250I0J-243750D01*
G01*
X176214000Y-75173750D01*
G75*
G02*
X175970250Y-75417500I-243750J0D01*
G01*
G37*
G36*
G01*
X175970250Y-77292500D02*
X175057750Y-77292500D01*
G75*
G02*
X174814000Y-77048750I0J243750D01*
G01*
X174814000Y-76561250D01*
G75*
G02*
X175057750Y-76317500I243750J0D01*
G01*
X175970250Y-76317500D01*
G75*
G02*
X176214000Y-76561250I0J-243750D01*
G01*
X176214000Y-77048750D01*
G75*
G02*
X175970250Y-77292500I-243750J0D01*
G01*
G37*
%TD*%
%TO.C,C11*%
G36*
G01*
X191379000Y-104635000D02*
X190129000Y-104635000D01*
G75*
G02*
X189879000Y-104385000I0J250000D01*
G01*
X189879000Y-103635000D01*
G75*
G02*
X190129000Y-103385000I250000J0D01*
G01*
X191379000Y-103385000D01*
G75*
G02*
X191629000Y-103635000I0J-250000D01*
G01*
X191629000Y-104385000D01*
G75*
G02*
X191379000Y-104635000I-250000J0D01*
G01*
G37*
G36*
G01*
X191379000Y-107435000D02*
X190129000Y-107435000D01*
G75*
G02*
X189879000Y-107185000I0J250000D01*
G01*
X189879000Y-106435000D01*
G75*
G02*
X190129000Y-106185000I250000J0D01*
G01*
X191379000Y-106185000D01*
G75*
G02*
X191629000Y-106435000I0J-250000D01*
G01*
X191629000Y-107185000D01*
G75*
G02*
X191379000Y-107435000I-250000J0D01*
G01*
G37*
%TD*%
D19*
%TO.C,H4*%
X186690000Y-113030000D03*
%TD*%
%TO.C,H3*%
X186690000Y-66040000D03*
%TD*%
%TO.C,H2*%
X145923000Y-113030000D03*
%TD*%
%TO.C,H1*%
X145923000Y-66040000D03*
%TD*%
D15*
%TO.C,Q1*%
X156210000Y-87106000D03*
X155260000Y-85106000D03*
X157160000Y-85106000D03*
%TD*%
%TO.C,C2*%
G36*
G01*
X175970250Y-87482500D02*
X175057750Y-87482500D01*
G75*
G02*
X174814000Y-87238750I0J243750D01*
G01*
X174814000Y-86751250D01*
G75*
G02*
X175057750Y-86507500I243750J0D01*
G01*
X175970250Y-86507500D01*
G75*
G02*
X176214000Y-86751250I0J-243750D01*
G01*
X176214000Y-87238750D01*
G75*
G02*
X175970250Y-87482500I-243750J0D01*
G01*
G37*
G36*
G01*
X175970250Y-85607500D02*
X175057750Y-85607500D01*
G75*
G02*
X174814000Y-85363750I0J243750D01*
G01*
X174814000Y-84876250D01*
G75*
G02*
X175057750Y-84632500I243750J0D01*
G01*
X175970250Y-84632500D01*
G75*
G02*
X176214000Y-84876250I0J-243750D01*
G01*
X176214000Y-85363750D01*
G75*
G02*
X175970250Y-85607500I-243750J0D01*
G01*
G37*
%TD*%
%TO.C,C4*%
G36*
G01*
X175970250Y-100182500D02*
X175057750Y-100182500D01*
G75*
G02*
X174814000Y-99938750I0J243750D01*
G01*
X174814000Y-99451250D01*
G75*
G02*
X175057750Y-99207500I243750J0D01*
G01*
X175970250Y-99207500D01*
G75*
G02*
X176214000Y-99451250I0J-243750D01*
G01*
X176214000Y-99938750D01*
G75*
G02*
X175970250Y-100182500I-243750J0D01*
G01*
G37*
G36*
G01*
X175970250Y-98307500D02*
X175057750Y-98307500D01*
G75*
G02*
X174814000Y-98063750I0J243750D01*
G01*
X174814000Y-97576250D01*
G75*
G02*
X175057750Y-97332500I243750J0D01*
G01*
X175970250Y-97332500D01*
G75*
G02*
X176214000Y-97576250I0J-243750D01*
G01*
X176214000Y-98063750D01*
G75*
G02*
X175970250Y-98307500I-243750J0D01*
G01*
G37*
%TD*%
%TO.C,C5*%
G36*
G01*
X175970250Y-111007500D02*
X175057750Y-111007500D01*
G75*
G02*
X174814000Y-110763750I0J243750D01*
G01*
X174814000Y-110276250D01*
G75*
G02*
X175057750Y-110032500I243750J0D01*
G01*
X175970250Y-110032500D01*
G75*
G02*
X176214000Y-110276250I0J-243750D01*
G01*
X176214000Y-110763750D01*
G75*
G02*
X175970250Y-111007500I-243750J0D01*
G01*
G37*
G36*
G01*
X175970250Y-112882500D02*
X175057750Y-112882500D01*
G75*
G02*
X174814000Y-112638750I0J243750D01*
G01*
X174814000Y-112151250D01*
G75*
G02*
X175057750Y-111907500I243750J0D01*
G01*
X175970250Y-111907500D01*
G75*
G02*
X176214000Y-112151250I0J-243750D01*
G01*
X176214000Y-112638750D01*
G75*
G02*
X175970250Y-112882500I-243750J0D01*
G01*
G37*
%TD*%
%TO.C,C6*%
G36*
G01*
X180711000Y-77717000D02*
X179461000Y-77717000D01*
G75*
G02*
X179211000Y-77467000I0J250000D01*
G01*
X179211000Y-76717000D01*
G75*
G02*
X179461000Y-76467000I250000J0D01*
G01*
X180711000Y-76467000D01*
G75*
G02*
X180961000Y-76717000I0J-250000D01*
G01*
X180961000Y-77467000D01*
G75*
G02*
X180711000Y-77717000I-250000J0D01*
G01*
G37*
G36*
G01*
X180711000Y-74917000D02*
X179461000Y-74917000D01*
G75*
G02*
X179211000Y-74667000I0J250000D01*
G01*
X179211000Y-73917000D01*
G75*
G02*
X179461000Y-73667000I250000J0D01*
G01*
X180711000Y-73667000D01*
G75*
G02*
X180961000Y-73917000I0J-250000D01*
G01*
X180961000Y-74667000D01*
G75*
G02*
X180711000Y-74917000I-250000J0D01*
G01*
G37*
%TD*%
%TO.C,C7*%
G36*
G01*
X180711000Y-91049000D02*
X179461000Y-91049000D01*
G75*
G02*
X179211000Y-90799000I0J250000D01*
G01*
X179211000Y-90049000D01*
G75*
G02*
X179461000Y-89799000I250000J0D01*
G01*
X180711000Y-89799000D01*
G75*
G02*
X180961000Y-90049000I0J-250000D01*
G01*
X180961000Y-90799000D01*
G75*
G02*
X180711000Y-91049000I-250000J0D01*
G01*
G37*
G36*
G01*
X180711000Y-88249000D02*
X179461000Y-88249000D01*
G75*
G02*
X179211000Y-87999000I0J250000D01*
G01*
X179211000Y-87249000D01*
G75*
G02*
X179461000Y-86999000I250000J0D01*
G01*
X180711000Y-86999000D01*
G75*
G02*
X180961000Y-87249000I0J-250000D01*
G01*
X180961000Y-87999000D01*
G75*
G02*
X180711000Y-88249000I-250000J0D01*
G01*
G37*
%TD*%
%TO.C,C8*%
G36*
G01*
X180711000Y-104257000D02*
X179461000Y-104257000D01*
G75*
G02*
X179211000Y-104007000I0J250000D01*
G01*
X179211000Y-103257000D01*
G75*
G02*
X179461000Y-103007000I250000J0D01*
G01*
X180711000Y-103007000D01*
G75*
G02*
X180961000Y-103257000I0J-250000D01*
G01*
X180961000Y-104007000D01*
G75*
G02*
X180711000Y-104257000I-250000J0D01*
G01*
G37*
G36*
G01*
X180711000Y-101457000D02*
X179461000Y-101457000D01*
G75*
G02*
X179211000Y-101207000I0J250000D01*
G01*
X179211000Y-100457000D01*
G75*
G02*
X179461000Y-100207000I250000J0D01*
G01*
X180711000Y-100207000D01*
G75*
G02*
X180961000Y-100457000I0J-250000D01*
G01*
X180961000Y-101207000D01*
G75*
G02*
X180711000Y-101457000I-250000J0D01*
G01*
G37*
%TD*%
%TO.C,C9*%
G36*
G01*
X191379000Y-78089000D02*
X190129000Y-78089000D01*
G75*
G02*
X189879000Y-77839000I0J250000D01*
G01*
X189879000Y-77089000D01*
G75*
G02*
X190129000Y-76839000I250000J0D01*
G01*
X191379000Y-76839000D01*
G75*
G02*
X191629000Y-77089000I0J-250000D01*
G01*
X191629000Y-77839000D01*
G75*
G02*
X191379000Y-78089000I-250000J0D01*
G01*
G37*
G36*
G01*
X191379000Y-80889000D02*
X190129000Y-80889000D01*
G75*
G02*
X189879000Y-80639000I0J250000D01*
G01*
X189879000Y-79889000D01*
G75*
G02*
X190129000Y-79639000I250000J0D01*
G01*
X191379000Y-79639000D01*
G75*
G02*
X191629000Y-79889000I0J-250000D01*
G01*
X191629000Y-80639000D01*
G75*
G02*
X191379000Y-80889000I-250000J0D01*
G01*
G37*
%TD*%
%TO.C,C10*%
G36*
G01*
X191379000Y-94100000D02*
X190129000Y-94100000D01*
G75*
G02*
X189879000Y-93850000I0J250000D01*
G01*
X189879000Y-93100000D01*
G75*
G02*
X190129000Y-92850000I250000J0D01*
G01*
X191379000Y-92850000D01*
G75*
G02*
X191629000Y-93100000I0J-250000D01*
G01*
X191629000Y-93850000D01*
G75*
G02*
X191379000Y-94100000I-250000J0D01*
G01*
G37*
G36*
G01*
X191379000Y-91300000D02*
X190129000Y-91300000D01*
G75*
G02*
X189879000Y-91050000I0J250000D01*
G01*
X189879000Y-90300000D01*
G75*
G02*
X190129000Y-90050000I250000J0D01*
G01*
X191379000Y-90050000D01*
G75*
G02*
X191629000Y-90300000I0J-250000D01*
G01*
X191629000Y-91050000D01*
G75*
G02*
X191379000Y-91300000I-250000J0D01*
G01*
G37*
%TD*%
%TO.C,C1*%
G36*
G01*
X168968000Y-101778750D02*
X168968000Y-102691250D01*
G75*
G02*
X168724250Y-102935000I-243750J0D01*
G01*
X168236750Y-102935000D01*
G75*
G02*
X167993000Y-102691250I0J243750D01*
G01*
X167993000Y-101778750D01*
G75*
G02*
X168236750Y-101535000I243750J0D01*
G01*
X168724250Y-101535000D01*
G75*
G02*
X168968000Y-101778750I0J-243750D01*
G01*
G37*
G36*
G01*
X170843000Y-101778750D02*
X170843000Y-102691250D01*
G75*
G02*
X170599250Y-102935000I-243750J0D01*
G01*
X170111750Y-102935000D01*
G75*
G02*
X169868000Y-102691250I0J243750D01*
G01*
X169868000Y-101778750D01*
G75*
G02*
X170111750Y-101535000I243750J0D01*
G01*
X170599250Y-101535000D01*
G75*
G02*
X170843000Y-101778750I0J-243750D01*
G01*
G37*
%TD*%
%TO.C,C13*%
G36*
G01*
X141869000Y-76343000D02*
X143119000Y-76343000D01*
G75*
G02*
X143369000Y-76593000I0J-250000D01*
G01*
X143369000Y-77343000D01*
G75*
G02*
X143119000Y-77593000I-250000J0D01*
G01*
X141869000Y-77593000D01*
G75*
G02*
X141619000Y-77343000I0J250000D01*
G01*
X141619000Y-76593000D01*
G75*
G02*
X141869000Y-76343000I250000J0D01*
G01*
G37*
G36*
G01*
X141869000Y-73543000D02*
X143119000Y-73543000D01*
G75*
G02*
X143369000Y-73793000I0J-250000D01*
G01*
X143369000Y-74543000D01*
G75*
G02*
X143119000Y-74793000I-250000J0D01*
G01*
X141869000Y-74793000D01*
G75*
G02*
X141619000Y-74543000I0J250000D01*
G01*
X141619000Y-73793000D01*
G75*
G02*
X141869000Y-73543000I250000J0D01*
G01*
G37*
%TD*%
%TO.C,C15*%
G36*
G01*
X160648000Y-70114000D02*
X160648000Y-71364000D01*
G75*
G02*
X160398000Y-71614000I-250000J0D01*
G01*
X159648000Y-71614000D01*
G75*
G02*
X159398000Y-71364000I0J250000D01*
G01*
X159398000Y-70114000D01*
G75*
G02*
X159648000Y-69864000I250000J0D01*
G01*
X160398000Y-69864000D01*
G75*
G02*
X160648000Y-70114000I0J-250000D01*
G01*
G37*
G36*
G01*
X157848000Y-70114000D02*
X157848000Y-71364000D01*
G75*
G02*
X157598000Y-71614000I-250000J0D01*
G01*
X156848000Y-71614000D01*
G75*
G02*
X156598000Y-71364000I0J250000D01*
G01*
X156598000Y-70114000D01*
G75*
G02*
X156848000Y-69864000I250000J0D01*
G01*
X157598000Y-69864000D01*
G75*
G02*
X157848000Y-70114000I0J-250000D01*
G01*
G37*
%TD*%
%TO.C,C16*%
G36*
G01*
X152197750Y-90396000D02*
X153110250Y-90396000D01*
G75*
G02*
X153354000Y-90639750I0J-243750D01*
G01*
X153354000Y-91127250D01*
G75*
G02*
X153110250Y-91371000I-243750J0D01*
G01*
X152197750Y-91371000D01*
G75*
G02*
X151954000Y-91127250I0J243750D01*
G01*
X151954000Y-90639750D01*
G75*
G02*
X152197750Y-90396000I243750J0D01*
G01*
G37*
G36*
G01*
X152197750Y-92271000D02*
X153110250Y-92271000D01*
G75*
G02*
X153354000Y-92514750I0J-243750D01*
G01*
X153354000Y-93002250D01*
G75*
G02*
X153110250Y-93246000I-243750J0D01*
G01*
X152197750Y-93246000D01*
G75*
G02*
X151954000Y-93002250I0J243750D01*
G01*
X151954000Y-92514750D01*
G75*
G02*
X152197750Y-92271000I243750J0D01*
G01*
G37*
%TD*%
%TO.C,C17*%
G36*
G01*
X142442250Y-95308000D02*
X141529750Y-95308000D01*
G75*
G02*
X141286000Y-95064250I0J243750D01*
G01*
X141286000Y-94576750D01*
G75*
G02*
X141529750Y-94333000I243750J0D01*
G01*
X142442250Y-94333000D01*
G75*
G02*
X142686000Y-94576750I0J-243750D01*
G01*
X142686000Y-95064250D01*
G75*
G02*
X142442250Y-95308000I-243750J0D01*
G01*
G37*
G36*
G01*
X142442250Y-97183000D02*
X141529750Y-97183000D01*
G75*
G02*
X141286000Y-96939250I0J243750D01*
G01*
X141286000Y-96451750D01*
G75*
G02*
X141529750Y-96208000I243750J0D01*
G01*
X142442250Y-96208000D01*
G75*
G02*
X142686000Y-96451750I0J-243750D01*
G01*
X142686000Y-96939250D01*
G75*
G02*
X142442250Y-97183000I-243750J0D01*
G01*
G37*
%TD*%
D18*
%TO.C,D1*%
X185896000Y-80010000D03*
X181896000Y-80010000D03*
%TD*%
%TO.C,D3*%
X181642000Y-107188000D03*
X185642000Y-107188000D03*
%TD*%
%TO.C,D4*%
G36*
G01*
X166396000Y-68472001D02*
X166396000Y-67671999D01*
G75*
G02*
X166645999Y-67422000I249999J0D01*
G01*
X167471001Y-67422000D01*
G75*
G02*
X167721000Y-67671999I0J-249999D01*
G01*
X167721000Y-68472001D01*
G75*
G02*
X167471001Y-68722000I-249999J0D01*
G01*
X166645999Y-68722000D01*
G75*
G02*
X166396000Y-68472001I0J249999D01*
G01*
G37*
G36*
G01*
X168321000Y-68472001D02*
X168321000Y-67671999D01*
G75*
G02*
X168570999Y-67422000I249999J0D01*
G01*
X169396001Y-67422000D01*
G75*
G02*
X169646000Y-67671999I0J-249999D01*
G01*
X169646000Y-68472001D01*
G75*
G02*
X169396001Y-68722000I-249999J0D01*
G01*
X168570999Y-68722000D01*
G75*
G02*
X168321000Y-68472001I0J249999D01*
G01*
G37*
%TD*%
%TO.C,D5*%
G36*
G01*
X156309500Y-68472001D02*
X156309500Y-67671999D01*
G75*
G02*
X156559499Y-67422000I249999J0D01*
G01*
X157384501Y-67422000D01*
G75*
G02*
X157634500Y-67671999I0J-249999D01*
G01*
X157634500Y-68472001D01*
G75*
G02*
X157384501Y-68722000I-249999J0D01*
G01*
X156559499Y-68722000D01*
G75*
G02*
X156309500Y-68472001I0J249999D01*
G01*
G37*
G36*
G01*
X154384500Y-68472001D02*
X154384500Y-67671999D01*
G75*
G02*
X154634499Y-67422000I249999J0D01*
G01*
X155459501Y-67422000D01*
G75*
G02*
X155709500Y-67671999I0J-249999D01*
G01*
X155709500Y-68472001D01*
G75*
G02*
X155459501Y-68722000I-249999J0D01*
G01*
X154634499Y-68722000D01*
G75*
G02*
X154384500Y-68472001I0J249999D01*
G01*
G37*
%TD*%
%TO.C,J2*%
G36*
G01*
X198400000Y-109840000D02*
X195300000Y-109840000D01*
G75*
G02*
X195050000Y-109590000I0J250000D01*
G01*
X195050000Y-108290000D01*
G75*
G02*
X195300000Y-108040000I250000J0D01*
G01*
X198400000Y-108040000D01*
G75*
G02*
X198650000Y-108290000I0J-250000D01*
G01*
X198650000Y-109590000D01*
G75*
G02*
X198400000Y-109840000I-250000J0D01*
G01*
G37*
D12*
X196850000Y-105440000D03*
X196850000Y-101940000D03*
X196850000Y-98440000D03*
X196850000Y-94940000D03*
X196850000Y-91440000D03*
X196850000Y-87940000D03*
X196850000Y-84440000D03*
X196850000Y-80940000D03*
X196850000Y-77440000D03*
X196850000Y-73940000D03*
X196850000Y-70440000D03*
D11*
X196850000Y-113240000D03*
X196850000Y-66140000D03*
%TD*%
%TO.C,R1*%
G36*
G01*
X173424000Y-102691250D02*
X173424000Y-101778750D01*
G75*
G02*
X173667750Y-101535000I243750J0D01*
G01*
X174155250Y-101535000D01*
G75*
G02*
X174399000Y-101778750I0J-243750D01*
G01*
X174399000Y-102691250D01*
G75*
G02*
X174155250Y-102935000I-243750J0D01*
G01*
X173667750Y-102935000D01*
G75*
G02*
X173424000Y-102691250I0J243750D01*
G01*
G37*
G36*
G01*
X171549000Y-102691250D02*
X171549000Y-101778750D01*
G75*
G02*
X171792750Y-101535000I243750J0D01*
G01*
X172280250Y-101535000D01*
G75*
G02*
X172524000Y-101778750I0J-243750D01*
G01*
X172524000Y-102691250D01*
G75*
G02*
X172280250Y-102935000I-243750J0D01*
G01*
X171792750Y-102935000D01*
G75*
G02*
X171549000Y-102691250I0J243750D01*
G01*
G37*
%TD*%
%TO.C,R3*%
G36*
G01*
X173558500Y-67615750D02*
X173558500Y-68528250D01*
G75*
G02*
X173314750Y-68772000I-243750J0D01*
G01*
X172827250Y-68772000D01*
G75*
G02*
X172583500Y-68528250I0J243750D01*
G01*
X172583500Y-67615750D01*
G75*
G02*
X172827250Y-67372000I243750J0D01*
G01*
X173314750Y-67372000D01*
G75*
G02*
X173558500Y-67615750I0J-243750D01*
G01*
G37*
G36*
G01*
X171683500Y-67615750D02*
X171683500Y-68528250D01*
G75*
G02*
X171439750Y-68772000I-243750J0D01*
G01*
X170952250Y-68772000D01*
G75*
G02*
X170708500Y-68528250I0J243750D01*
G01*
X170708500Y-67615750D01*
G75*
G02*
X170952250Y-67372000I243750J0D01*
G01*
X171439750Y-67372000D01*
G75*
G02*
X171683500Y-67615750I0J-243750D01*
G01*
G37*
%TD*%
%TO.C,R4*%
G36*
G01*
X143198000Y-81609250D02*
X143198000Y-80696750D01*
G75*
G02*
X143441750Y-80453000I243750J0D01*
G01*
X143929250Y-80453000D01*
G75*
G02*
X144173000Y-80696750I0J-243750D01*
G01*
X144173000Y-81609250D01*
G75*
G02*
X143929250Y-81853000I-243750J0D01*
G01*
X143441750Y-81853000D01*
G75*
G02*
X143198000Y-81609250I0J243750D01*
G01*
G37*
G36*
G01*
X141323000Y-81609250D02*
X141323000Y-80696750D01*
G75*
G02*
X141566750Y-80453000I243750J0D01*
G01*
X142054250Y-80453000D01*
G75*
G02*
X142298000Y-80696750I0J-243750D01*
G01*
X142298000Y-81609250D01*
G75*
G02*
X142054250Y-81853000I-243750J0D01*
G01*
X141566750Y-81853000D01*
G75*
G02*
X141323000Y-81609250I0J243750D01*
G01*
G37*
%TD*%
%TO.C,R5*%
G36*
G01*
X158849000Y-68528250D02*
X158849000Y-67615750D01*
G75*
G02*
X159092750Y-67372000I243750J0D01*
G01*
X159580250Y-67372000D01*
G75*
G02*
X159824000Y-67615750I0J-243750D01*
G01*
X159824000Y-68528250D01*
G75*
G02*
X159580250Y-68772000I-243750J0D01*
G01*
X159092750Y-68772000D01*
G75*
G02*
X158849000Y-68528250I0J243750D01*
G01*
G37*
G36*
G01*
X160724000Y-68528250D02*
X160724000Y-67615750D01*
G75*
G02*
X160967750Y-67372000I243750J0D01*
G01*
X161455250Y-67372000D01*
G75*
G02*
X161699000Y-67615750I0J-243750D01*
G01*
X161699000Y-68528250D01*
G75*
G02*
X161455250Y-68772000I-243750J0D01*
G01*
X160967750Y-68772000D01*
G75*
G02*
X160724000Y-68528250I0J243750D01*
G01*
G37*
%TD*%
%TO.C,R6*%
G36*
G01*
X158547750Y-84681000D02*
X159460250Y-84681000D01*
G75*
G02*
X159704000Y-84924750I0J-243750D01*
G01*
X159704000Y-85412250D01*
G75*
G02*
X159460250Y-85656000I-243750J0D01*
G01*
X158547750Y-85656000D01*
G75*
G02*
X158304000Y-85412250I0J243750D01*
G01*
X158304000Y-84924750D01*
G75*
G02*
X158547750Y-84681000I243750J0D01*
G01*
G37*
G36*
G01*
X158547750Y-86556000D02*
X159460250Y-86556000D01*
G75*
G02*
X159704000Y-86799750I0J-243750D01*
G01*
X159704000Y-87287250D01*
G75*
G02*
X159460250Y-87531000I-243750J0D01*
G01*
X158547750Y-87531000D01*
G75*
G02*
X158304000Y-87287250I0J243750D01*
G01*
X158304000Y-86799750D01*
G75*
G02*
X158547750Y-86556000I243750J0D01*
G01*
G37*
%TD*%
%TO.C,R7*%
G36*
G01*
X154864750Y-83000000D02*
X155777250Y-83000000D01*
G75*
G02*
X156021000Y-83243750I0J-243750D01*
G01*
X156021000Y-83731250D01*
G75*
G02*
X155777250Y-83975000I-243750J0D01*
G01*
X154864750Y-83975000D01*
G75*
G02*
X154621000Y-83731250I0J243750D01*
G01*
X154621000Y-83243750D01*
G75*
G02*
X154864750Y-83000000I243750J0D01*
G01*
G37*
G36*
G01*
X154864750Y-81125000D02*
X155777250Y-81125000D01*
G75*
G02*
X156021000Y-81368750I0J-243750D01*
G01*
X156021000Y-81856250D01*
G75*
G02*
X155777250Y-82100000I-243750J0D01*
G01*
X154864750Y-82100000D01*
G75*
G02*
X154621000Y-81856250I0J243750D01*
G01*
X154621000Y-81368750D01*
G75*
G02*
X154864750Y-81125000I243750J0D01*
G01*
G37*
%TD*%
%TO.C,R8*%
G36*
G01*
X141529750Y-97762000D02*
X142442250Y-97762000D01*
G75*
G02*
X142686000Y-98005750I0J-243750D01*
G01*
X142686000Y-98493250D01*
G75*
G02*
X142442250Y-98737000I-243750J0D01*
G01*
X141529750Y-98737000D01*
G75*
G02*
X141286000Y-98493250I0J243750D01*
G01*
X141286000Y-98005750D01*
G75*
G02*
X141529750Y-97762000I243750J0D01*
G01*
G37*
G36*
G01*
X141529750Y-99637000D02*
X142442250Y-99637000D01*
G75*
G02*
X142686000Y-99880750I0J-243750D01*
G01*
X142686000Y-100368250D01*
G75*
G02*
X142442250Y-100612000I-243750J0D01*
G01*
X141529750Y-100612000D01*
G75*
G02*
X141286000Y-100368250I0J243750D01*
G01*
X141286000Y-99880750D01*
G75*
G02*
X141529750Y-99637000I243750J0D01*
G01*
G37*
%TD*%
%TO.C,U4*%
G36*
G01*
X173459000Y-106405000D02*
X173759000Y-106405000D01*
G75*
G02*
X173909000Y-106555000I0J-150000D01*
G01*
X173909000Y-108205000D01*
G75*
G02*
X173759000Y-108355000I-150000J0D01*
G01*
X173459000Y-108355000D01*
G75*
G02*
X173309000Y-108205000I0J150000D01*
G01*
X173309000Y-106555000D01*
G75*
G02*
X173459000Y-106405000I150000J0D01*
G01*
G37*
G36*
G01*
X172189000Y-106405000D02*
X172489000Y-106405000D01*
G75*
G02*
X172639000Y-106555000I0J-150000D01*
G01*
X172639000Y-108205000D01*
G75*
G02*
X172489000Y-108355000I-150000J0D01*
G01*
X172189000Y-108355000D01*
G75*
G02*
X172039000Y-108205000I0J150000D01*
G01*
X172039000Y-106555000D01*
G75*
G02*
X172189000Y-106405000I150000J0D01*
G01*
G37*
G36*
G01*
X170919000Y-106405000D02*
X171219000Y-106405000D01*
G75*
G02*
X171369000Y-106555000I0J-150000D01*
G01*
X171369000Y-108205000D01*
G75*
G02*
X171219000Y-108355000I-150000J0D01*
G01*
X170919000Y-108355000D01*
G75*
G02*
X170769000Y-108205000I0J150000D01*
G01*
X170769000Y-106555000D01*
G75*
G02*
X170919000Y-106405000I150000J0D01*
G01*
G37*
G36*
G01*
X169649000Y-106405000D02*
X169949000Y-106405000D01*
G75*
G02*
X170099000Y-106555000I0J-150000D01*
G01*
X170099000Y-108205000D01*
G75*
G02*
X169949000Y-108355000I-150000J0D01*
G01*
X169649000Y-108355000D01*
G75*
G02*
X169499000Y-108205000I0J150000D01*
G01*
X169499000Y-106555000D01*
G75*
G02*
X169649000Y-106405000I150000J0D01*
G01*
G37*
G36*
G01*
X168379000Y-106405000D02*
X168679000Y-106405000D01*
G75*
G02*
X168829000Y-106555000I0J-150000D01*
G01*
X168829000Y-108205000D01*
G75*
G02*
X168679000Y-108355000I-150000J0D01*
G01*
X168379000Y-108355000D01*
G75*
G02*
X168229000Y-108205000I0J150000D01*
G01*
X168229000Y-106555000D01*
G75*
G02*
X168379000Y-106405000I150000J0D01*
G01*
G37*
G36*
G01*
X167109000Y-106405000D02*
X167409000Y-106405000D01*
G75*
G02*
X167559000Y-106555000I0J-150000D01*
G01*
X167559000Y-108205000D01*
G75*
G02*
X167409000Y-108355000I-150000J0D01*
G01*
X167109000Y-108355000D01*
G75*
G02*
X166959000Y-108205000I0J150000D01*
G01*
X166959000Y-106555000D01*
G75*
G02*
X167109000Y-106405000I150000J0D01*
G01*
G37*
G36*
G01*
X165839000Y-106405000D02*
X166139000Y-106405000D01*
G75*
G02*
X166289000Y-106555000I0J-150000D01*
G01*
X166289000Y-108205000D01*
G75*
G02*
X166139000Y-108355000I-150000J0D01*
G01*
X165839000Y-108355000D01*
G75*
G02*
X165689000Y-108205000I0J150000D01*
G01*
X165689000Y-106555000D01*
G75*
G02*
X165839000Y-106405000I150000J0D01*
G01*
G37*
G36*
G01*
X164569000Y-106405000D02*
X164869000Y-106405000D01*
G75*
G02*
X165019000Y-106555000I0J-150000D01*
G01*
X165019000Y-108205000D01*
G75*
G02*
X164869000Y-108355000I-150000J0D01*
G01*
X164569000Y-108355000D01*
G75*
G02*
X164419000Y-108205000I0J150000D01*
G01*
X164419000Y-106555000D01*
G75*
G02*
X164569000Y-106405000I150000J0D01*
G01*
G37*
G36*
G01*
X164569000Y-111355000D02*
X164869000Y-111355000D01*
G75*
G02*
X165019000Y-111505000I0J-150000D01*
G01*
X165019000Y-113155000D01*
G75*
G02*
X164869000Y-113305000I-150000J0D01*
G01*
X164569000Y-113305000D01*
G75*
G02*
X164419000Y-113155000I0J150000D01*
G01*
X164419000Y-111505000D01*
G75*
G02*
X164569000Y-111355000I150000J0D01*
G01*
G37*
G36*
G01*
X165839000Y-111355000D02*
X166139000Y-111355000D01*
G75*
G02*
X166289000Y-111505000I0J-150000D01*
G01*
X166289000Y-113155000D01*
G75*
G02*
X166139000Y-113305000I-150000J0D01*
G01*
X165839000Y-113305000D01*
G75*
G02*
X165689000Y-113155000I0J150000D01*
G01*
X165689000Y-111505000D01*
G75*
G02*
X165839000Y-111355000I150000J0D01*
G01*
G37*
G36*
G01*
X167109000Y-111355000D02*
X167409000Y-111355000D01*
G75*
G02*
X167559000Y-111505000I0J-150000D01*
G01*
X167559000Y-113155000D01*
G75*
G02*
X167409000Y-113305000I-150000J0D01*
G01*
X167109000Y-113305000D01*
G75*
G02*
X166959000Y-113155000I0J150000D01*
G01*
X166959000Y-111505000D01*
G75*
G02*
X167109000Y-111355000I150000J0D01*
G01*
G37*
G36*
G01*
X168379000Y-111355000D02*
X168679000Y-111355000D01*
G75*
G02*
X168829000Y-111505000I0J-150000D01*
G01*
X168829000Y-113155000D01*
G75*
G02*
X168679000Y-113305000I-150000J0D01*
G01*
X168379000Y-113305000D01*
G75*
G02*
X168229000Y-113155000I0J150000D01*
G01*
X168229000Y-111505000D01*
G75*
G02*
X168379000Y-111355000I150000J0D01*
G01*
G37*
G36*
G01*
X169649000Y-111355000D02*
X169949000Y-111355000D01*
G75*
G02*
X170099000Y-111505000I0J-150000D01*
G01*
X170099000Y-113155000D01*
G75*
G02*
X169949000Y-113305000I-150000J0D01*
G01*
X169649000Y-113305000D01*
G75*
G02*
X169499000Y-113155000I0J150000D01*
G01*
X169499000Y-111505000D01*
G75*
G02*
X169649000Y-111355000I150000J0D01*
G01*
G37*
G36*
G01*
X170919000Y-111355000D02*
X171219000Y-111355000D01*
G75*
G02*
X171369000Y-111505000I0J-150000D01*
G01*
X171369000Y-113155000D01*
G75*
G02*
X171219000Y-113305000I-150000J0D01*
G01*
X170919000Y-113305000D01*
G75*
G02*
X170769000Y-113155000I0J150000D01*
G01*
X170769000Y-111505000D01*
G75*
G02*
X170919000Y-111355000I150000J0D01*
G01*
G37*
G36*
G01*
X172189000Y-111355000D02*
X172489000Y-111355000D01*
G75*
G02*
X172639000Y-111505000I0J-150000D01*
G01*
X172639000Y-113155000D01*
G75*
G02*
X172489000Y-113305000I-150000J0D01*
G01*
X172189000Y-113305000D01*
G75*
G02*
X172039000Y-113155000I0J150000D01*
G01*
X172039000Y-111505000D01*
G75*
G02*
X172189000Y-111355000I150000J0D01*
G01*
G37*
G36*
G01*
X173459000Y-111355000D02*
X173759000Y-111355000D01*
G75*
G02*
X173909000Y-111505000I0J-150000D01*
G01*
X173909000Y-113155000D01*
G75*
G02*
X173759000Y-113305000I-150000J0D01*
G01*
X173459000Y-113305000D01*
G75*
G02*
X173309000Y-113155000I0J150000D01*
G01*
X173309000Y-111505000D01*
G75*
G02*
X173459000Y-111355000I150000J0D01*
G01*
G37*
%TD*%
%TO.C,U5*%
G36*
G01*
X185905000Y-70845000D02*
X186205000Y-70845000D01*
G75*
G02*
X186355000Y-70995000I0J-150000D01*
G01*
X186355000Y-72645000D01*
G75*
G02*
X186205000Y-72795000I-150000J0D01*
G01*
X185905000Y-72795000D01*
G75*
G02*
X185755000Y-72645000I0J150000D01*
G01*
X185755000Y-70995000D01*
G75*
G02*
X185905000Y-70845000I150000J0D01*
G01*
G37*
G36*
G01*
X184635000Y-70845000D02*
X184935000Y-70845000D01*
G75*
G02*
X185085000Y-70995000I0J-150000D01*
G01*
X185085000Y-72645000D01*
G75*
G02*
X184935000Y-72795000I-150000J0D01*
G01*
X184635000Y-72795000D01*
G75*
G02*
X184485000Y-72645000I0J150000D01*
G01*
X184485000Y-70995000D01*
G75*
G02*
X184635000Y-70845000I150000J0D01*
G01*
G37*
G36*
G01*
X183365000Y-70845000D02*
X183665000Y-70845000D01*
G75*
G02*
X183815000Y-70995000I0J-150000D01*
G01*
X183815000Y-72645000D01*
G75*
G02*
X183665000Y-72795000I-150000J0D01*
G01*
X183365000Y-72795000D01*
G75*
G02*
X183215000Y-72645000I0J150000D01*
G01*
X183215000Y-70995000D01*
G75*
G02*
X183365000Y-70845000I150000J0D01*
G01*
G37*
G36*
G01*
X182095000Y-70845000D02*
X182395000Y-70845000D01*
G75*
G02*
X182545000Y-70995000I0J-150000D01*
G01*
X182545000Y-72645000D01*
G75*
G02*
X182395000Y-72795000I-150000J0D01*
G01*
X182095000Y-72795000D01*
G75*
G02*
X181945000Y-72645000I0J150000D01*
G01*
X181945000Y-70995000D01*
G75*
G02*
X182095000Y-70845000I150000J0D01*
G01*
G37*
G36*
G01*
X182095000Y-75795000D02*
X182395000Y-75795000D01*
G75*
G02*
X182545000Y-75945000I0J-150000D01*
G01*
X182545000Y-77595000D01*
G75*
G02*
X182395000Y-77745000I-150000J0D01*
G01*
X182095000Y-77745000D01*
G75*
G02*
X181945000Y-77595000I0J150000D01*
G01*
X181945000Y-75945000D01*
G75*
G02*
X182095000Y-75795000I150000J0D01*
G01*
G37*
G36*
G01*
X183365000Y-75795000D02*
X183665000Y-75795000D01*
G75*
G02*
X183815000Y-75945000I0J-150000D01*
G01*
X183815000Y-77595000D01*
G75*
G02*
X183665000Y-77745000I-150000J0D01*
G01*
X183365000Y-77745000D01*
G75*
G02*
X183215000Y-77595000I0J150000D01*
G01*
X183215000Y-75945000D01*
G75*
G02*
X183365000Y-75795000I150000J0D01*
G01*
G37*
G36*
G01*
X184635000Y-75795000D02*
X184935000Y-75795000D01*
G75*
G02*
X185085000Y-75945000I0J-150000D01*
G01*
X185085000Y-77595000D01*
G75*
G02*
X184935000Y-77745000I-150000J0D01*
G01*
X184635000Y-77745000D01*
G75*
G02*
X184485000Y-77595000I0J150000D01*
G01*
X184485000Y-75945000D01*
G75*
G02*
X184635000Y-75795000I150000J0D01*
G01*
G37*
G36*
G01*
X185905000Y-75795000D02*
X186205000Y-75795000D01*
G75*
G02*
X186355000Y-75945000I0J-150000D01*
G01*
X186355000Y-77595000D01*
G75*
G02*
X186205000Y-77745000I-150000J0D01*
G01*
X185905000Y-77745000D01*
G75*
G02*
X185755000Y-77595000I0J150000D01*
G01*
X185755000Y-75945000D01*
G75*
G02*
X185905000Y-75795000I150000J0D01*
G01*
G37*
%TD*%
%TO.C,U6*%
G36*
G01*
X185905000Y-89130000D02*
X186205000Y-89130000D01*
G75*
G02*
X186355000Y-89280000I0J-150000D01*
G01*
X186355000Y-90930000D01*
G75*
G02*
X186205000Y-91080000I-150000J0D01*
G01*
X185905000Y-91080000D01*
G75*
G02*
X185755000Y-90930000I0J150000D01*
G01*
X185755000Y-89280000D01*
G75*
G02*
X185905000Y-89130000I150000J0D01*
G01*
G37*
G36*
G01*
X184635000Y-89130000D02*
X184935000Y-89130000D01*
G75*
G02*
X185085000Y-89280000I0J-150000D01*
G01*
X185085000Y-90930000D01*
G75*
G02*
X184935000Y-91080000I-150000J0D01*
G01*
X184635000Y-91080000D01*
G75*
G02*
X184485000Y-90930000I0J150000D01*
G01*
X184485000Y-89280000D01*
G75*
G02*
X184635000Y-89130000I150000J0D01*
G01*
G37*
G36*
G01*
X183365000Y-89130000D02*
X183665000Y-89130000D01*
G75*
G02*
X183815000Y-89280000I0J-150000D01*
G01*
X183815000Y-90930000D01*
G75*
G02*
X183665000Y-91080000I-150000J0D01*
G01*
X183365000Y-91080000D01*
G75*
G02*
X183215000Y-90930000I0J150000D01*
G01*
X183215000Y-89280000D01*
G75*
G02*
X183365000Y-89130000I150000J0D01*
G01*
G37*
G36*
G01*
X182095000Y-89130000D02*
X182395000Y-89130000D01*
G75*
G02*
X182545000Y-89280000I0J-150000D01*
G01*
X182545000Y-90930000D01*
G75*
G02*
X182395000Y-91080000I-150000J0D01*
G01*
X182095000Y-91080000D01*
G75*
G02*
X181945000Y-90930000I0J150000D01*
G01*
X181945000Y-89280000D01*
G75*
G02*
X182095000Y-89130000I150000J0D01*
G01*
G37*
G36*
G01*
X182095000Y-84180000D02*
X182395000Y-84180000D01*
G75*
G02*
X182545000Y-84330000I0J-150000D01*
G01*
X182545000Y-85980000D01*
G75*
G02*
X182395000Y-86130000I-150000J0D01*
G01*
X182095000Y-86130000D01*
G75*
G02*
X181945000Y-85980000I0J150000D01*
G01*
X181945000Y-84330000D01*
G75*
G02*
X182095000Y-84180000I150000J0D01*
G01*
G37*
G36*
G01*
X183365000Y-84180000D02*
X183665000Y-84180000D01*
G75*
G02*
X183815000Y-84330000I0J-150000D01*
G01*
X183815000Y-85980000D01*
G75*
G02*
X183665000Y-86130000I-150000J0D01*
G01*
X183365000Y-86130000D01*
G75*
G02*
X183215000Y-85980000I0J150000D01*
G01*
X183215000Y-84330000D01*
G75*
G02*
X183365000Y-84180000I150000J0D01*
G01*
G37*
G36*
G01*
X184635000Y-84180000D02*
X184935000Y-84180000D01*
G75*
G02*
X185085000Y-84330000I0J-150000D01*
G01*
X185085000Y-85980000D01*
G75*
G02*
X184935000Y-86130000I-150000J0D01*
G01*
X184635000Y-86130000D01*
G75*
G02*
X184485000Y-85980000I0J150000D01*
G01*
X184485000Y-84330000D01*
G75*
G02*
X184635000Y-84180000I150000J0D01*
G01*
G37*
G36*
G01*
X185905000Y-84180000D02*
X186205000Y-84180000D01*
G75*
G02*
X186355000Y-84330000I0J-150000D01*
G01*
X186355000Y-85980000D01*
G75*
G02*
X186205000Y-86130000I-150000J0D01*
G01*
X185905000Y-86130000D01*
G75*
G02*
X185755000Y-85980000I0J150000D01*
G01*
X185755000Y-84330000D01*
G75*
G02*
X185905000Y-84180000I150000J0D01*
G01*
G37*
%TD*%
D20*
%TO.C,U8*%
X158726000Y-73064500D03*
X155726000Y-73064500D03*
D14*
G36*
X156359500Y-77014500D02*
G01*
X156359500Y-73889500D01*
X156776000Y-73889500D01*
X156776000Y-72414500D01*
X157676000Y-72414500D01*
X157676000Y-73889500D01*
X158092500Y-73889500D01*
X158092500Y-77014500D01*
X156359500Y-77014500D01*
G37*
%TD*%
D16*
%TO.C,U9*%
X153654000Y-86040000D03*
X153654000Y-84140000D03*
X151654000Y-85090000D03*
%TD*%
%TO.C,U11*%
G36*
G01*
X150599000Y-96750000D02*
X150899000Y-96750000D01*
G75*
G02*
X151049000Y-96900000I0J-150000D01*
G01*
X151049000Y-98550000D01*
G75*
G02*
X150899000Y-98700000I-150000J0D01*
G01*
X150599000Y-98700000D01*
G75*
G02*
X150449000Y-98550000I0J150000D01*
G01*
X150449000Y-96900000D01*
G75*
G02*
X150599000Y-96750000I150000J0D01*
G01*
G37*
G36*
G01*
X149329000Y-96750000D02*
X149629000Y-96750000D01*
G75*
G02*
X149779000Y-96900000I0J-150000D01*
G01*
X149779000Y-98550000D01*
G75*
G02*
X149629000Y-98700000I-150000J0D01*
G01*
X149329000Y-98700000D01*
G75*
G02*
X149179000Y-98550000I0J150000D01*
G01*
X149179000Y-96900000D01*
G75*
G02*
X149329000Y-96750000I150000J0D01*
G01*
G37*
G36*
G01*
X148059000Y-96750000D02*
X148359000Y-96750000D01*
G75*
G02*
X148509000Y-96900000I0J-150000D01*
G01*
X148509000Y-98550000D01*
G75*
G02*
X148359000Y-98700000I-150000J0D01*
G01*
X148059000Y-98700000D01*
G75*
G02*
X147909000Y-98550000I0J150000D01*
G01*
X147909000Y-96900000D01*
G75*
G02*
X148059000Y-96750000I150000J0D01*
G01*
G37*
G36*
G01*
X146789000Y-96750000D02*
X147089000Y-96750000D01*
G75*
G02*
X147239000Y-96900000I0J-150000D01*
G01*
X147239000Y-98550000D01*
G75*
G02*
X147089000Y-98700000I-150000J0D01*
G01*
X146789000Y-98700000D01*
G75*
G02*
X146639000Y-98550000I0J150000D01*
G01*
X146639000Y-96900000D01*
G75*
G02*
X146789000Y-96750000I150000J0D01*
G01*
G37*
G36*
G01*
X146789000Y-91800000D02*
X147089000Y-91800000D01*
G75*
G02*
X147239000Y-91950000I0J-150000D01*
G01*
X147239000Y-93600000D01*
G75*
G02*
X147089000Y-93750000I-150000J0D01*
G01*
X146789000Y-93750000D01*
G75*
G02*
X146639000Y-93600000I0J150000D01*
G01*
X146639000Y-91950000D01*
G75*
G02*
X146789000Y-91800000I150000J0D01*
G01*
G37*
G36*
G01*
X148059000Y-91800000D02*
X148359000Y-91800000D01*
G75*
G02*
X148509000Y-91950000I0J-150000D01*
G01*
X148509000Y-93600000D01*
G75*
G02*
X148359000Y-93750000I-150000J0D01*
G01*
X148059000Y-93750000D01*
G75*
G02*
X147909000Y-93600000I0J150000D01*
G01*
X147909000Y-91950000D01*
G75*
G02*
X148059000Y-91800000I150000J0D01*
G01*
G37*
G36*
G01*
X149329000Y-91800000D02*
X149629000Y-91800000D01*
G75*
G02*
X149779000Y-91950000I0J-150000D01*
G01*
X149779000Y-93600000D01*
G75*
G02*
X149629000Y-93750000I-150000J0D01*
G01*
X149329000Y-93750000D01*
G75*
G02*
X149179000Y-93600000I0J150000D01*
G01*
X149179000Y-91950000D01*
G75*
G02*
X149329000Y-91800000I150000J0D01*
G01*
G37*
G36*
G01*
X150599000Y-91800000D02*
X150899000Y-91800000D01*
G75*
G02*
X151049000Y-91950000I0J-150000D01*
G01*
X151049000Y-93600000D01*
G75*
G02*
X150899000Y-93750000I-150000J0D01*
G01*
X150599000Y-93750000D01*
G75*
G02*
X150449000Y-93600000I0J150000D01*
G01*
X150449000Y-91950000D01*
G75*
G02*
X150599000Y-91800000I150000J0D01*
G01*
G37*
%TD*%
M02*
